<?xml version="1.0" encoding="utf-8"?>
<!-- Generator: Adobe Illustrator 24.0.1, SVG Export Plug-In . SVG Version: 6.00 Build 0)  -->
<svg version="1.1" id="Layer_1" xmlns="http://www.w3.org/2000/svg" xmlns:xlink="http://www.w3.org/1999/xlink" x="0px" y="0px"
	 viewBox="0 0 149.76 15.42" style="enable-background:new 0 0 149.76 15.42;" xml:space="preserve">
<style type="text/css">
	.st0{fill:#FFFFFF;}
</style>
<g>
	<path class="st0" d="M1.42,1.62l11.26,11.46c0.45,0.46,1.07,0.72,1.72,0.72h4.29c0.63,0,1.24-0.25,1.69-0.69l11.7-11.49h-7.07
		l-8.46,8.67l-8.2-8.67H1.42z"/>
	<path class="st0" d="M32.99,1.62v7.37c0,2.66,2.16,4.82,4.82,4.82H58c2.66,0,4.82-2.16,4.82-4.82V1.62h-5.9v6.67
		c0,0.43-0.35,0.78-0.78,0.78H39.67c-0.43,0-0.78-0.35-0.78-0.78V1.62H32.99z"/>
	<path class="st0" d="M64.08,13.8V1.62h37.44c2.94,0,5.32,2.38,5.32,5.32v6.87h-6.07V7.25c0-0.48-0.39-0.86-0.86-0.86H69.98v7.42
		H64.08z"/>
	<path class="st0" d="M144.99,1.62h-33.68c-1.9,0-3.43,1.54-3.43,3.43v8.75h5.9v-2.78h28.45v2.78h6.2V5.05
		C148.42,3.16,146.89,1.62,144.99,1.62z M142.01,7.26c-0.16,0.16-0.38,0.26-0.63,0.26h-26.71c-0.49,0-0.89-0.4-0.89-0.89
		c0-0.25,0.1-0.47,0.26-0.63c0.16-0.16,0.38-0.26,0.63-0.26h26.71c0.49,0,0.89,0.4,0.89,0.89C142.27,6.87,142.17,7.09,142.01,7.26z"
		/>
	<rect x="82.51" y="5.74" class="st0" width="5.85" height="8.07"/>
</g>
</svg>
