<?xml version="1.0" encoding="utf-8"?>
<!-- Generator: Adobe Illustrator 24.0.1, SVG Export Plug-In . SVG Version: 6.00 Build 0)  -->
<svg version="1.1" id="Layer_1" xmlns="http://www.w3.org/2000/svg" xmlns:xlink="http://www.w3.org/1999/xlink" x="0px" y="0px"
	 viewBox="0 0 149.87 63.17" style="enable-background:new 0 0 149.87 63.17;" xml:space="preserve">
<style type="text/css">
	.st0{fill:#1CA3DD;}
	.st1{fill:#DA1F27;}
	.st2{fill:#046992;}
	.st3{fill:none;stroke:#046992;stroke-width:0.0486;stroke-miterlimit:3.8636;}
	.st4{fill-rule:evenodd;clip-rule:evenodd;fill:#FFFFFF;}
	.st5{fill-rule:evenodd;clip-rule:evenodd;fill:#EF4135;}
	.st6{fill-rule:evenodd;clip-rule:evenodd;fill:#FFC429;}
	.st7{fill:#FFFFFF;}
	.st8{fill:#45205B;}
	.st9{fill:#7C2D81;}
	.st10{fill:#B32D38;}
	.st11{fill:#CB6C38;}
	.st12{fill:#DC8C38;}
	.st13{fill:#658E3F;}
	.st14{fill:#027097;}
	.st15{fill:#047299;}
	.st16{fill:#F07225;}
	.st17{fill:#EA2C34;}
	.st18{fill:#DE1380;}
	.st19{fill:#B62B3A;}
	.st20{fill:#E29033;}
	.st21{fill:#F8B52E;}
	.st22{fill:#53B348;}
	.st23{fill:#00A8BD;}
	.st24{fill:#55B247;}
	.st25{fill:#E9282A;}
	.st26{fill:#E61788;}
	.st27{fill:#5D6EB2;}
</style>
<path class="st0" d="M701.62,1108.66H591.42c-26.37,0-47.75-21.38-47.75-47.75V942.35c0-26.37,21.38-47.75,47.75-47.75h110.21
	c26.37,0,47.75,21.38,47.75,47.75v118.57C749.37,1087.29,727.99,1108.66,701.62,1108.66z"/>
<path class="st1" d="M477.82,1108.66H367.61c-26.37,0-47.75-21.38-47.75-47.75V942.35c0-26.37,21.38-47.75,47.75-47.75h110.21
	c26.37,0,47.75,21.38,47.75,47.75v118.57C525.57,1087.29,504.19,1108.66,477.82,1108.66z"/>
<g>
	<path class="st2" d="M11.62,31.58c0-13.64,28.35-24.7,63.32-24.7c34.97,0,63.31,11.06,63.31,24.7c0,13.64-28.35,24.7-63.31,24.7
		C39.97,56.28,11.62,45.22,11.62,31.58z"/>
	<path class="st3" d="M11.62,31.58c0-13.64,28.35-24.7,63.32-24.7c34.97,0,63.31,11.06,63.31,24.7c0,13.64-28.35,24.7-63.31,24.7
		C39.97,56.28,11.62,45.22,11.62,31.58z"/>
	<polygon class="st4" points="34.82,43.59 41.4,19.06 51.77,19.06 51.77,33.49 51.83,33.49 58.87,19.06 69.41,19.06 62.84,43.59 
		55.99,43.59 60.2,27.85 60.13,27.85 51.77,43.59 46.28,43.59 46.28,27.85 46.17,27.85 41.96,43.59 	"/>
	<polygon class="st5" points="71.26,44.07 72.19,40.59 79.75,40.59 78.82,44.07 	"/>
	<polygon class="st6" points="72.46,39.61 76.28,25.35 69.41,25.35 71.09,19.06 92.39,19.06 90.71,25.35 83.84,25.35 80.02,39.6 	
		"/>
	<polygon class="st4" points="87.51,43.59 94.08,19.06 101.5,19.06 104.85,32.18 104.91,32.18 108.43,19.06 115.29,19.06 
		108.72,43.59 101.66,43.59 98.02,30.19 97.96,30.19 94.37,43.59 	"/>
</g>
<g>
	<g>
		<path class="st7" d="M478.78,1037.72v-8.06c0-3.59-2.52-5.74-6.85-5.74c-1.48,0-2.78,0.42-3.53,0.87
			c-4.66-1.97-8.17-0.68-9.92,0.39v12.54h3.74v-10.39c0,0,0.35-0.34,1.39-0.34c2.07,0,3.11,1.04,3.11,3.07v7.65h3.64v-8.96
			c0-0.75-0.24-1.27-0.21-1.29c0.06-0.03,0.87-0.48,1.73-0.48c2.07,0,3.11,1.04,3.11,3.07v7.65H478.78z M456.6,1030.99
			c0-4.02-2.7-7.05-7.05-7.05c-4.31,0-7.01,3.03-7.01,7.05c0,5.33,4.18,7.05,7.01,7.05C454.94,1038.04,456.6,1033.8,456.6,1030.99
			 M452.65,1031.02c0,2.54-1.33,3.95-3.1,3.95c-1.78,0-3.11-1.4-3.11-3.95c0-2.19,1.02-4.01,3.11-4.01
			C451.63,1027.01,452.65,1028.83,452.65,1031.02 M433.82,1030.92c0-3.4,2.6-3.83,3.4-3.83c2.03,0,3.34,0.85,3.34,0.85l0.84-3.09
			c-0.26-0.12-2.01-0.9-4.13-0.9c-5.62,0-7.21,4.55-7.22,7.1c0,3.78,2.75,7,7.57,7c1.94,0,4.05-1.03,4.05-1.03l-1.02-2.82
			c0,0-1.78,0.73-2.96,0.73C435.34,1034.92,433.82,1033.4,433.82,1030.92 M424.88,1037.7h3.29v-12.71
			c-1.28-0.51-3.54-1.06-5.77-1.06c-4.49,0-7.63,3.1-7.63,7.34c0,5.18,3.85,6.76,6.25,6.76c1.75,0,2.85-0.63,3.62-1.5L424.88,1037.7
			z M424.45,1033.57c-0.44,0.74-1.42,1.39-2.67,1.39c-1.46,0-3.1-1.04-3.1-3.83c0-2.63,1.86-4.02,3.65-4.02
			c0.91,0,1.72,0.14,2.12,0.25V1033.57z M407.39,1038.04c2.27,0,4.13-0.26,5.73-0.59v-18.66h-3.69v5.66
			c-0.62-0.25-1.75-0.51-2.92-0.51c-4.05,0-6.75,3.03-6.75,6.97C399.76,1037.06,404.6,1038.04,407.39,1038.04 M407.46,1034.93
			c-1.8,0-3.8-1.01-3.8-4.02c0-2.19,1.13-3.9,3.14-3.9c1.13,0,2.05,0.29,2.63,0.62v7.16
			C408.92,1034.89,408.19,1034.93,407.46,1034.93 M398.22,1030.99c0-4.02-2.7-7.05-7.05-7.05c-4.31,0-7.01,3.03-7.01,7.05
			c0,5.33,4.18,7.05,7.01,7.05C396.56,1038.04,398.22,1033.8,398.22,1030.99 M394.27,1031.02c0,2.54-1.32,3.95-3.1,3.95
			c-1.78,0-3.11-1.4-3.11-3.95c0-2.19,1.02-4.01,3.11-4.01C393.25,1027.01,394.27,1028.83,394.27,1031.02 M378.66,1037.71
			l5.44-13.44h-4.16l-3.21,8.77l-3.32-8.77h-4.35l5.66,13.44H378.66z"/>
	</g>
	<path class="st7" d="M449.87,987.37c0,14.33-11.62,25.95-25.95,25.95s-25.95-11.62-25.95-25.95s11.62-25.95,25.95-25.95
		c3.21,0,6.28,0.58,9.11,1.64c-0.22,0.01-0.45,0.03-0.69,0.04c-0.34,0.03-0.7,0.07-1.08,0.12c-0.89,0.12-1.84,0.3-2.82,0.54
		c-0.15,0.04-1.25,0.33-1.4,0.38c-0.74,0.22-1.49,0.48-2.24,0.76c-2.75,1.06-5.3,2.52-7.47,4.38c-3.69,3.12-6.5,7.44-7.68,12.23
		c-0.32,1.27-0.51,2.58-0.59,3.91c0,0.02-0.01,0.25-0.01,0.28c-0.01,0.09-0.02,0.7-0.02,0.79c0,0.68,0.03,1.35,0.11,2.02
		c0.1,0.91,0.26,1.81,0.5,2.68c0.01,0.04,0.08,0.32,0.09,0.36c0.45,1.56,1.11,3.03,1.97,4.36c0.57,0.9,1.23,1.72,1.97,2.47
		c1.86,1.89,4.16,3.27,6.66,3.99c0.76,0.22,1.54,0.38,2.31,0.48c0.5,0.06,1.02,0.1,1.53,0.1c1.37,0.02,2.74-0.16,4.06-0.52
		c1.88-0.52,3.62-1.4,5.14-2.6c0.43-0.34,0.85-0.71,1.25-1.1c1.06-1.06,1.94-2.27,2.61-3.59c1.03-2.01,1.57-4.27,1.57-6.56
		c0-0.06-0.01-0.48-0.01-0.53c-0.05-1.38-0.26-2.7-0.63-3.92c-0.38-1.25-0.92-2.4-1.62-3.44c-0.02-0.04-0.2-0.29-0.22-0.32
		c-0.97-1.35-2.22-2.51-3.73-3.44c-1.62-1-3.53-1.75-5.73-2.22c-0.01-0.04-0.27-0.13-0.27-0.16c0-0.07-0.03-0.49-0.02-0.55
		c0-0.03-0.01-0.23-0.01-0.26c0.22-4.4,2.7-8.31,6.57-10.21c0.04-0.03,0.09-0.05,0.14-0.07c0.13-0.06,0.24-0.11,0.33-0.16
		C443.14,967.12,449.87,976.46,449.87,987.37z"/>
</g>
<g>
	<path class="st8" d="M633.96,998.49l-9.25,8.04c1.46,1.6,3.08,3.05,4.83,4.35l7.38-9.78
		C635.84,1000.32,634.85,999.45,633.96,998.49z"/>
	<path class="st9" d="M629.27,990.68l-11.79,3.4c0.63,1.96,1.42,3.84,2.38,5.63l10.78-5.81
		C630.11,992.88,629.64,991.79,629.27,990.68z"/>
	<path class="st10" d="M628.45,980.38l-11.99-2.55c-0.36,1.97-0.55,3.98-0.55,6.05c0,0.27,0,0.55,0.01,0.81l12.24-0.31
		c-0.01-0.17-0.01-0.34-0.01-0.51C628.15,982.69,628.25,981.52,628.45,980.38z"/>
	<path class="st11" d="M621.57,965.21c-1.1,1.65-2.06,3.39-2.85,5.21l11.3,4.74c0.47-1.04,1.01-2.05,1.64-2.99L621.57,965.21z"/>
	<path class="st12" d="M631.72,955.39c-1.63,1.01-3.16,2.15-4.58,3.43l8.29,9.03c0.81-0.72,1.69-1.38,2.61-1.97L631.72,955.39z"/>
	<path class="st13" d="M646.16,950.47c-2.21,0.22-4.36,0.66-6.42,1.28l3.72,11.67c1.2-0.36,2.45-0.61,3.73-0.74L646.16,950.47z"/>
	<path class="st14" d="M654.36,950.67l-1.6,12.14c1.21,0.18,2.38,0.47,3.52,0.84l4.16-11.51
		C658.49,951.46,656.45,950.96,654.36,950.67z"/>
	<path class="st15" d="M667.54,955.58l-6.36,10.47c0.98,0.65,1.91,1.37,2.77,2.17l8.39-8.93
		C670.86,957.92,669.25,956.67,667.54,955.58z"/>
	<path class="st13" d="M677.53,965.43l-10.07,7c0.65,1.01,1.22,2.1,1.69,3.22l11.41-4.46C679.73,969.16,678.71,967.24,677.53,965.43
		z"/>
	<path class="st16" d="M670.74,985.43c-0.09,1.27-0.29,2.51-0.61,3.71L682,992.2c0.53-2.07,0.86-4.22,0.99-6.42L670.74,985.43z"/>
	<path class="st17" d="M667.96,994.49c-0.52,0.92-1.11,1.8-1.78,2.62l9.55,7.68c1.16-1.46,2.2-3.01,3.11-4.65L667.96,994.49z"/>
	<path class="st18" d="M661.99,1001.14c-0.91,0.67-1.88,1.26-2.9,1.78l5.37,11c1.8-0.89,3.5-1.95,5.09-3.13L661.99,1001.14z"/>
	<path class="st19" d="M665.54,997.88c-0.82,0.96-1.75,1.86-2.75,2.65l7.55,9.64c1.74-1.38,3.34-2.93,4.77-4.62L665.54,997.88z"/>
	<path class="st11" d="M669.87,990.11c-0.38,1.23-0.85,2.4-1.44,3.52l10.86,5.64c1.01-1.94,1.83-3.97,2.44-6.11L669.87,990.11z"/>
	<path class="st20" d="M682.7,979.1l-12.08,2.09c0.12,0.88,0.18,1.78,0.18,2.69c0,0.19,0,0.38-0.02,0.56l12.25,0.35
		c0.01-0.3,0.01-0.61,0.01-0.9C683.04,982.26,682.92,980.66,682.7,979.1z"/>
	<path class="st21" d="M680.93,972.11l-11.41,4.46c0.43,1.16,0.75,2.38,0.95,3.64l12.07-2.09
		C682.2,976.06,681.64,974.04,680.93,972.11z"/>
	<path class="st22" d="M673.06,959.99l-8.4,8.93c0.82,0.83,1.58,1.73,2.24,2.69l10.06-7C675.8,962.96,674.5,961.41,673.06,959.99z"
		/>
	<path class="st23" d="M661.37,952.48L657.19,964c1.1,0.42,2.15,0.93,3.15,1.53l6.36-10.47
		C665.01,954.05,663.23,953.18,661.37,952.48z"/>
	<path class="st24" d="M649.48,950.31c-0.78,0-1.56,0.03-2.33,0.08l1.03,12.2c0.44-0.03,0.86-0.04,1.3-0.04
		c0.77,0,1.54,0.04,2.29,0.12l1.6-12.13C652.09,950.39,650.8,950.31,649.48,950.31z"/>
	<path class="st21" d="M638.8,952.05c-2.18,0.73-4.28,1.69-6.24,2.84l6.32,10.49c1.14-0.67,2.36-1.22,3.63-1.66L638.8,952.05z"/>
	<path class="st16" d="M626.4,959.48c-1.58,1.51-3.01,3.15-4.28,4.92l10.09,6.96c0.74-1.03,1.57-1.99,2.48-2.86L626.4,959.48z"/>
	<path class="st25" d="M618.33,971.34c-0.72,1.77-1.28,3.61-1.69,5.52l11.98,2.54c0.24-1.14,0.58-2.25,1-3.32L618.33,971.34z"/>
	<path class="st26" d="M628.21,985.38l-12.25,0.31c0.14,2.56,0.56,5.05,1.24,7.44l11.78-3.4
		C628.57,988.34,628.31,986.88,628.21,985.38z"/>
	<path class="st27" d="M631.15,994.77l-10.79,5.8c1.05,1.86,2.29,3.6,3.68,5.21l9.25-8.04
		C632.49,996.82,631.78,995.82,631.15,994.77z"/>
	<path class="st9" d="M637.73,1001.66l-7.39,9.8c1.5,1.04,3.1,1.97,4.77,2.76l5.14-11.12
		C639.38,1002.69,638.54,1002.2,637.73,1001.66z"/>
	<path class="st7" d="M646.44,984.37c0,1.67-1.35,3.03-3.02,3.03s-3.02-1.36-3.02-3.03c0-1.67,1.35-3.03,3.02-3.03
		S646.44,982.7,646.44,984.37z"/>
	<path class="st7" d="M649.48,968.22c-8.39,0-15.18,6.8-15.18,15.18s6.79,15.17,15.18,15.17c8.38,0,15.17-6.79,15.17-15.17
		S657.86,968.22,649.48,968.22z M643.42,990.42c-3.34,0-6.05-2.72-6.05-6.05c0-3.35,2.71-6.06,6.05-6.06c3.34,0,6.05,2.71,6.05,6.06
		C649.47,987.7,646.76,990.42,643.42,990.42z M658.08,990.23l-5.28-6.82v6.82h-2.88v-11.82h2.79l5.04,7.04v-7.04h3.01v11.82H658.08z
		"/>
	<polygon class="st7" points="614.22,1048.68 621.96,1048.68 636.04,1024.05 636.04,1048.68 642.17,1048.68 642.17,1018.28 
		634.63,1018.28 	"/>
	<polygon class="st7" points="628.2,1033.48 637.02,1033.48 637.02,1038.97 624.35,1038.97 	"/>
	<rect x="646.59" y="1003.93" class="st7" width="5.91" height="44.75"/>
	<path class="st7" d="M675.12,1038.22c3.81-1.52,6.51-5.24,6.51-9.6c0-5.71-4.64-10.34-10.35-10.34h-15.24v30.39h6.31v-9.71h5.61
		l7.2,9.71h7.32L675.12,1038.22z M670.77,1033.95h-8.42v-9.9h8.42c1.36,0,2.6,0.56,3.5,1.45c0.89,0.89,1.45,2.13,1.45,3.5
		C675.73,1031.73,673.5,1033.95,670.77,1033.95z"/>
</g>
</svg>
