<?xml version="1.0" encoding="utf-8"?>
<!-- Generator: Adobe Illustrator 24.0.1, SVG Export Plug-In . SVG Version: 6.00 Build 0)  -->
<svg version="1.1" id="Layer_1" xmlns="http://www.w3.org/2000/svg" xmlns:xlink="http://www.w3.org/1999/xlink" x="0px" y="0px"
	 viewBox="0 0 136.73 73.54" style="enable-background:new 0 0 136.73 73.54;" xml:space="preserve">
<style type="text/css">
	.st0{fill:#FFFFFF;}
</style>
<g>
	<g>
		<path class="st0" d="M37.61,72.47c-4.8,0-9.46-0.94-13.85-2.8c-4.24-1.79-8.04-4.36-11.31-7.62c-3.27-3.27-5.83-7.07-7.62-11.31
			c-1.86-4.39-2.8-9.05-2.8-13.85s0.94-9.46,2.8-13.85c1.79-4.24,4.36-8.04,7.62-11.31s7.07-5.83,11.31-7.62
			c4.39-1.86,9.05-2.8,13.85-2.8c6.23,0,12.35,1.63,17.72,4.72l-1.84,3.21C48.67,6.46,43.19,5,37.61,5
			c-8.52,0-16.52,3.32-22.55,9.34S5.72,28.37,5.72,36.88s3.32,16.52,9.34,22.55s14.03,9.34,22.55,9.34s16.52-3.32,22.55-9.34
			s9.34-14.03,9.34-22.55c0-5.58-1.46-11.08-4.23-15.89l3.2-1.85c3.09,5.37,4.73,11.5,4.73,17.73c0,4.8-0.94,9.46-2.8,13.85
			c-1.79,4.24-4.36,8.04-7.62,11.31c-3.27,3.27-7.07,5.83-11.31,7.62C47.07,71.53,42.41,72.47,37.61,72.47z"/>
	</g>
	<g>
		<path class="st0" d="M64.26,19.38c-2.42-3.68-5.66-6.89-9.36-9.28l2.01-3.1c4.18,2.71,7.7,6.19,10.44,10.35L64.26,19.38z"/>
	</g>
	<path class="st0" d="M18.7,30.44h-0.97c-2.85,0-5.16,2.31-5.16,5.16v2.17c0,2.85,2.31,5.16,5.16,5.16h0.97
		c2.85,0,5.16-2.31,5.16-5.16V35.6C23.86,32.75,21.55,30.44,18.7,30.44z M21.31,37.41c0,1.64-1.33,2.98-2.98,2.98H18.1
		c-1.64,0-2.98-1.33-2.98-2.98v-1.44c0-1.64,1.33-2.98,2.98-2.98h0.24c1.64,0,2.98,1.33,2.98,2.98V37.41z"/>
	<polygon class="st0" points="26.26,31.74 26.26,47.83 28.86,47.23 28.86,31.54 	"/>
	<path class="st0" d="M26.26,31.74l1.8,9.7l0.4,1.2c0,0,1.2,0.3,3,0.3c1.8,0,5.3-0.8,5.3-6.3S33.26,29.04,26.26,31.74z M32.21,40.18
		c-2,0.4-3.3-0.2-3.6-0.3l-0.6-2.8l0.4-3.7c4.6-1.3,5.9,1.1,5.9,2.7C34.31,37.68,34.21,39.78,32.21,40.18z"/>
	<path class="st0" d="M44.75,30.54c-6.3,0-5.9,5.8-5.7,8.1c0.2,2.3,2.6,4.3,5.2,4.3c2.6,0,4.5-0.8,4.5-0.8v-2.5
		c0,0-1.95,0.95-4.15,0.95s-3.05-2.2-3.05-2.85h8.6C50.15,37.73,51.05,30.54,44.75,30.54z M41.65,35.44c0,0,0.4-2.4,3-2.4
		c2.6,0,2.9,2.4,2.9,2.4H41.65z"/>
	<path class="st0" d="M94.63,30.54c-6.3,0-5.9,5.8-5.7,8.1c0.2,2.3,2.6,4.3,5.2,4.3c2.6,0,4.5-0.8,4.5-0.8v-2.5
		c0,0-1.95,0.95-4.15,0.95s-3.05-2.2-3.05-2.85h8.6C100.02,37.73,100.92,30.54,94.63,30.54z M91.53,35.44c0,0,0.4-2.4,3-2.4
		c2.6,0,2.9,2.4,2.9,2.4H91.53z"/>
	<path class="st0" d="M130.11,30.54c-6.3,0-5.9,5.8-5.7,8.1c0.2,2.3,2.6,4.3,5.2,4.3c2.6,0,4.5-0.8,4.5-0.8v-2.5
		c0,0-1.95,0.95-4.15,0.95c-2.2,0-3.05-2.2-3.05-2.85h8.6C135.51,37.73,136.41,30.54,130.11,30.54z M127.01,35.44c0,0,0.4-2.4,3-2.4
		c2.6,0,2.9,2.4,2.9,2.4H127.01z"/>
	<path class="st0" d="M55.05,42.93h-2.6V31.64c0,0,10.29-4.4,10.29,4.5v6.8h-2.6c0,0,0-5.85,0-6.95s-0.25-4-5.05-2.7L55.05,42.93z"
		/>
	<path class="st0" d="M109.02,30.69v2.3c-2.16-0.23-3.38,0.11-3.79,0.26h0c-0.05,0.01-0.1,0.03-0.16,0.04v0.02l-0.05,9.62h-2.6
		V31.64C102.42,31.64,106.07,30.08,109.02,30.69z"/>
	<polygon class="st0" points="110.62,30.54 115.72,42.93 118.12,42.93 123.21,30.54 120.21,30.54 116.87,38.58 113.67,30.59 	"/>
	<path class="st0" d="M85.63,31.04v2.3c0,0-1.8-0.4-3.6-0.4s-2.1,0.9-2.1,1.2s0.2,1.3,2,1.3s4.7,0.6,4.7,3.8c0,3.2-3.1,3.7-4.2,3.7
		c-1.1,0-3.6-0.3-4.8-0.6v-2.4c0,0,2.35,0.55,4.35,0.55c2,0,2.2-0.6,2.2-1.3s-0.5-1.4-2.9-1.4s-3.9-1.3-3.9-3.7
		C77.39,31.69,79.78,29.49,85.63,31.04z"/>
</g>
</svg>
