<?xml version="1.0" encoding="utf-8"?>
<!-- Generator: Adobe Illustrator 24.0.1, SVG Export Plug-In . SVG Version: 6.00 Build 0)  -->
<svg version="1.1" id="Layer_1" xmlns="http://www.w3.org/2000/svg" xmlns:xlink="http://www.w3.org/1999/xlink" x="0px" y="0px"
	 viewBox="0 0 157 38" style="enable-background:new 0 0 157 38;" xml:space="preserve">
<style type="text/css">
	.st0{fill:#FFFFFF;}
</style>
<g>
	<path class="st0" d="M28.28,3.71c0.57,0,0.81,0.24,0.45,0.89L17.74,25.09v8.72c0,0.41-0.2,0.61-0.61,0.61h-2.92
		c-0.41,0-0.61-0.2-0.61-0.61v-8.72L2.61,4.6C2.24,3.96,2.49,3.71,3.06,3.71h3.16c0.61,0,0.81,0.2,1.1,0.65l8.36,16.26l8.4-16.26
		c0.2-0.45,0.49-0.65,1.1-0.65H28.28z"/>
	<path class="st0" d="M44.96,18.39v14.2c0,0.36,0,0.85-0.77,1.14c-1.42,0.53-4.95,0.89-9,0.89c-5.35,0-7.83-1.1-7.83-6.53
		c0-4.87,2.56-6.25,7.18-6.25l6.53-0.04v-2.72c0-2.51-1.46-3.65-5.27-3.65h-6.08c-0.49,0-0.61-0.12-0.61-0.61v-1.66
		c0-0.49,0.16-0.57,0.57-0.65c2.39-0.41,4.42-0.49,6.12-0.49C42.12,12.03,44.96,13.97,44.96,18.39z M34.61,24.97
		c-2.23,0-3.41,0.73-3.41,3.04c0,2.68,1.34,3.29,4.66,3.29c1.26,0,3.65-0.08,5.19-0.49v-5.84H34.61z"/>
	<path class="st0" d="M53.68,3.75c0.41,0,0.61,0.2,0.61,0.61v7.87c1.99-0.2,3.97-0.2,5.15-0.2c7.26,0,9.41,0.89,9.41,9.49v12.29
		c0,0.41-0.2,0.61-0.61,0.61h-2.68c-0.41,0-0.61-0.2-0.61-0.61V21.84c0-6.21-1.22-6.45-5.11-6.45h-5.56v18.41
		c0,0.41-0.2,0.61-0.61,0.61H51c-0.41,0-0.61-0.2-0.61-0.61V4.36c0-0.41,0.2-0.61,0.61-0.61H53.68z"/>
	<path class="st0" d="M93.68,3.91c0.4,0.04,0.65,0.28,0.65,0.69v1.91c0,0.41-0.2,0.61-0.61,0.61h-7.59c-7.02,0-8.23,2.68-8.23,11.96
		c0,9.25,1.22,11.92,8.23,11.92h7.59c0.41,0,0.61,0.2,0.61,0.61v1.91c0,0.41-0.24,0.65-0.65,0.73c-2.03,0.28-4.91,0.37-7.54,0.37
		c-9.9,0-12.33-3.53-12.33-15.53S76.24,3.51,86.13,3.51C88.77,3.51,91.65,3.63,93.68,3.91z"/>
	<path class="st0" d="M101.87,3.71c0.41,0,0.61,0.2,0.61,0.61v29.49c0,0.41-0.2,0.61-0.61,0.61H99.2c-0.41,0-0.61-0.2-0.61-0.61
		V4.32c0-0.41,0.2-0.61,0.61-0.61H101.87z"/>
	<path class="st0" d="M112.42,5.74c0,1.54-0.81,2.39-2.39,2.39c-1.54,0-2.39-0.85-2.39-2.39s0.85-2.35,2.39-2.35
		C111.61,3.39,112.42,4.2,112.42,5.74z M111.37,12.23c0.41,0,0.61,0.2,0.61,0.61v20.97c0,0.41-0.2,0.61-0.61,0.61h-2.68
		c-0.41,0-0.61-0.2-0.61-0.61V12.84c0-0.41,0.2-0.61,0.61-0.61H111.37z"/>
	<path class="st0" d="M132.5,12.39c0.37,0.04,0.57,0.28,0.57,0.69v1.74c0,0.41-0.2,0.61-0.61,0.61h-6.13
		c-4.91,0-5.52,1.58-5.52,7.91c0,6.29,0.61,7.87,5.52,7.87h6.13c0.41,0,0.61,0.2,0.61,0.61v1.74c0,0.41-0.2,0.65-0.57,0.69
		c-2.07,0.28-4.46,0.37-6.17,0.37c-7.87,0-9.41-2.23-9.41-11.28c0-9.04,1.54-11.32,9.41-11.32
		C128.04,12.03,130.43,12.11,132.5,12.39z"/>
	<path class="st0" d="M140.57,3.75c0.41,0,0.61,0.24,0.61,0.65v15.7l6.65-7.46c0.2-0.24,0.49-0.41,0.85-0.41h3.37
		c0.73,0,0.77,0.36,0.37,0.77l-7.18,7.95l9.53,12.37c0.36,0.49,0.41,1.1-0.69,1.1h-2.84c-0.4,0-0.69-0.2-0.89-0.45l-9.17-12.09
		v11.88c0,0.45-0.2,0.65-0.61,0.65h-2.68c-0.41,0-0.61-0.2-0.61-0.65V4.4c0-0.41,0.2-0.65,0.61-0.65H140.57z"/>
</g>
</svg>
