<?xml version="1.0" encoding="utf-8"?>
<!-- Generator: Adobe Illustrator 23.1.1, SVG Export Plug-In . SVG Version: 6.00 Build 0)  -->
<svg version="1.1" id="Layer_1" xmlns="http://www.w3.org/2000/svg" xmlns:xlink="http://www.w3.org/1999/xlink" x="0px" y="0px"
	 viewBox="0 0 75.03 75.19" style="enable-background:new 0 0 75.03 75.19;" xml:space="preserve">
<style type="text/css">
	.st0{fill-rule:evenodd;clip-rule:evenodd;fill:#ACF241;}
	.st1{fill-rule:evenodd;clip-rule:evenodd;fill:#151E40;}
</style>
<g>
	<circle class="st0" cx="37.52" cy="37.6" r="36.66"/>
	<g>
		<path class="st1" d="M28.05,40.05l-6.25,7.91c-0.14,0.18-0.11,0.44,0.07,0.59l0,0l4.76,3.82c1,0.8,2.23,1.12,3.41,1
			c1.18-0.12,2.32-0.7,3.13-1.68c3.19-3.9,6.08-8.1,8.62-12.5c2.54-4.4,4.73-9,6.51-13.72c0.45-1.2,0.38-2.47-0.1-3.55
			c-0.48-1.09-1.38-1.99-2.57-2.45l-5.69-2.22c-0.22-0.08-0.46,0.02-0.54,0.24l0,0.01l-3.73,9.38c-0.08,0.22,0.02,0.46,0.24,0.54h0
			l0,0l3.18,1.24c-1.07,2.32-2.28,4.64-3.58,6.9l-0.01,0.02c-1.3,2.25-2.7,4.44-4.17,6.53l-2.66-2.14
			c-0.18-0.15-0.45-0.12-0.59,0.06L28.05,40.05L28.05,40.05z M22.72,48.16l5.74-7.27l2.68,2.15h0l0.02,0.02
			c0.19,0.14,0.45,0.09,0.58-0.1c1.58-2.21,3.08-4.55,4.47-6.96l0.01-0.02c1.39-2.41,2.67-4.89,3.8-7.37l0.01-0.03
			c0.08-0.22-0.02-0.46-0.24-0.54l-3.2-1.25l3.43-8.61l5.3,2.07c0.98,0.38,1.71,1.12,2.11,2.01c0.4,0.89,0.46,1.93,0.09,2.91
			c-1.77,4.68-3.94,9.24-6.45,13.6c-2.51,4.35-5.38,8.51-8.55,12.39c-0.66,0.81-1.6,1.28-2.56,1.38c-0.97,0.1-1.98-0.16-2.8-0.82
			L22.72,48.16L22.72,48.16z M40.04,28.6L40.04,28.6L40.04,28.6z"/>
	</g>
</g>
</svg>
