<?xml version="1.0" encoding="utf-8"?>
<!-- Generator: Adobe Illustrator 24.0.1, SVG Export Plug-In . SVG Version: 6.00 Build 0)  -->
<svg version="1.1" id="Layer_1" xmlns="http://www.w3.org/2000/svg" xmlns:xlink="http://www.w3.org/1999/xlink" x="0px" y="0px"
	 viewBox="0 0 155.06 69.63" style="enable-background:new 0 0 155.06 69.63;" xml:space="preserve">
<style type="text/css">
	.st0{fill:#1CA3DD;}
	.st1{fill:#F37235;}
	.st2{fill:#FFC429;}
	.st3{fill:#312B2C;}
	.st4{fill:#DA1F27;}
	.st5{fill:#088ACB;}
	.st6{fill:#FFFFFF;}
	.st7{fill:none;}
	.st8{fill:#046992;}
	.st9{fill:none;stroke:#046992;stroke-width:0.0486;stroke-miterlimit:3.8636;}
	.st10{fill-rule:evenodd;clip-rule:evenodd;fill:#FFFFFF;}
	.st11{fill-rule:evenodd;clip-rule:evenodd;fill:#EF4135;}
	.st12{fill-rule:evenodd;clip-rule:evenodd;fill:#FFC429;}
	.st13{fill:#45205B;}
	.st14{fill:#7C2D81;}
	.st15{fill:#B32D38;}
	.st16{fill:#CB6C38;}
	.st17{fill:#DC8C38;}
	.st18{fill:#658E3F;}
	.st19{fill:#027097;}
	.st20{fill:#047299;}
	.st21{fill:#F07225;}
	.st22{fill:#EA2C34;}
	.st23{fill:#DE1380;}
	.st24{fill:#B62B3A;}
	.st25{fill:#E29033;}
	.st26{fill:#F8B52E;}
	.st27{fill:#53B348;}
	.st28{fill:#00A8BD;}
	.st29{fill:#55B247;}
	.st30{fill:#E9282A;}
	.st31{fill:#E61788;}
	.st32{fill:#5D6EB2;}
</style>
<path class="st0" d="M701.62,1111.95H591.42c-26.37,0-47.75-21.38-47.75-47.75V945.63c0-26.37,21.38-47.75,47.75-47.75h110.21
	c26.37,0,47.75,21.38,47.75,47.75v118.57C749.37,1090.57,727.99,1111.95,701.62,1111.95z"/>
<path class="st1" d="M-194.63,1111.95h-110.21c-26.37,0-47.75-21.38-47.75-47.75V945.63c0-26.37,21.38-47.75,47.75-47.75h110.21
	c26.37,0,47.75,21.38,47.75,47.75v118.57C-146.88,1090.57-168.26,1111.95-194.63,1111.95z"/>
<path class="st2" d="M251.55,1111.95H141.34c-26.37,0-47.75-21.38-47.75-47.75V945.63c0-26.37,21.38-47.75,47.75-47.75h110.21
	c26.37,0,47.75,21.38,47.75,47.75v118.57C299.3,1090.57,277.92,1111.95,251.55,1111.95z"/>
<path class="st3" d="M29.27,1111.95H-80.94c-26.37,0-47.75-21.38-47.75-47.75V945.63c0-26.37,21.38-47.75,47.75-47.75H29.27
	c26.37,0,47.75,21.38,47.75,47.75v118.57C77.02,1090.57,55.64,1111.95,29.27,1111.95z"/>
<path class="st4" d="M477.82,1111.95H367.61c-26.37,0-47.75-21.38-47.75-47.75V945.63c0-26.37,21.38-47.75,47.75-47.75h110.21
	c26.37,0,47.75,21.38,47.75,47.75v118.57C525.57,1090.57,504.19,1111.95,477.82,1111.95z"/>
<g>
	<path class="st5" d="M-89.79,986.16c-3.59,0-6.5,2.91-6.5,6.5c0,3.59,2.91,6.5,6.5,6.5s6.5-2.91,6.5-6.5
		C-83.29,989.07-86.2,986.16-89.79,986.16z M-89.79,995.26c-1.44,0-2.6-1.16-2.6-2.6s1.16-2.6,2.6-2.6c1.44,0,2.6,1.16,2.6,2.6
		S-88.35,995.26-89.79,995.26z"/>
	<path class="st5" d="M-48.16,986.16c-3.59,0-6.5,2.91-6.5,6.5c0,3.59,2.91,6.5,6.5,6.5s6.5-2.91,6.5-6.5
		C-41.66,989.07-44.57,986.16-48.16,986.16z M-48.16,995.26c-1.44,0-2.6-1.16-2.6-2.6s1.16-2.6,2.6-2.6s2.6,1.16,2.6,2.6
		S-46.72,995.26-48.16,995.26z"/>
	<path class="st5" d="M-68.98,1022.58c-3.59,0-6.5,2.91-6.5,6.5s2.91,6.5,6.5,6.5c3.59,0,6.5-2.91,6.5-6.5
		S-65.38,1022.58-68.98,1022.58z M-68.98,1031.69c-1.44,0-2.6-1.16-2.6-2.6s1.16-2.6,2.6-2.6c1.44,0,2.6,1.16,2.6,2.6
		S-67.54,1031.69-68.98,1031.69z"/>
	<path class="st5" d="M-68.98,998.11c-4,0-7.24,3.24-7.24,7.24c0,4,3.24,7.24,7.24,7.24c4,0,7.24-3.24,7.24-7.24
		C-61.74,1001.35-64.98,998.11-68.98,998.11z M-68.98,1008.24c-1.6,0-2.89-1.3-2.89-2.89c0-1.6,1.3-2.89,2.89-2.89
		c1.6,0,2.89,1.3,2.89,2.89C-66.08,1006.95-67.38,1008.24-68.98,1008.24z"/>
	<path class="st6" d="M-65.81,1014.22v6.63c-1-0.4-2.1-0.62-3.25-0.62c-1.03,0-2.01,0.18-2.93,0.5v-6.51
		c0.97,0.31,2.01,0.48,3.09,0.48S-66.78,1014.53-65.81,1014.22z"/>
	<path class="st6" d="M-53.4,999.2l-5.78,3.95c-0.45-2.1-1.6-3.94-3.22-5.29l5.82-3.98C-56.21,996.03-55.05,997.91-53.4,999.2z"/>
	<path class="st6" d="M-75.43,997.89c-1.6,1.35-2.75,3.2-3.19,5.29l-5.86-3.68c1.65-1.28,2.82-3.14,3.23-5.27L-75.43,997.89z"/>
	<path class="st6" d="M-53.92,986.08c-1.47,1.35-2.47,3.22-2.72,5.31l-11.86-6.55c-0.25-0.14-0.56-0.14-0.8,0.01l-11.84,6.86
		c-0.22-2.21-1.26-4.17-2.8-5.59l14.57-7.75c0.3-0.16,0.65-0.16,0.94,0L-53.92,986.08z"/>
	<path class="st6" d="M-74.82,1022.38c-1.55,1.34-2.62,3.21-2.93,5.34l-14.34-8.07c-0.45-0.25-0.72-0.72-0.72-1.23v-17.57
		c0.91,0.33,1.9,0.5,2.93,0.5s2.01-0.18,2.93-0.5v14.6c0,0.33,0.18,0.63,0.47,0.78L-74.82,1022.38z"/>
	<path class="st6" d="M-45.15,1000.53v17.74c0,0.5-0.27,0.97-0.71,1.22l-14.5,8.33c-0.27-2.03-1.24-3.84-2.65-5.18l11.59-6.58
		c0.25-0.14,0.41-0.41,0.41-0.7v-14.84c0.91,0.33,1.9,0.51,2.93,0.51C-47.05,1001.04-46.07,1000.86-45.15,1000.53z"/>
	<path class="st7" d="M-84.48,999.51c-0.74,0.58-1.57,1.04-2.47,1.35"/>
	<path class="st7" d="M-81.14,991.7c0.03,0.29,0.05,0.58,0.05,0.88c0,0.57-0.06,1.12-0.16,1.66"/>
	<rect x="-10.68" y="995.67" class="st6" width="4.89" height="24.72"/>
	<rect x="-32.47" y="986.08" class="st6" width="4.89" height="34.31"/>
	<rect x="-10.53" y="987.05" class="st6" width="4.89" height="5.2"/>
	<path class="st6" d="M-27.58,986.08c0,0,2.09,0,3.42,0s9.42,0.23,9.42,7.96c0,7.73-5.87,8.06-5.87,8.06h-7.23v-1.36
		c0,0,3.01,0,4.37,0c1.36,0,4.51-1.49,4.51-5.47s-2.4-5.61-4.98-5.61s-4.55,0-4.55,0L-27.58,986.08z"/>
	<path class="st6" d="M-27.58,1020.39c0,0,2.77,0,4.56,0s8.92-0.93,8.92-9.91c0-8.99-8.34-8.81-8.34-8.81h-6.3l0.97,2.65
		c0,0,1.9,0,2.97,0s5.76,0.32,5.76,6.37c0,6.05-5.26,6.16-6.16,6.16c-0.9,0-3.12,0-3.12,0L-27.58,1020.39z"/>
	<path class="st6" d="M-0.03,987.24h4.8c0,0,0,27.25,0,27.75s0.68,2.51,3.72,1.54v4.12c0,0-2.86,0-4.69,0s-3.83-1.72-3.83-5.73
		S-0.03,987.24-0.03,987.24z"/>
	<rect x="-2.54" y="995.87" class="st6" width="11.03" height="3.54"/>
	<path class="st6" d="M29.83,996.98h-4.91v-3.6c0-2.06-1.67-3.73-3.73-3.73h-0.07c-2.85,0-5.15,2.31-5.15,5.15v16.92
		c0,2.85,2.31,5.15,5.15,5.15h0c2.06,0,3.73-1.67,3.73-3.73v-4.9h4.98v3.58c0,4.86-3.94,8.81-8.81,8.81h-1.23
		c-4.68,0-8.47-3.79-8.47-8.47v-18.29c0-4.68,3.79-8.47,8.47-8.47h1.23c4.86,0,8.81,3.94,8.81,8.81V996.98z"/>
	<path class="st6" d="M40.44,995.37h-1.36c-3.65,0-6.61,2.96-6.61,6.61v12.32c0,3.65,2.96,6.61,6.61,6.61h1.36
		c3.65,0,6.61-2.96,6.61-6.61v-12.32C47.05,998.32,44.09,995.37,40.44,995.37z M42.11,1014.57c0,1.22-0.99,2.21-2.21,2.21h-0.09
		c-1.22,0-2.21-0.99-2.21-2.21v-12.95c0-1.22,0.99-2.21,2.21-2.21h0.09c1.22,0,2.21,0.99,2.21,2.21V1014.57z"/>
</g>
<g>
	<path class="st8" d="M130.9,1007.33c0-13.64,28.35-24.7,63.32-24.7c34.97,0,63.31,11.06,63.31,24.7c0,13.64-28.35,24.7-63.31,24.7
		C159.24,1032.02,130.9,1020.97,130.9,1007.33z"/>
	<path class="st9" d="M130.9,1007.33c0-13.64,28.35-24.7,63.32-24.7c34.97,0,63.31,11.06,63.31,24.7c0,13.64-28.35,24.7-63.31,24.7
		C159.24,1032.02,130.9,1020.97,130.9,1007.33z"/>
	<polygon class="st10" points="154.1,1019.33 160.67,994.8 171.04,994.8 171.04,1009.23 171.11,1009.23 178.15,994.8 188.68,994.8 
		182.11,1019.33 175.26,1019.33 179.48,1003.6 179.41,1003.6 171.04,1019.33 165.56,1019.33 165.56,1003.6 165.45,1003.6 
		161.23,1019.33 	"/>
	<polygon class="st11" points="190.54,1019.82 191.47,1016.33 199.03,1016.33 198.09,1019.82 	"/>
	<polygon class="st12" points="191.73,1015.35 195.56,1001.09 188.68,1001.09 190.37,994.8 211.67,994.8 209.99,1001.09 
		203.11,1001.09 199.29,1015.35 	"/>
	<polygon class="st10" points="206.78,1019.33 213.35,994.8 220.78,994.8 224.12,1007.93 224.19,1007.93 227.71,994.8 234.57,994.8 
		228,1019.33 220.94,1019.33 217.3,1005.94 217.23,1005.94 213.65,1019.33 	"/>
</g>
<g>
	<g>
		<path class="st6" d="M478.78,1041v-8.06c0-3.59-2.52-5.74-6.85-5.74c-1.48,0-2.78,0.42-3.53,0.87c-4.66-1.97-8.17-0.68-9.92,0.39
			V1041h3.74v-10.39c0,0,0.35-0.34,1.39-0.34c2.07,0,3.11,1.04,3.11,3.07v7.65h3.64v-8.96c0-0.75-0.24-1.27-0.21-1.29
			c0.06-0.03,0.87-0.48,1.73-0.48c2.07,0,3.11,1.04,3.11,3.07v7.65H478.78z M456.6,1034.27c0-4.02-2.7-7.05-7.05-7.05
			c-4.31,0-7.01,3.03-7.01,7.05c0,5.33,4.18,7.05,7.01,7.05C454.94,1041.32,456.6,1037.09,456.6,1034.27 M452.65,1034.3
			c0,2.54-1.33,3.95-3.1,3.95c-1.78,0-3.11-1.4-3.11-3.95c0-2.19,1.02-4.01,3.11-4.01C451.63,1030.29,452.65,1032.12,452.65,1034.3
			 M433.82,1034.21c0-3.4,2.6-3.83,3.4-3.83c2.03,0,3.34,0.85,3.34,0.85l0.84-3.09c-0.26-0.12-2.01-0.9-4.13-0.9
			c-5.62,0-7.21,4.55-7.22,7.1c0,3.78,2.75,7,7.57,7c1.94,0,4.05-1.03,4.05-1.03l-1.02-2.82c0,0-1.78,0.73-2.96,0.73
			C435.34,1038.2,433.82,1036.69,433.82,1034.21 M424.88,1040.99h3.29v-12.71c-1.28-0.51-3.54-1.06-5.77-1.06
			c-4.49,0-7.63,3.1-7.63,7.34c0,5.18,3.85,6.76,6.25,6.76c1.75,0,2.85-0.63,3.62-1.5L424.88,1040.99z M424.45,1036.86
			c-0.44,0.74-1.42,1.39-2.67,1.39c-1.46,0-3.1-1.04-3.1-3.83c0-2.63,1.86-4.02,3.65-4.02c0.91,0,1.72,0.14,2.12,0.25V1036.86z
			 M407.39,1041.32c2.27,0,4.13-0.26,5.73-0.59v-18.66h-3.69v5.66c-0.62-0.25-1.75-0.51-2.92-0.51c-4.05,0-6.75,3.03-6.75,6.97
			C399.76,1040.34,404.6,1041.32,407.39,1041.32 M407.46,1038.22c-1.8,0-3.8-1.01-3.8-4.02c0-2.19,1.13-3.9,3.14-3.9
			c1.13,0,2.05,0.29,2.63,0.62v7.16C408.92,1038.18,408.19,1038.22,407.46,1038.22 M398.22,1034.27c0-4.02-2.7-7.05-7.05-7.05
			c-4.31,0-7.01,3.03-7.01,7.05c0,5.33,4.18,7.05,7.01,7.05C396.56,1041.32,398.22,1037.09,398.22,1034.27 M394.27,1034.3
			c0,2.54-1.32,3.95-3.1,3.95c-1.78,0-3.11-1.4-3.11-3.95c0-2.19,1.02-4.01,3.11-4.01C393.25,1030.29,394.27,1032.12,394.27,1034.3
			 M378.66,1040.99l5.44-13.44h-4.16l-3.21,8.77l-3.32-8.77h-4.35l5.66,13.44H378.66z"/>
	</g>
	<path class="st6" d="M449.87,990.66c0,14.33-11.62,25.95-25.95,25.95s-25.95-11.62-25.95-25.95s11.62-25.95,25.95-25.95
		c3.21,0,6.28,0.58,9.11,1.64c-0.22,0.01-0.45,0.03-0.69,0.04c-0.34,0.03-0.7,0.07-1.08,0.12c-0.89,0.12-1.84,0.3-2.82,0.54
		c-0.15,0.04-1.25,0.33-1.4,0.38c-0.74,0.22-1.49,0.48-2.24,0.76c-2.75,1.06-5.3,2.52-7.47,4.38c-3.69,3.12-6.5,7.44-7.68,12.23
		c-0.32,1.27-0.51,2.58-0.59,3.91c0,0.02-0.01,0.25-0.01,0.28c-0.01,0.09-0.02,0.7-0.02,0.79c0,0.68,0.03,1.35,0.11,2.02
		c0.1,0.91,0.26,1.81,0.5,2.68c0.01,0.04,0.08,0.32,0.09,0.36c0.45,1.56,1.11,3.03,1.97,4.36c0.57,0.9,1.23,1.72,1.97,2.47
		c1.86,1.89,4.16,3.27,6.66,3.99c0.76,0.22,1.54,0.38,2.31,0.48c0.5,0.06,1.02,0.1,1.53,0.1c1.37,0.02,2.74-0.16,4.06-0.52
		c1.88-0.52,3.62-1.4,5.14-2.6c0.43-0.34,0.85-0.71,1.25-1.1c1.06-1.06,1.94-2.27,2.61-3.59c1.03-2.01,1.57-4.27,1.57-6.56
		c0-0.06-0.01-0.48-0.01-0.53c-0.05-1.38-0.26-2.7-0.63-3.92c-0.38-1.25-0.92-2.4-1.62-3.44c-0.02-0.04-0.2-0.29-0.22-0.32
		c-0.97-1.35-2.22-2.51-3.73-3.44c-1.62-1-3.53-1.75-5.73-2.22c-0.01-0.04-0.27-0.13-0.27-0.16c0-0.07-0.03-0.49-0.02-0.55
		c0-0.03-0.01-0.23-0.01-0.26c0.22-4.4,2.7-8.31,6.57-10.21c0.04-0.03,0.09-0.05,0.14-0.07c0.13-0.06,0.24-0.11,0.33-0.16
		C443.14,970.41,449.87,979.75,449.87,990.66z"/>
</g>
<g>
	<path class="st1" d="M119.58,4.04c-17.45,0-31.59,14.14-31.59,31.59s14.14,31.59,31.59,31.59s31.59-14.14,31.59-31.59
		S137.03,4.04,119.58,4.04z M119.43,61.32c-14.11,0-25.54-11.44-25.54-25.54c0-14.11,11.44-25.55,25.54-25.55
		c14.11,0,25.55,11.44,25.55,25.55C144.97,49.89,133.54,61.32,119.43,61.32z"/>
	<path class="st1" d="M128.43,40.97c-1.79,2.86-4.98,4.76-8.62,4.76c-5.6,0-10.15-4.52-10.15-10.09c0-5.57,4.54-10.09,10.15-10.09
		c3.66,0,6.87,1.93,8.66,4.82l4.98-3.95c-3.01-4.29-8.05-7.1-13.77-7.1c-9.22,0-16.7,7.31-16.7,16.33c0,9.02,7.47,16.33,16.7,16.33
		c5.95,0,11.17-3.04,14.13-7.62L128.43,40.97z"/>
	<path class="st1" d="M28.32,40.97c-1.79,2.86-4.98,4.76-8.62,4.76c-5.6,0-10.15-4.52-10.15-10.09c0-5.57,4.54-10.09,10.15-10.09
		c3.66,0,6.87,1.93,8.66,4.82l4.98-3.95c-3.01-4.29-8.05-7.1-13.77-7.1c-9.22,0-16.7,7.31-16.7,16.33c0,9.02,7.47,16.33,16.7,16.33
		c5.95,0,11.17-3.04,14.13-7.62L28.32,40.97z"/>
	<rect x="63.57" y="18.69" class="st1" width="5.49" height="32.66"/>
	<rect x="75.78" y="18.69" class="st1" width="5.49" height="32.66"/>
	<path class="st1" d="M58.99,41.58c0-0.1,0-0.2,0-0.31c0-6.07-4.92-10.99-10.99-10.99s-10.99,4.92-10.99,10.99
		s4.92,10.99,10.99,10.99c4.2,0,7.85-2.36,9.7-5.82l-4.88-2.33c-0.97,1.68-2.7,2.8-4.66,2.8c-3.03,0-5.49-2.66-5.49-5.95
		c0-3.29,2.46-5.95,5.49-5.95c3.03,0,5.49,2.66,5.49,5.95c0,0.21-0.01,0.41-0.03,0.61H58.99z"/>
	<path class="st1" d="M59,42.5H41.6v-3.97h13.43C57.22,38.53,59,40.31,59,42.5L59,42.5z"/>
</g>
<g>
	<path class="st13" d="M633.96,1001.77l-9.25,8.04c1.46,1.6,3.08,3.05,4.83,4.35l7.38-9.78
		C635.84,1003.61,634.85,1002.73,633.96,1001.77z"/>
	<path class="st14" d="M629.27,993.96l-11.79,3.4c0.63,1.96,1.42,3.84,2.38,5.63l10.78-5.81
		C630.11,996.16,629.64,995.08,629.27,993.96z"/>
	<path class="st15" d="M628.45,983.67l-11.99-2.55c-0.36,1.97-0.55,3.98-0.55,6.05c0,0.27,0,0.55,0.01,0.81l12.24-0.31
		c-0.01-0.17-0.01-0.34-0.01-0.51C628.15,985.97,628.25,984.8,628.45,983.67z"/>
	<path class="st16" d="M621.57,968.5c-1.1,1.65-2.06,3.39-2.85,5.21l11.3,4.74c0.47-1.04,1.01-2.05,1.64-2.99L621.57,968.5z"/>
	<path class="st17" d="M631.72,958.68c-1.63,1.01-3.16,2.15-4.58,3.43l8.29,9.03c0.81-0.72,1.69-1.38,2.61-1.97L631.72,958.68z"/>
	<path class="st18" d="M646.16,953.75c-2.21,0.22-4.36,0.66-6.42,1.28l3.72,11.67c1.2-0.36,2.45-0.61,3.73-0.74L646.16,953.75z"/>
	<path class="st19" d="M654.36,953.95l-1.6,12.14c1.21,0.18,2.38,0.47,3.52,0.84l4.16-11.51
		C658.49,954.74,656.45,954.25,654.36,953.95z"/>
	<path class="st20" d="M667.54,958.86l-6.36,10.47c0.98,0.65,1.91,1.37,2.77,2.17l8.39-8.93
		C670.86,961.21,669.25,959.96,667.54,958.86z"/>
	<path class="st18" d="M677.53,968.71l-10.07,7c0.65,1.01,1.22,2.1,1.69,3.22l11.41-4.46C679.73,972.45,678.71,970.52,677.53,968.71
		z"/>
	<path class="st21" d="M670.74,988.71c-0.09,1.27-0.29,2.51-0.61,3.71l11.87,3.06c0.53-2.07,0.86-4.22,0.99-6.42L670.74,988.71z"/>
	<path class="st22" d="M667.96,997.78c-0.52,0.92-1.11,1.8-1.78,2.62l9.55,7.68c1.16-1.46,2.2-3.01,3.11-4.65L667.96,997.78z"/>
	<path class="st23" d="M661.99,1004.42c-0.91,0.67-1.88,1.26-2.9,1.78l5.37,11c1.8-0.89,3.5-1.95,5.09-3.13L661.99,1004.42z"/>
	<path class="st24" d="M665.54,1001.16c-0.82,0.96-1.75,1.86-2.75,2.65l7.55,9.64c1.74-1.38,3.34-2.93,4.77-4.62L665.54,1001.16z"/>
	<path class="st16" d="M669.87,993.39c-0.38,1.23-0.85,2.4-1.44,3.52l10.86,5.64c1.01-1.94,1.83-3.97,2.44-6.11L669.87,993.39z"/>
	<path class="st25" d="M682.7,982.39l-12.08,2.09c0.12,0.88,0.18,1.78,0.18,2.69c0,0.19,0,0.38-0.02,0.56l12.25,0.35
		c0.01-0.3,0.01-0.61,0.01-0.9C683.04,985.54,682.92,983.95,682.7,982.39z"/>
	<path class="st26" d="M680.93,975.4l-11.41,4.46c0.43,1.16,0.75,2.38,0.95,3.64l12.07-2.09
		C682.2,979.34,681.64,977.32,680.93,975.4z"/>
	<path class="st27" d="M673.06,963.27l-8.4,8.93c0.82,0.83,1.58,1.73,2.24,2.69l10.06-7C675.8,966.24,674.5,964.69,673.06,963.27z"
		/>
	<path class="st28" d="M661.37,955.77l-4.17,11.52c1.1,0.42,2.15,0.93,3.15,1.53l6.36-10.47
		C665.01,957.34,663.23,956.46,661.37,955.77z"/>
	<path class="st29" d="M649.48,953.59c-0.78,0-1.56,0.03-2.33,0.08l1.03,12.2c0.44-0.03,0.86-0.04,1.3-0.04
		c0.77,0,1.54,0.04,2.29,0.12l1.6-12.13C652.09,953.67,650.8,953.59,649.48,953.59z"/>
	<path class="st26" d="M638.8,955.33c-2.18,0.73-4.28,1.69-6.24,2.84l6.32,10.49c1.14-0.67,2.36-1.22,3.63-1.66L638.8,955.33z"/>
	<path class="st21" d="M626.4,962.77c-1.58,1.51-3.01,3.15-4.28,4.92l10.09,6.96c0.74-1.03,1.57-1.99,2.48-2.86L626.4,962.77z"/>
	<path class="st30" d="M618.33,974.62c-0.72,1.77-1.28,3.61-1.69,5.52l11.98,2.54c0.24-1.14,0.58-2.25,1-3.32L618.33,974.62z"/>
	<path class="st31" d="M628.21,988.66l-12.25,0.31c0.14,2.56,0.56,5.05,1.24,7.44l11.78-3.4
		C628.57,991.62,628.31,990.16,628.21,988.66z"/>
	<path class="st32" d="M631.15,998.06l-10.79,5.8c1.05,1.86,2.29,3.6,3.68,5.21l9.25-8.04
		C632.49,1000.1,631.78,999.11,631.15,998.06z"/>
	<path class="st14" d="M637.73,1004.95l-7.39,9.8c1.5,1.04,3.1,1.97,4.77,2.76l5.14-11.12
		C639.38,1005.97,638.54,1005.48,637.73,1004.95z"/>
	<path class="st6" d="M646.44,987.65c0,1.67-1.35,3.03-3.02,3.03s-3.02-1.36-3.02-3.03c0-1.67,1.35-3.03,3.02-3.03
		S646.44,985.98,646.44,987.65z"/>
	<path class="st6" d="M649.48,971.5c-8.39,0-15.18,6.8-15.18,15.18s6.79,15.17,15.18,15.17c8.38,0,15.17-6.79,15.17-15.17
		S657.86,971.5,649.48,971.5z M643.42,993.7c-3.34,0-6.05-2.72-6.05-6.05c0-3.35,2.71-6.06,6.05-6.06c3.34,0,6.05,2.71,6.05,6.06
		C649.47,990.98,646.76,993.7,643.42,993.7z M658.08,993.51l-5.28-6.82v6.82h-2.88v-11.82h2.79l5.04,7.04v-7.04h3.01v11.82H658.08z"
		/>
	<polygon class="st6" points="614.22,1051.96 621.96,1051.96 636.04,1027.33 636.04,1051.96 642.17,1051.96 642.17,1021.56 
		634.63,1021.56 	"/>
	<polygon class="st6" points="628.2,1036.76 637.02,1036.76 637.02,1042.25 624.35,1042.25 	"/>
	<rect x="646.59" y="1007.21" class="st6" width="5.91" height="44.75"/>
	<path class="st6" d="M675.12,1041.51c3.81-1.52,6.51-5.24,6.51-9.6c0-5.71-4.64-10.34-10.35-10.34h-15.24v30.39h6.31v-9.71h5.61
		l7.2,9.71h7.32L675.12,1041.51z M670.77,1037.24h-8.42v-9.9h8.42c1.36,0,2.6,0.56,3.5,1.45c0.89,0.89,1.45,2.13,1.45,3.5
		C675.73,1035.01,673.5,1037.24,670.77,1037.24z"/>
</g>
</svg>
