<?xml version="1.0" encoding="utf-8"?>
<!-- Generator: Adobe Illustrator 23.1.1, SVG Export Plug-In . SVG Version: 6.00 Build 0)  -->
<svg version="1.1" id="Layer_1" xmlns="http://www.w3.org/2000/svg" xmlns:xlink="http://www.w3.org/1999/xlink" x="0px" y="0px"
	 viewBox="0 0 159.83 73.54" style="enable-background:new 0 0 159.83 73.54;" xml:space="preserve">
<style type="text/css">
	.st0{fill:#808080;}
</style>
<g>
	<g>
		<g>
			<path class="st0" d="M65.22-34.75c-4.8,0-9.46-0.94-13.85-2.8c-4.24-1.79-8.04-4.36-11.31-7.62c-3.27-3.27-5.83-7.07-7.62-11.31
				c-1.86-4.39-2.8-9.05-2.8-13.85c0-4.8,0.94-9.46,2.8-13.85c1.79-4.24,4.36-8.04,7.62-11.31c3.27-3.27,7.07-5.83,11.31-7.62
				c4.39-1.86,9.05-2.8,13.85-2.8c6.23,0,12.35,1.63,17.72,4.72l-1.84,3.21c-4.81-2.76-10.3-4.23-15.87-4.23
				c-8.52,0-16.52,3.32-22.55,9.34c-6.02,6.02-9.34,14.03-9.34,22.55s3.32,16.52,9.34,22.55s14.03,9.34,22.55,9.34
				s16.52-3.32,22.55-9.34c6.02-6.02,9.34-14.03,9.34-22.55c0-5.58-1.46-11.08-4.23-15.89l3.2-1.85c3.09,5.37,4.73,11.5,4.73,17.73
				c0,4.8-0.94,9.46-2.8,13.85c-1.79,4.24-4.36,8.04-7.62,11.31c-3.27,3.27-7.07,5.83-11.31,7.62
				C74.69-35.69,70.03-34.75,65.22-34.75z"/>
		</g>
	</g>
	<g>
		<g>
			<path class="st0" d="M91.88-87.83c-2.42-3.68-5.66-6.89-9.36-9.28l2.01-3.1c4.18,2.71,7.7,6.19,10.44,10.35L91.88-87.83z"/>
		</g>
	</g>
	<g>
		<path class="st0" d="M46.32-76.77h-0.97c-2.85,0-5.16,2.31-5.16,5.16v2.17c0,2.85,2.31,5.16,5.16,5.16h0.97
			c2.85,0,5.16-2.31,5.16-5.16v-2.17C51.48-74.46,49.17-76.77,46.32-76.77z M48.93-69.81c0,1.64-1.33,2.98-2.98,2.98h-0.24
			c-1.64,0-2.98-1.33-2.98-2.98v-1.44c0-1.64,1.33-2.98,2.98-2.98h0.24c1.64,0,2.98,1.33,2.98,2.98V-69.81z"/>
	</g>
	<g>
		<polygon class="st0" points="53.88,-75.47 53.88,-59.38 56.48,-59.98 56.48,-75.67 		"/>
	</g>
	<g>
		<path class="st0" d="M53.88-75.47l1.8,9.7l0.4,1.2c0,0,1.2,0.3,3,0.3c1.8,0,5.3-0.8,5.3-6.3C64.37-76.07,60.88-78.17,53.88-75.47z
			 M59.83-67.03c-2,0.4-3.3-0.2-3.6-0.3l-0.6-2.8l0.4-3.7c4.6-1.3,5.9,1.1,5.9,2.7S61.83-67.43,59.83-67.03z"/>
	</g>
	<g>
		<path class="st0" d="M72.37-76.67c-6.3,0-5.9,5.8-5.7,8.1c0.2,2.3,2.6,4.3,5.2,4.3c2.6,0,4.5-0.8,4.5-0.8v-2.5
			c0,0-1.95,0.95-4.15,0.95s-3.05-2.2-3.05-2.85h8.6C77.77-69.48,78.67-76.67,72.37-76.67z M69.27-71.78c0,0,0.4-2.4,3-2.4
			c2.6,0,2.9,2.4,2.9,2.4H69.27z"/>
	</g>
	<g>
		<path class="st0" d="M122.25-76.67c-6.3,0-5.9,5.8-5.7,8.1c0.2,2.3,2.6,4.3,5.2,4.3s4.5-0.8,4.5-0.8v-2.5c0,0-1.95,0.95-4.15,0.95
			s-3.05-2.2-3.05-2.85h8.6C127.64-69.48,128.54-76.67,122.25-76.67z M119.15-71.78c0,0,0.4-2.4,3-2.4s2.9,2.4,2.9,2.4H119.15z"/>
	</g>
	<g>
		<path class="st0" d="M157.73-76.67c-6.3,0-5.9,5.8-5.7,8.1c0.2,2.3,2.6,4.3,5.2,4.3c2.6,0,4.5-0.8,4.5-0.8v-2.5
			c0,0-1.95,0.95-4.15,0.95c-2.2,0-3.05-2.2-3.05-2.85h8.6C163.12-69.48,164.02-76.67,157.73-76.67z M154.63-71.78
			c0,0,0.4-2.4,3-2.4c2.6,0,2.9,2.4,2.9,2.4H154.63z"/>
	</g>
	<g>
		<path class="st0" d="M82.67-64.28h-2.6v-11.29c0,0,10.29-4.4,10.29,4.5v6.8h-2.6c0,0,0-5.85,0-6.95c0-1.1-0.25-4-5.05-2.7
			L82.67-64.28z"/>
	</g>
	<g>
		<path class="st0" d="M136.64-76.52v2.3c-2.16-0.23-3.38,0.11-3.79,0.26h0c-0.05,0.01-0.1,0.03-0.16,0.04v0.02l-0.05,9.62h-2.6
			v-11.29C130.04-75.57,133.69-77.13,136.64-76.52z"/>
	</g>
	<g>
		<polygon class="st0" points="138.24,-76.67 143.33,-64.28 145.73,-64.28 150.83,-76.67 147.83,-76.67 144.48,-68.63 
			141.29,-76.62 		"/>
	</g>
	<g>
		<path class="st0" d="M113.25-76.17v2.3c0,0-1.8-0.4-3.6-0.4s-2.1,0.9-2.1,1.2c0,0.3,0.2,1.3,2,1.3s4.7,0.6,4.7,3.8
			s-3.1,3.7-4.2,3.7c-1.1,0-3.6-0.3-4.8-0.6v-2.4c0,0,2.35,0.55,4.35,0.55s2.2-0.6,2.2-1.3c0-0.7-0.5-1.4-2.9-1.4s-3.9-1.3-3.9-3.7
			S107.4-77.72,113.25-76.17z"/>
	</g>
</g>
<g>
	<g>
		<path class="st0" d="M255.09-82.87l11.26,11.46c0.45,0.46,1.07,0.72,1.72,0.72h4.29c0.63,0,1.24-0.25,1.69-0.69l11.7-11.49h-7.07
			l-8.46,8.67l-8.2-8.67H255.09z"/>
	</g>
	<g>
		<path class="st0" d="M286.66-82.87v7.37c0,2.66,2.16,4.82,4.82,4.82h20.2c2.66,0,4.82-2.16,4.82-4.82v-7.37h-5.9v6.67
			c0,0.43-0.35,0.78-0.78,0.78h-16.47c-0.43,0-0.78-0.35-0.78-0.78v-6.67H286.66z"/>
	</g>
	<g>
		<path class="st0" d="M317.75-70.68v-12.19h37.44c2.94,0,5.32,2.38,5.32,5.32v6.87h-6.07v-6.55c0-0.48-0.39-0.86-0.86-0.86h-29.93
			v7.42H317.75z"/>
	</g>
	<g>
		<path class="st0" d="M398.66-82.87h-33.68c-1.9,0-3.43,1.54-3.43,3.43v8.75h5.9v-2.78h28.45v2.78h6.2v-8.75
			C402.09-81.33,400.56-82.87,398.66-82.87z M395.68-77.23c-0.16,0.16-0.38,0.26-0.63,0.26h-26.71c-0.49,0-0.89-0.4-0.89-0.89
			c0-0.25,0.1-0.47,0.26-0.63c0.16-0.16,0.38-0.26,0.63-0.26h26.71c0.49,0,0.89,0.4,0.89,0.89
			C395.94-77.61,395.84-77.39,395.68-77.23z"/>
	</g>
	<g>
		<rect x="336.18" y="-78.75" class="st0" width="5.85" height="8.07"/>
	</g>
</g>
<g>
	<g>
		<path class="st0" d="M491.7-91.47c-0.73-0.5-1.34,0-2.33,1.41c-0.99,1.41-10.31,15.11-14.12,20.76s-12.64,16.03-13.27,16.73
			c-0.64,0.71-1.41,0.64-1.69,0.42s-1.13-0.7-1.13,0.15s0.77,3.1,1.83,2.54s4.8-2.9,5.37-3.39c0.56-0.49,6.92-6.64,6.92-6.64
			s11.79-0.07,13.63-0.14c1.84-0.07,2.75-0.49,3.18-0.85c0.42-0.35,3.11-0.49,4.38-0.56s2.19-0.14,2.75-0.56s3.53-0.35,4.73-1.13
			c1.2-0.78,7.77-5.86,8.19-8.76c0.42-2.9,0.28-5.09-1.69-7.13c-1.98-2.05-6.28-5.93-6.28-5.93h-1.67c-0.82,0-1.2-1-0.6-1.55
			c1.42-1.27,3.47-3.18,5.37-5.16c3.32-3.46,4.66-5.23,5.65-6.43c0.99-1.2,1.84-3.6,0-6c-1.84-2.4-3.95-4.44-7.77-4.44
			s-7.53-0.01-7.72,0.41c-0.19,0.42-0.97,0.56-1.89,0.6c-0.92,0.04-1.52,0.32-2.12,0.81c-0.6,0.49-1.73,0.56-2.19,0.6
			c-0.46,0.04-1.38,0.53-1.8,0.85c-0.42,0.32-1.67,0.32-1.86,0.35c-0.19,0.04-1.11,0.67-1.5,1.02s-2.15,0.71-3.07,0.88
			c-0.92,0.18-5.4,4.8-6.57,5.9c-1.17,1.09-5.9,5.54-6.32,5.9c-0.42,0.35-0.18,0.99-0.21,1.91c-0.04,0.92-0.99,4.1-1.45,4.91
			c-0.46,0.81-0.6,1.41-0.04,1.98c0.56,0.56,0.95,0.25,1.2-0.67c0.25-0.92,1.66-5.26,1.8-5.86c0.14-0.6,0.67-1.38,1.84-2.65
			c1.17-1.27,9.67-9.29,9.96-9.5c0.28-0.21,1.87-0.46,2.37-0.74c0.49-0.28,2.01-2.19,2.61-2.26c0.6-0.07,1.59,0.18,2.47-0.18
			c0.88-0.35,1.59-0.74,2.05-0.78c0.46-0.04,1.18-0.39,1.79-0.71c0.61-0.32,1.49-0.49,2.13-0.49c0.64,0,2.54-0.28,4.66-0.32
			c2.12-0.04,4.52-0.28,5.58,0.28c1.06,0.56,5.58,2.47,4.06,6.11c-1.52,3.64-2.58,5.12-2.79,5.61c-0.21,0.49-0.71,1.27-1.48,1.41
			c-0.78,0.14-1.2,0.6-1.66,1.17c-0.46,0.56-1.17,1.77-2.44,2.15c-1.27,0.39-3.07,1.17-3.57,1.45c-0.49,0.28-3.39,1.59-5.51,2.97
			c-2.12,1.38-2.08,2.44-0.78,3.53c1.31,1.09,5.37,0,6.85-0.42s4.24-0.67,5.61,0s2.9,1.69,3.53,4.1s0.88,3.85-0.78,5.75
			s-6.74,6.53-7.24,6.92c-0.49,0.39-2.61,0.25-2.93,0.28c-0.32,0.04-0.67,0.28-1.48,0.6c-0.81,0.32-2.75,0.6-3.6,0.6
			c-0.85,0-1.8,0.14-2.37,0.56c-0.56,0.42-0.81,0.85-3.04,0.85h-6.99c-0.42,0-0.61-0.54-0.27-0.79l2.46-1.89
			c0,0,0.35-0.56-0.74-0.56s-2.93-0.49-3.39-1.17s7.84-12.71,7.84-12.71l7.66-11.05C491.84-90.41,492.26-91.08,491.7-91.47z"/>
	</g>
	<g>
		<path class="st0" d="M552.13-75.5c-0.42-0.42-2.31-1.96-2.75-1.51c-0.45,0.45-0.85,1.03-0.45,1.67c0.4,0.63,0.55,0.79,0.66,1.77
			c0.11,0.98,0.4,2.49-0.32,3.79c-0.72,1.3-0.82,2.2-1.64,2.2c-0.82,0-2.12-4.13-2.89-4.13c-0.77,0-4.66,5.37-5,5.59
			c-0.35,0.21-1.01,0.34-0.58-0.66c0.42-1.01,2.38-4.93,3.31-6.09c0.93-1.17,2.54-2.99,2.33-3.36c-0.21-0.37-0.58-1.11-1.67-0.21
			c-1.08,0.9-4.85,6.2-5.21,6.83c-0.37,0.63-0.63,1.62-0.9,2.86c-0.26,1.24-0.53,2.73-1.77,2.73c-1.24,0-4.29-0.58-5.22-1.9
			c-0.93-1.32-0.53-3.42,1.22-5.64c1.75-2.22,9.45-10.09,11.84-12.55c2.38-2.46,4.77-5.93,3.68-6.83c-1.09-0.9-6.59,2.12-10.32,6.17
			c-3.74,4.05-9.01,11.23-9.94,16.31c0,0-2.22,1.85-3.65,2.36s-2.7,0.72-3.2,0.4c-0.5-0.32-1.09-1.03-0.82-2.12
			c0.26-1.08,0.55-1.16,0.24-1.27c-0.32-0.11-1.46,2.25-3.44,3.55c-1.99,1.3-4.27,2.73-5.19,1.8c-0.93-0.93,0.37-2.91,1.56-4.16
			c1.2-1.25,6.23-5.56,6.23-5.56s0.68,1.19,1.55,1c0.56-0.12,0.55-0.93,0.47-1.59c-0.08-0.66-1.82-1.4-2.57-0.8
			c-0.74,0.61-6.35,5.8-7.33,6.91c-0.98,1.11-2.04,3.02-1.48,4.55c0.55,1.54,1.8,2.2,3.63,1.22c1.83-0.98,4.66-2.65,5.35-2.65
			s2.15,0.9,2.78,0.87c0.64-0.03,5.67-2.41,6.09-2.75c0.42-0.34,0.74-0.21,1.03,0.58c0.29,0.8,1.4,3.44,4.82,3.44h5.11
			c0.74,0,1.27,0.11,1.91-0.63c0.63-0.74,3.68-4.24,3.86-4.45c0.19-0.21,1.17-0.74,1.54-0.03c0.37,0.72,1.14,2.46,2.52,2.46
			c1.38,0,3.04-2.47,3.34-3.08c0.29-0.61,0.26-2.25,0.26-2.94c0-0.69,0.03-2.25,0.29-2.46c0.27-0.21,0.58,0,0.98-0.27
			C552.74-74.34,552.56-75.08,552.13-75.5z M535.82-82.71c3.81-4.69,8.27-7.82,9.16-6.78c0.89,1.04-4.42,6.33-7.09,9.19
			c-2.67,2.86-7.35,7.48-7.52,7.25C530.1-73.38,532.01-78.02,535.82-82.71z"/>
	</g>
	<g>
		<path class="st0" d="M548.11-63.51c0.22,0.01,1.27-0.26,3.2-1.48s2.7-1.99,3.15-1.06c0.45,0.93,1.22,2.89,3.31,3.31
			s5.48-1.11,7.6-2.04c2.12-0.93,3.1-1.19,2.99-0.74s-0.85,2.57-0.34,2.73c0.5,0.16,1.24-0.42,2.65-1.77
			c1.4-1.35,2.14-2.12,2.52-2.07c0.37,0.05,0.9,2.59,2.22,2.7c1.32,0.11,2.99-0.9,4.05-3.05c1.06-2.14,0.87-3.44,0.53-3.47
			c-0.34-0.03-1.19,1.24-1.69,2.28s-1.38,1.96-1.93,1.8c-0.56-0.16-0.9-1.17-0.95-2.99c-0.05-1.83-0.48-2.22-1.14-1.91
			s-0.53,0.61-0.93,0.37c-0.4-0.24-0.03-1.09-0.66-1.38c-0.64-0.29-2.54,2.41-6.17,4.53c-3.63,2.12-6.75,4.02-8.61,3.63
			c-1.85-0.4-0.71-4.61,0.45-6.78s2.59-4.32,1.62-4.85s-3.6,2.99-5.67,5.19C552.24-68.35,547.39-63.54,548.11-63.51z"/>
	</g>
	<g>
		<path class="st0" d="M566.73-83.17c-0.05,0.49-0.15,0.98-0.32,1.45c-0.06,0.16-0.13,0.32-0.2,0.48c-0.37,0.22-0.8,0.43-1.2,0.53
			c0,0,0.36,0.1,0.87,0.13c-1.24,2.29-3.52,4.4-4.13,4.45c-0.72,0.05-1.03-2.94-0.55-4.21c0.47-1.27,1.99-1.83,2.7-3.52
			c0,0-0.8,0.95-2.12,1.75c-1.32,0.8-1.64,1.59-1.9,4.61c0,0-1.09-1.86-0.8-3.85c0.29-1.98,2.97-3.41,4.05-3.94
			c1.09-0.53,2.67-1.59,2.94-2.51c0,0,0.72,1.86,0.71,3.91c-0.28,0.28-0.59,0.54-0.92,0.67C565.85-83.24,566.14-83.07,566.73-83.17z
			"/>
	</g>
</g>
<g>
	<g>
		<g>
			<g>
				<path class="st0" d="M654.88-44.66c-14.23,0-25.8-11.57-25.8-25.8s11.57-25.8,25.8-25.8c14.23,0,25.8,11.57,25.8,25.8
					S669.11-44.66,654.88-44.66z M654.88-93.51c-12.71,0-23.05,10.34-23.05,23.05s10.34,23.05,23.05,23.05
					c12.71,0,23.05-10.34,23.05-23.05S667.59-93.51,654.88-93.51z"/>
			</g>
		</g>
		<g>
			<g>
				<path class="st0" d="M651.77-79.14c-2.49,0-4.52-2.03-4.52-4.52s2.03-4.52,4.52-4.52c2.49,0,4.52,2.03,4.52,4.52
					S654.27-79.14,651.77-79.14z M651.77-85.43c-0.97,0-1.77,0.79-1.77,1.77s0.79,1.77,1.77,1.77c0.98,0,1.77-0.79,1.77-1.77
					S652.75-85.43,651.77-85.43z"/>
			</g>
		</g>
		<g>
			<g>
				<path class="st0" d="M655.72-54.81c-2.49,0-4.52-2.03-4.52-4.52s2.03-4.52,4.52-4.52c2.49,0,4.52,2.03,4.52,4.52
					S658.22-54.81,655.72-54.81z M655.72-61.1c-0.97,0-1.77,0.79-1.77,1.77c0,0.98,0.79,1.77,1.77,1.77c0.98,0,1.77-0.79,1.77-1.77
					C657.49-60.3,656.7-61.1,655.72-61.1z"/>
			</g>
		</g>
		<g>
			<g>
				<path class="st0" d="M640.74-70.01c-2.09,0-3.8-1.7-3.8-3.8c0-2.09,1.7-3.8,3.8-3.8c2.09,0,3.8,1.7,3.8,3.8
					C644.54-71.72,642.83-70.01,640.74-70.01z M640.74-75.54c-0.95,0-1.73,0.78-1.73,1.73c0,0.95,0.78,1.73,1.73,1.73
					c0.95,0,1.73-0.78,1.73-1.73C642.47-74.76,641.7-75.54,640.74-75.54z"/>
			</g>
		</g>
		<g>
			<g>
				<path class="st0" d="M664.88-74.45c-2.09,0-3.8-1.7-3.8-3.8c0-2.09,1.7-3.8,3.8-3.8c2.09,0,3.8,1.7,3.8,3.8
					C668.68-76.15,666.98-74.45,664.88-74.45z M664.88-79.97c-0.95,0-1.73,0.78-1.73,1.73c0,0.95,0.78,1.73,1.73,1.73
					s1.73-0.78,1.73-1.73C666.61-79.2,665.84-79.97,664.88-79.97z"/>
			</g>
		</g>
		<g>
			<g>
				<path class="st0" d="M669.95-62.19c-2.09,0-3.8-1.7-3.8-3.8c0-2.09,1.7-3.8,3.8-3.8s3.8,1.7,3.8,3.8
					C673.75-63.89,672.05-62.19,669.95-62.19z M669.95-67.72c-0.95,0-1.73,0.78-1.73,1.73s0.78,1.73,1.73,1.73s1.73-0.78,1.73-1.73
					S670.91-67.72,669.95-67.72z"/>
			</g>
		</g>
		<g>
			<g>
				<path class="st0" d="M659.73-59.76l-0.99-1.81l6.58-3.61c-2.6-2.31-2.88-6.53-2.82-8.84c-1.99,0.51-3.85,0.39-5.55-0.36
					c-1.87-0.82-3.19-2.26-4.05-3.51c-1.66,4.49-4.94,6.25-7.63,6.71l8.19,8.5l-1.49,1.43l-9.79-10.17
					c-0.3-0.32-0.38-0.79-0.18-1.18c0.2-0.39,0.62-0.62,1.05-0.56c0.28,0.03,6.91,0.73,8.51-7.67c0.09-0.45,0.47-0.8,0.93-0.84
					c0.45-0.03,0.89,0.24,1.05,0.67c0.01,0.03,1.32,3.44,4.24,4.72c1.6,0.7,3.44,0.64,5.45-0.17c0.34-0.14,0.73-0.08,1.02,0.14
					c0.29,0.22,0.44,0.59,0.39,0.95c-0.01,0.08-0.92,7.54,3.09,9.3c0.36,0.16,0.6,0.51,0.62,0.9c0.02,0.39-0.19,0.76-0.53,0.95
					L659.73-59.76z"/>
			</g>
		</g>
		<g>
			<g>
				
					<rect x="652.82" y="-80.71" transform="matrix(0.9899 -0.1415 0.1415 0.9899 16.7268 91.8057)" class="st0" width="2.06" height="18.02"/>
			</g>
		</g>
		<g>
			<g>
				
					<rect x="652.95" y="-69.85" transform="matrix(0.4402 -0.8979 0.8979 0.4402 431.4853 554.4304)" class="st0" width="14.84" height="2.06"/>
			</g>
		</g>
	</g>
	<g>
		<path class="st0" d="M689.51-85.62c0-0.25,0.03-0.4,0.1-0.45c0.07-0.05,0.18-0.08,0.33-0.08h8.66c0.18,0,0.31,0.02,0.37,0.06
			c0.06,0.04,0.09,0.16,0.09,0.36v1.84c0,0.17-0.02,0.29-0.05,0.35c-0.03,0.07-0.15,0.1-0.35,0.1h-6.07c-0.07,0-0.1,0.03-0.1,0.1
			v4.03c0,0.05,0.02,0.08,0.05,0.08h6.19c0.17,0,0.25,0.09,0.25,0.28v2.19c0,0.19-0.09,0.28-0.28,0.28h-6.14
			c-0.05,0-0.08,0.04-0.08,0.13v7.4c0,0.2-0.03,0.32-0.1,0.37c-0.07,0.04-0.18,0.06-0.35,0.06h-2.19c-0.15,0-0.24-0.03-0.28-0.1
			c-0.03-0.07-0.05-0.17-0.05-0.3V-85.62z"/>
		<path class="st0" d="M703.75-80.23c0.2,0,0.32,0.12,0.35,0.35l0.08,1.08c0.44-0.57,0.96-0.99,1.56-1.27
			c0.6-0.28,1.23-0.42,1.89-0.42c0.37,0,0.68,0.03,0.94,0.08c0.26,0.05,0.52,0.12,0.79,0.23c0.08,0.03,0.15,0.07,0.19,0.11
			s0.06,0.12,0.06,0.24v1.79c0,0.13-0.03,0.21-0.09,0.23s-0.13,0.01-0.21-0.03c-0.39-0.17-0.92-0.25-1.59-0.25
			c-0.5,0-1.05,0.13-1.65,0.4c-0.6,0.27-1.19,0.73-1.78,1.38v7.5c0,0.19-0.09,0.28-0.28,0.28h-2.29c-0.1,0-0.17-0.01-0.21-0.04
			c-0.04-0.02-0.06-0.1-0.06-0.21v-11c0-0.2,0.02-0.33,0.06-0.38c0.04-0.05,0.14-0.08,0.29-0.08H703.75z"/>
		<path class="st0" d="M710.95-74.37c0-0.84,0.16-1.63,0.49-2.38c0.33-0.75,0.77-1.4,1.33-1.95c0.56-0.55,1.22-0.99,1.98-1.31
			c0.76-0.32,1.57-0.48,2.44-0.48c0.86,0,1.66,0.16,2.42,0.48c0.75,0.32,1.41,0.75,1.98,1.31c0.56,0.55,1.01,1.2,1.33,1.95
			c0.33,0.75,0.49,1.54,0.49,2.38c0,0.84-0.16,1.63-0.49,2.37c-0.33,0.74-0.77,1.38-1.33,1.94c-0.56,0.55-1.22,0.99-1.98,1.31
			c-0.76,0.32-1.56,0.48-2.42,0.48c-0.87,0-1.69-0.16-2.44-0.48c-0.75-0.32-1.41-0.75-1.98-1.31c-0.56-0.55-1.01-1.2-1.33-1.94
			C711.12-72.74,710.95-73.53,710.95-74.37z M713.7-74.37c0,0.49,0.09,0.94,0.28,1.37c0.18,0.43,0.43,0.8,0.74,1.11
			c0.31,0.31,0.68,0.56,1.11,0.74s0.88,0.28,1.37,0.28c0.47,0,0.92-0.09,1.35-0.28s0.8-0.43,1.11-0.74s0.56-0.68,0.74-1.11
			c0.18-0.43,0.28-0.88,0.28-1.37c0-0.49-0.09-0.94-0.28-1.37c-0.19-0.43-0.43-0.8-0.74-1.11s-0.68-0.56-1.11-0.74
			s-0.88-0.28-1.35-0.28c-0.49,0-0.94,0.09-1.37,0.28s-0.8,0.43-1.11,0.74c-0.31,0.31-0.56,0.68-0.74,1.11
			C713.79-75.31,713.7-74.86,713.7-74.37z"/>
		<path class="st0" d="M735.12-69.49c-0.42,0.34-0.91,0.62-1.47,0.86c-0.56,0.23-1.23,0.35-2,0.35c-0.77,0-1.51-0.13-2.23-0.4
			c-0.71-0.27-1.34-0.66-1.89-1.18c-0.55-0.52-0.98-1.16-1.31-1.93c-0.33-0.76-0.49-1.64-0.49-2.63c0-0.97,0.17-1.84,0.5-2.59
			c0.34-0.76,0.78-1.39,1.32-1.91c0.54-0.52,1.17-0.91,1.89-1.17c0.71-0.26,1.45-0.39,2.2-0.39c0.84,0,1.53,0.13,2.08,0.39
			c0.55,0.26,1.01,0.55,1.4,0.87v-0.38c0-0.25,0.03-0.42,0.08-0.5c0.05-0.08,0.19-0.13,0.43-0.13h1.94c0.18,0,0.31,0.02,0.36,0.06
			c0.06,0.04,0.09,0.2,0.09,0.47v10.37c0,1.19-0.19,2.18-0.58,2.96c-0.39,0.78-0.88,1.4-1.47,1.86c-0.6,0.46-1.25,0.79-1.96,0.98
			c-0.71,0.19-1.4,0.29-2.05,0.29c-0.49,0-0.91-0.01-1.27-0.04c-0.36-0.03-0.68-0.06-0.96-0.11c-0.28-0.05-0.53-0.11-0.76-0.19
			c-0.23-0.08-0.46-0.16-0.69-0.24c-0.13-0.03-0.22-0.09-0.25-0.16c-0.03-0.08-0.05-0.18-0.05-0.31v-1.94c0-0.1,0.03-0.17,0.1-0.21
			c0.07-0.04,0.16-0.04,0.28,0.01c0.44,0.18,0.91,0.33,1.41,0.44c0.5,0.11,1.07,0.16,1.69,0.16c0.45,0,0.9-0.05,1.35-0.15
			c0.44-0.1,0.84-0.28,1.18-0.54c0.34-0.26,0.62-0.62,0.83-1.07s0.31-1.02,0.31-1.71V-69.49z M728.48-74.42
			c0,0.54,0.09,1.04,0.28,1.5s0.43,0.86,0.74,1.18c0.31,0.33,0.68,0.58,1.12,0.77c0.44,0.19,0.91,0.28,1.41,0.28
			c0.62,0,1.2-0.13,1.72-0.39c0.53-0.26,0.99-0.64,1.37-1.14v-4.31c-0.39-0.5-0.84-0.88-1.37-1.14c-0.53-0.26-1.1-0.39-1.72-0.39
			c-0.45,0-0.89,0.09-1.32,0.26c-0.43,0.18-0.81,0.42-1.13,0.73s-0.59,0.69-0.79,1.15S728.48-74.97,728.48-74.42z"/>
		<path class="st0" d="M748.24-84.79c-0.42,0-0.76,0.05-1.02,0.14c-0.26,0.09-0.47,0.24-0.62,0.44s-0.25,0.46-0.3,0.78
			c-0.05,0.32-0.08,0.71-0.08,1.16v1.74c0,0.13,0.01,0.22,0.04,0.25c0.03,0.03,0.1,0.05,0.21,0.05h2.82c0.13,0,0.22,0.02,0.26,0.05
			c0.04,0.03,0.06,0.12,0.06,0.28v1.94c0,0.15-0.02,0.24-0.06,0.26s-0.12,0.04-0.24,0.04h-2.87c-0.12,0-0.18,0.02-0.2,0.06
			s-0.03,0.11-0.03,0.21v8.58c0,0.08-0.01,0.15-0.04,0.2c-0.03,0.05-0.09,0.08-0.19,0.08h-2.37c-0.08,0-0.14-0.02-0.18-0.06
			c-0.03-0.04-0.05-0.13-0.05-0.26v-8.61c0-0.13-0.08-0.2-0.25-0.2h-2.59c-0.13,0-0.22-0.02-0.25-0.05
			c-0.03-0.03-0.05-0.12-0.05-0.25v-1.96c0-0.12,0.01-0.2,0.04-0.24c0.02-0.04,0.1-0.06,0.24-0.06h2.62c0.13,0,0.21-0.02,0.23-0.05
			c0.02-0.03,0.03-0.1,0.03-0.2v-1.89c0-0.91,0.08-1.68,0.23-2.32c0.15-0.64,0.39-1.16,0.73-1.56c0.33-0.4,0.77-0.7,1.31-0.88
			s1.18-0.28,1.94-0.28c0.62,0,1.14,0.05,1.55,0.15c0.41,0.1,0.74,0.21,0.99,0.33c0.15,0.07,0.24,0.13,0.26,0.18
			c0.02,0.05,0.04,0.14,0.04,0.28v1.99c0,0.22-0.11,0.26-0.33,0.13C749.67-84.65,749.04-84.79,748.24-84.79z"/>
		<path class="st0" d="M751.26-74.37c0-0.84,0.16-1.63,0.49-2.38c0.33-0.75,0.77-1.4,1.33-1.95c0.56-0.55,1.22-0.99,1.98-1.31
			c0.76-0.32,1.57-0.48,2.44-0.48c0.86,0,1.66,0.16,2.42,0.48c0.75,0.32,1.41,0.75,1.98,1.31c0.56,0.55,1.01,1.2,1.33,1.95
			c0.33,0.75,0.49,1.54,0.49,2.38c0,0.84-0.16,1.63-0.49,2.37c-0.33,0.74-0.77,1.38-1.33,1.94c-0.56,0.55-1.22,0.99-1.98,1.31
			c-0.76,0.32-1.56,0.48-2.42,0.48c-0.87,0-1.69-0.16-2.44-0.48c-0.75-0.32-1.41-0.75-1.98-1.31c-0.56-0.55-1.01-1.2-1.33-1.94
			C751.42-72.74,751.26-73.53,751.26-74.37z M754-74.37c0,0.49,0.09,0.94,0.28,1.37c0.18,0.43,0.43,0.8,0.74,1.11
			c0.31,0.31,0.68,0.56,1.11,0.74s0.88,0.28,1.37,0.28c0.47,0,0.92-0.09,1.35-0.28s0.8-0.43,1.11-0.74s0.56-0.68,0.74-1.11
			c0.18-0.43,0.28-0.88,0.28-1.37c0-0.49-0.09-0.94-0.28-1.37c-0.19-0.43-0.43-0.8-0.74-1.11s-0.68-0.56-1.11-0.74
			s-0.88-0.28-1.35-0.28c-0.49,0-0.94,0.09-1.37,0.28s-0.8,0.43-1.11,0.74c-0.31,0.31-0.56,0.68-0.74,1.11
			C754.09-75.31,754-74.86,754-74.37z"/>
		<path class="st0" d="M766.03-74.37c0-0.84,0.16-1.63,0.49-2.38c0.33-0.75,0.77-1.4,1.33-1.95c0.56-0.55,1.22-0.99,1.98-1.31
			c0.76-0.32,1.57-0.48,2.44-0.48c0.86,0,1.66,0.16,2.42,0.48c0.75,0.32,1.41,0.75,1.98,1.31c0.56,0.55,1.01,1.2,1.33,1.95
			c0.33,0.75,0.49,1.54,0.49,2.38c0,0.84-0.16,1.63-0.49,2.37c-0.33,0.74-0.77,1.38-1.33,1.94c-0.56,0.55-1.22,0.99-1.98,1.31
			c-0.76,0.32-1.56,0.48-2.42,0.48c-0.87,0-1.69-0.16-2.44-0.48c-0.75-0.32-1.41-0.75-1.98-1.31c-0.56-0.55-1.01-1.2-1.33-1.94
			C766.2-72.74,766.03-73.53,766.03-74.37z M768.78-74.37c0,0.49,0.09,0.94,0.28,1.37c0.18,0.43,0.43,0.8,0.74,1.11
			c0.31,0.31,0.68,0.56,1.11,0.74s0.88,0.28,1.37,0.28c0.47,0,0.92-0.09,1.35-0.28s0.8-0.43,1.11-0.74s0.56-0.68,0.74-1.11
			c0.18-0.43,0.28-0.88,0.28-1.37c0-0.49-0.09-0.94-0.28-1.37c-0.19-0.43-0.43-0.8-0.74-1.11s-0.68-0.56-1.11-0.74
			s-0.88-0.28-1.35-0.28c-0.49,0-0.94,0.09-1.37,0.28s-0.8,0.43-1.11,0.74c-0.31,0.31-0.56,0.68-0.74,1.11
			C768.87-75.31,768.78-74.86,768.78-74.37z"/>
		<path class="st0" d="M788.74-68.55c0,0.18-0.11,0.28-0.33,0.28c-1.85-0.02-3.23-0.39-4.14-1.12c-0.92-0.73-1.37-1.98-1.37-3.74
			v-4.53h-2.62c-0.13,0-0.22-0.02-0.25-0.06c-0.03-0.04-0.05-0.11-0.05-0.21v-1.96c0-0.22,0.11-0.33,0.33-0.33h2.59v-4.28
			c0-0.24,0.09-0.35,0.28-0.35h2.24c0.13,0,0.22,0.03,0.26,0.08c0.04,0.05,0.06,0.14,0.06,0.28v4.28h2.84
			c0.13,0,0.22,0.01,0.26,0.04c0.04,0.02,0.06,0.1,0.06,0.21v2.04c0,0.12-0.01,0.19-0.04,0.23c-0.03,0.03-0.11,0.05-0.24,0.05h-2.9
			v4.15c0,0.55,0.06,1.02,0.19,1.38s0.31,0.67,0.55,0.89s0.53,0.39,0.86,0.49c0.33,0.1,0.69,0.16,1.1,0.18
			c0.15,0,0.24,0.03,0.26,0.09c0.03,0.06,0.04,0.16,0.04,0.29V-68.55z"/>
	</g>
	<g>
		<path class="st0" d="M745.45-57.68c-0.08,0.37-0.21,0.67-0.39,0.93c-0.17,0.25-0.38,0.45-0.61,0.61
			c-0.23,0.15-0.49,0.27-0.78,0.34s-0.58,0.11-0.89,0.11c-0.08,0-0.11-0.03-0.09-0.1l0.16-0.69c0.01-0.04,0.02-0.07,0.04-0.09
			c0.02-0.02,0.05-0.03,0.1-0.03c0.14,0,0.29-0.02,0.44-0.05c0.16-0.03,0.3-0.1,0.45-0.19c0.14-0.1,0.27-0.22,0.39-0.39
			c0.12-0.16,0.21-0.38,0.27-0.65l0.8-3.46c0.02-0.07,0.06-0.1,0.12-0.1h0.78c0.05,0,0.07,0.04,0.06,0.1L745.45-57.68z"/>
		<path class="st0" d="M747.86-55.7c-0.57,0-0.97-0.15-1.21-0.44c-0.23-0.29-0.28-0.73-0.14-1.32l0.45-1.93
			c0.02-0.1,0.09-0.15,0.2-0.15h0.62c0.06,0,0.1,0.01,0.11,0.03c0.01,0.02,0.01,0.06,0,0.12l-0.44,1.91
			c-0.08,0.36-0.07,0.62,0.04,0.78s0.3,0.23,0.56,0.23s0.48-0.08,0.67-0.23c0.19-0.16,0.32-0.42,0.41-0.78l0.44-1.91
			c0.02-0.1,0.08-0.15,0.17-0.15h0.67c0.07,0,0.1,0.04,0.08,0.1l-0.46,1.98C749.75-56.28,749.03-55.7,747.86-55.7z"/>
		<path class="st0" d="M752.91-58.88c-0.21,0-0.38,0.02-0.53,0.07c-0.15,0.05-0.24,0.14-0.27,0.28c-0.02,0.1,0,0.18,0.09,0.23
			c0.08,0.05,0.19,0.1,0.32,0.14s0.27,0.09,0.42,0.14c0.15,0.05,0.29,0.12,0.4,0.21c0.12,0.09,0.21,0.22,0.26,0.38
			c0.06,0.16,0.06,0.36,0,0.61c-0.09,0.39-0.29,0.67-0.6,0.85c-0.31,0.18-0.71,0.27-1.2,0.27c-0.29,0-0.53-0.02-0.72-0.06
			c-0.19-0.04-0.34-0.09-0.45-0.15c-0.03-0.02-0.04-0.04-0.05-0.06c0-0.02,0-0.05,0.01-0.09l0.14-0.62
			c0.01-0.03,0.02-0.04,0.04-0.05c0.02-0.01,0.04,0,0.07,0.01c0.11,0.09,0.26,0.15,0.42,0.2c0.17,0.05,0.36,0.07,0.57,0.07
			c0.26,0,0.46-0.03,0.61-0.09c0.15-0.06,0.24-0.17,0.27-0.31c0.03-0.12,0-0.21-0.08-0.27c-0.08-0.07-0.18-0.12-0.31-0.17
			c-0.13-0.05-0.27-0.09-0.43-0.14s-0.29-0.12-0.41-0.2c-0.12-0.08-0.21-0.2-0.27-0.35s-0.06-0.34,0-0.59
			c0.07-0.3,0.25-0.55,0.55-0.75c0.29-0.2,0.68-0.3,1.16-0.3c0.28,0,0.49,0.02,0.65,0.06c0.16,0.04,0.28,0.08,0.36,0.12
			c0.05,0.03,0.08,0.05,0.1,0.07c0.02,0.02,0.02,0.06,0,0.12l-0.12,0.53c-0.01,0.04-0.03,0.06-0.05,0.08
			c-0.03,0.02-0.06,0.01-0.12-0.02c-0.1-0.06-0.23-0.12-0.37-0.16C753.23-58.86,753.08-58.88,752.91-58.88z"/>
		<path class="st0" d="M756.64-55.79c-0.01,0.06-0.06,0.09-0.12,0.09c-0.59-0.01-1.01-0.12-1.25-0.36c-0.24-0.24-0.29-0.64-0.16-1.2
			l0.34-1.46h-0.84c-0.04,0-0.07-0.01-0.08-0.02s-0.01-0.04,0-0.07l0.14-0.63c0.02-0.07,0.06-0.1,0.13-0.1h0.83l0.32-1.38
			c0.02-0.08,0.05-0.11,0.11-0.11h0.72c0.04,0,0.07,0.01,0.08,0.02c0.01,0.02,0.01,0.05,0,0.09l-0.32,1.38h0.91
			c0.04,0,0.07,0,0.08,0.01c0.01,0.01,0.01,0.03,0,0.07l-0.15,0.65c-0.01,0.04-0.02,0.06-0.03,0.07s-0.04,0.02-0.08,0.02h-0.93
			l-0.31,1.33c-0.04,0.18-0.06,0.33-0.04,0.44c0.01,0.12,0.05,0.21,0.11,0.29c0.06,0.07,0.14,0.12,0.24,0.16
			c0.1,0.03,0.21,0.05,0.34,0.06c0.05,0,0.08,0.01,0.08,0.03c0,0.02,0,0.05-0.01,0.09L756.64-55.79z"/>
		<path class="st0" d="M760.55-57.66c-0.04,0.16-0.04,0.31-0.02,0.46c0.03,0.15,0.08,0.27,0.17,0.38s0.2,0.19,0.34,0.25
			c0.14,0.06,0.31,0.09,0.5,0.09c0.18,0,0.34-0.01,0.47-0.04c0.13-0.03,0.28-0.08,0.43-0.15c0.05-0.02,0.07-0.01,0.05,0.04
			L762.36-56c-0.01,0.03-0.01,0.05-0.03,0.06c-0.01,0.01-0.03,0.03-0.06,0.04c-0.16,0.06-0.33,0.12-0.51,0.15
			c-0.18,0.04-0.35,0.05-0.52,0.05c-0.29,0-0.54-0.05-0.77-0.15c-0.23-0.1-0.41-0.24-0.56-0.42c-0.14-0.18-0.24-0.39-0.29-0.62
			c-0.05-0.24-0.04-0.49,0.02-0.76c0.06-0.27,0.17-0.53,0.33-0.76c0.16-0.24,0.36-0.45,0.58-0.63c0.23-0.18,0.48-0.32,0.75-0.42
			c0.27-0.1,0.55-0.15,0.84-0.15c0.16,0,0.31,0.02,0.47,0.06c0.16,0.04,0.3,0.09,0.42,0.15c0.03,0.02,0.05,0.03,0.07,0.05
			c0.02,0.02,0.02,0.05,0.01,0.09l-0.14,0.62c-0.01,0.06-0.05,0.07-0.1,0.03c-0.11-0.07-0.22-0.12-0.34-0.16
			c-0.12-0.04-0.27-0.05-0.44-0.05c-0.19,0-0.37,0.03-0.54,0.09c-0.17,0.06-0.32,0.15-0.46,0.25c-0.14,0.11-0.25,0.23-0.34,0.38
			C760.65-57.97,760.59-57.82,760.55-57.66z"/>
		<path class="st0" d="M763.48-57.66c0.06-0.27,0.17-0.53,0.33-0.76c0.16-0.24,0.35-0.45,0.57-0.63c0.22-0.18,0.46-0.32,0.73-0.42
			c0.27-0.1,0.54-0.15,0.82-0.15c0.28,0,0.52,0.05,0.74,0.15c0.22,0.1,0.4,0.24,0.54,0.42c0.14,0.18,0.23,0.39,0.28,0.63
			c0.05,0.24,0.04,0.49-0.02,0.76c-0.06,0.27-0.17,0.52-0.33,0.76c-0.16,0.24-0.35,0.44-0.57,0.62s-0.47,0.32-0.73,0.42
			c-0.27,0.1-0.54,0.15-0.81,0.15c-0.28,0-0.53-0.05-0.75-0.15c-0.22-0.1-0.4-0.24-0.54-0.42s-0.24-0.39-0.29-0.62
			C763.41-57.13,763.41-57.39,763.48-57.66z M764.36-57.66c-0.04,0.16-0.04,0.3-0.01,0.44c0.03,0.14,0.08,0.26,0.16,0.36
			c0.08,0.1,0.18,0.18,0.3,0.24c0.12,0.06,0.26,0.09,0.42,0.09c0.15,0,0.3-0.03,0.45-0.09c0.15-0.06,0.29-0.14,0.41-0.24
			c0.12-0.1,0.23-0.22,0.32-0.36c0.09-0.14,0.16-0.28,0.19-0.44c0.04-0.16,0.04-0.3,0.01-0.44c-0.03-0.14-0.08-0.26-0.16-0.36
			c-0.08-0.1-0.18-0.18-0.3-0.24c-0.12-0.06-0.26-0.09-0.41-0.09c-0.16,0-0.31,0.03-0.46,0.09c-0.15,0.06-0.29,0.14-0.41,0.24
			c-0.12,0.1-0.23,0.22-0.32,0.36C764.46-57.96,764.39-57.81,764.36-57.66z"/>
		<path class="st0" d="M769.68-59.28c0.18-0.11,0.38-0.2,0.6-0.25c0.22-0.06,0.44-0.08,0.65-0.08c0.49,0,0.83,0.14,1.03,0.42
			c0.19,0.28,0.23,0.7,0.1,1.25l-0.48,2.07c-0.01,0.06-0.06,0.1-0.13,0.1h-0.72c-0.06,0-0.08-0.03-0.07-0.1l0.45-1.93
			c0.08-0.36,0.07-0.61-0.05-0.76s-0.3-0.23-0.56-0.23c-0.16,0-0.32,0.02-0.48,0.07c-0.16,0.05-0.34,0.14-0.55,0.29l-0.6,2.56
			c-0.01,0.06-0.05,0.09-0.11,0.09h-0.7c-0.05,0-0.08-0.01-0.09-0.02c-0.01-0.02-0.01-0.04,0-0.06l0.83-3.58
			c0.01-0.06,0.05-0.09,0.1-0.09h0.74c0.07,0,0.1,0.03,0.09,0.09L769.68-59.28z"/>
		<path class="st0" d="M774.36-59.28c0.18-0.11,0.38-0.2,0.6-0.25c0.22-0.06,0.44-0.08,0.65-0.08c0.49,0,0.83,0.14,1.03,0.42
			c0.19,0.28,0.23,0.7,0.1,1.25l-0.48,2.07c-0.01,0.06-0.06,0.1-0.13,0.1h-0.72c-0.06,0-0.08-0.03-0.07-0.1l0.45-1.93
			c0.08-0.36,0.07-0.61-0.05-0.76s-0.3-0.23-0.56-0.23c-0.16,0-0.32,0.02-0.48,0.07c-0.16,0.05-0.34,0.14-0.55,0.29l-0.6,2.56
			c-0.01,0.06-0.05,0.09-0.11,0.09h-0.7c-0.05,0-0.08-0.01-0.09-0.02c-0.01-0.02-0.01-0.04,0-0.06l0.83-3.58
			c0.01-0.06,0.05-0.09,0.1-0.09h0.74c0.07,0,0.1,0.03,0.09,0.09L774.36-59.28z"/>
		<path class="st0" d="M781.26-57.51c-0.01,0.06-0.05,0.1-0.11,0.1h-2.72c-0.03,0.3,0.03,0.53,0.19,0.69
			c0.16,0.16,0.42,0.25,0.79,0.25c0.17,0,0.35-0.02,0.53-0.05c0.18-0.04,0.34-0.09,0.48-0.15c0.06-0.02,0.09-0.03,0.1-0.01
			c0.01,0.01,0.01,0.03,0,0.06l-0.13,0.56c-0.01,0.04-0.02,0.07-0.03,0.09c-0.01,0.02-0.04,0.04-0.07,0.05
			c-0.16,0.07-0.34,0.13-0.53,0.17c-0.19,0.04-0.41,0.06-0.67,0.06c-0.36,0-0.65-0.05-0.87-0.16c-0.22-0.11-0.39-0.25-0.51-0.43
			c-0.12-0.18-0.18-0.38-0.2-0.61c-0.02-0.23,0-0.47,0.06-0.72c0.07-0.31,0.18-0.58,0.34-0.83c0.15-0.25,0.34-0.46,0.55-0.63
			c0.21-0.17,0.44-0.31,0.69-0.4c0.25-0.09,0.5-0.14,0.76-0.14c0.26,0,0.49,0.05,0.69,0.14c0.2,0.09,0.37,0.22,0.5,0.38
			c0.13,0.16,0.21,0.37,0.25,0.6c0.04,0.24,0.03,0.5-0.04,0.79L781.26-57.51z M779.73-58.9c-0.24,0-0.46,0.07-0.65,0.22
			c-0.19,0.15-0.34,0.34-0.46,0.58h1.89c0-0.24-0.07-0.44-0.2-0.58C780.19-58.83,780-58.9,779.73-58.9z"/>
		<path class="st0" d="M782.98-57.66c-0.04,0.16-0.04,0.31-0.02,0.46c0.03,0.15,0.08,0.27,0.17,0.38s0.2,0.19,0.34,0.25
			c0.14,0.06,0.31,0.09,0.5,0.09c0.18,0,0.34-0.01,0.47-0.04c0.13-0.03,0.28-0.08,0.43-0.15c0.05-0.02,0.07-0.01,0.05,0.04
			L784.79-56c-0.01,0.03-0.01,0.05-0.03,0.06c-0.01,0.01-0.03,0.03-0.06,0.04c-0.16,0.06-0.33,0.12-0.51,0.15
			c-0.18,0.04-0.35,0.05-0.52,0.05c-0.29,0-0.54-0.05-0.77-0.15c-0.23-0.1-0.41-0.24-0.56-0.42c-0.14-0.18-0.24-0.39-0.29-0.62
			c-0.05-0.24-0.04-0.49,0.02-0.76c0.06-0.27,0.17-0.53,0.33-0.76c0.16-0.24,0.36-0.45,0.58-0.63c0.23-0.18,0.48-0.32,0.75-0.42
			c0.27-0.1,0.55-0.15,0.84-0.15c0.16,0,0.31,0.02,0.47,0.06c0.16,0.04,0.3,0.09,0.42,0.15c0.03,0.02,0.05,0.03,0.07,0.05
			c0.02,0.02,0.02,0.05,0.01,0.09l-0.14,0.62c-0.01,0.06-0.05,0.07-0.1,0.03c-0.11-0.07-0.22-0.12-0.34-0.16
			c-0.12-0.04-0.27-0.05-0.44-0.05c-0.19,0-0.37,0.03-0.54,0.09c-0.17,0.06-0.32,0.15-0.46,0.25c-0.14,0.11-0.25,0.23-0.34,0.38
			C783.08-57.97,783.02-57.82,782.98-57.66z"/>
		<path class="st0" d="M788.03-55.79c-0.01,0.06-0.06,0.09-0.12,0.09c-0.59-0.01-1.01-0.12-1.25-0.36c-0.24-0.24-0.29-0.64-0.16-1.2
			l0.34-1.46h-0.84c-0.04,0-0.07-0.01-0.08-0.02s-0.01-0.04,0-0.07l0.14-0.63c0.02-0.07,0.06-0.1,0.13-0.1h0.83l0.32-1.38
			c0.02-0.08,0.05-0.11,0.11-0.11h0.72c0.04,0,0.07,0.01,0.08,0.02c0.01,0.02,0.01,0.05,0,0.09l-0.32,1.38h0.91
			c0.04,0,0.07,0,0.08,0.01c0.01,0.01,0.01,0.03,0,0.07l-0.15,0.65c-0.01,0.04-0.02,0.06-0.03,0.07s-0.04,0.02-0.08,0.02h-0.93
			l-0.31,1.33c-0.04,0.18-0.06,0.33-0.04,0.44c0.01,0.12,0.05,0.21,0.11,0.29c0.06,0.07,0.14,0.12,0.24,0.16
			c0.1,0.03,0.21,0.05,0.34,0.06c0.05,0,0.08,0.01,0.08,0.03c0,0.02,0,0.05-0.01,0.09L788.03-55.79z"/>
	</g>
</g>
<g>
	<g>
		<path class="st0" d="M934.96-79.43h-7.5c-3.79,0-7.13,2.49-8.21,6.13L916-62.34c-0.72,2.43,1.11,4.87,3.64,4.87h15.38l1.51-5.39
			h-13.48l0.92-2.36l13.55-0.01l2.27-7.78C940.72-76.22,938.31-79.43,934.96-79.43z M932.63-72.19l-0.5,2.35h-6.84l1.19-3.02
			c0.18-0.44,0.6-0.73,1.08-0.73h3.94C932.24-73.58,932.78-72.91,932.63-72.19z"/>
	</g>
	<g>
		<path class="st0" d="M1007.03-79.43h-7.5c-3.79,0-7.13,2.49-8.21,6.13l-3.26,10.96c-0.72,2.43,1.11,4.87,3.64,4.87h15.38
			l1.51-5.39h-13.48l0.92-2.36l13.55-0.01l2.27-7.78C1012.79-76.22,1010.38-79.43,1007.03-79.43z M1004.7-72.19l-0.5,2.35h-6.84
			l1.19-3.02c0.18-0.44,0.6-0.73,1.08-0.73h3.94C1004.31-73.58,1004.85-72.91,1004.7-72.19z"/>
	</g>
	<g>
		<polygon class="st0" points="967.41,-85.16 959.96,-56.84 953.59,-56.84 960.75,-85.16 		"/>
	</g>
	<g>
		<path class="st0" d="M947.25-64.38c-0.33,1.08,0.47,2.16,1.59,2.16h0.82c2.02,0,6.95-0.66,6.95-3.35c0-1.55,0.85-3.97,1.58-5.75
			l-1.08,4.57c0,0,1.14-0.59-0.44,4.19c-1.58,4.79-6.61,5.1-6.61,5.1h-7.38c-2.19,0-3.78-2.09-3.18-4.2l3.13-11.25
			c0.97-3.5,4.16-5.92,7.79-5.92h9.56l-1.24,5.26h-7.81c-0.45,0-0.85,0.3-0.99,0.73L947.25-64.38z"/>
	</g>
	<g>
		<path class="st0" d="M959.17-73.58c0,0-0.46,0.96-0.99,2.26l0.53-2.26H959.17z"/>
	</g>
	<g>
		<path class="st0" d="M974.22-78.84c-2.77,0-5.23,1.76-6.12,4.37l-3.33,9.74c-1.05,3.07,1.23,6.26,4.47,6.26h1.43
			c4.82,0,7.06-0.97,7.19-1.03l-1.77,4.53h-9.62l-3.01,5.41h12.53c3.64,0,6.82-2.44,7.75-5.96l6.21-23.33H974.22z M979-64.2
			c0,0-1.83,0.35-4.34,0.35s-3.06-0.54-2.47-2.32c0.44-1.3,1.61-4.69,2.21-6.4c0.22-0.62,0.79-1.02,1.44-1.02h5.72L979-64.2z"/>
	</g>
	<g>
		<path class="st0" d="M915.93-55.46c0.14-0.03,0.18,0.03,0.16,0.12l-0.25,1.16h1.11c0.12,0,0.17,0.04,0.16,0.12l-0.12,0.52
			c-0.01,0.09-0.08,0.13-0.2,0.13h-1.11l-0.54,2.54c-0.08,0.37,0.06,0.44,0.61,0.44h0.5c0.12,0,0.18,0.03,0.17,0.12l-0.11,0.55
			c-0.03,0.09-0.1,0.13-0.21,0.15c-0.32,0.04-0.64,0.06-0.81,0.06c-0.88,0-1.78-0.02-1.56-1.01l0.61-2.84h-0.64
			c-0.12,0-0.17-0.04-0.16-0.13l0.11-0.52c0.01-0.08,0.09-0.12,0.2-0.12h0.65l0.2-0.96c0.02-0.08,0.08-0.12,0.18-0.13L915.93-55.46z
			"/>
		<path class="st0" d="M922.83-51.97l-0.06,0.25c-0.03,0.16-0.1,0.22-0.43,0.22h-3.56c-0.16,0.88,0.07,1.08,1.16,1.08h1.91
			c0.11,0,0.16,0.04,0.15,0.12l-0.11,0.52c-0.01,0.09-0.08,0.12-0.19,0.14c-0.6,0.07-1.31,0.09-2.03,0.09c-2.2,0-2.59-0.47-2.2-2.34
			c0.41-1.88,1.01-2.35,3.2-2.35C922.8-54.23,923.21-53.78,922.83-51.97z M918.94-52.22h2.58c0.18-0.9-0.01-1.13-1.01-1.13
			C919.46-53.35,919.15-53.12,918.94-52.22z"/>
		<path class="st0" d="M926.01-55.95c0.11,0,0.16,0.04,0.15,0.12l-1.32,6.11c-0.01,0.08-0.08,0.12-0.19,0.12h-1.02
			c-0.11,0-0.16-0.04-0.15-0.12l1.32-6.11c0.01-0.08,0.08-0.12,0.19-0.12H926.01z"/>
		<path class="st0" d="M931.91-51.97l-0.06,0.25c-0.03,0.16-0.1,0.22-0.43,0.22h-3.56c-0.16,0.88,0.07,1.08,1.16,1.08h1.91
			c0.11,0,0.16,0.04,0.15,0.12l-0.11,0.52c-0.01,0.09-0.08,0.12-0.19,0.14c-0.6,0.07-1.31,0.09-2.03,0.09c-2.2,0-2.59-0.47-2.2-2.34
			c0.41-1.88,1.01-2.35,3.2-2.35C931.88-54.23,932.28-53.78,931.91-51.97z M928.02-52.22h2.58c0.18-0.9-0.01-1.13-1.01-1.13
			C928.53-53.35,928.23-53.12,928.02-52.22z"/>
		<path class="st0" d="M937.84-54.14c0.1,0.02,0.16,0.06,0.14,0.15l-0.11,0.51c-0.01,0.08-0.08,0.12-0.2,0.12h-1.77
			c-1.2,0-1.43,0.29-1.69,1.46c-0.25,1.17-0.15,1.47,1.06,1.47h1.77c0.12,0,0.17,0.04,0.16,0.12l-0.11,0.51
			c-0.02,0.09-0.09,0.13-0.21,0.15c-0.6,0.08-1.34,0.09-1.79,0.09c-2.29,0-2.62-0.47-2.23-2.35c0.41-1.87,0.96-2.34,3.24-2.34
			C936.53-54.23,937.26-54.21,937.84-54.14z"/>
		<path class="st0" d="M943.91-51.88c-0.39,1.87-0.99,2.34-3.24,2.34c-2.25,0-2.64-0.47-2.24-2.34c0.41-1.88,1-2.35,3.25-2.35
			C943.93-54.23,944.31-53.76,943.91-51.88z M939.8-51.88c-0.26,1.17-0.15,1.46,1.06,1.46s1.43-0.29,1.69-1.46
			c0.26-1.18,0.15-1.47-1.06-1.47C940.28-53.35,940.06-53.06,939.8-51.88z"/>
		<path class="st0" d="M953.74-52.39l-0.59,2.68c-0.02,0.08-0.08,0.12-0.19,0.12h-1.02c-0.11,0-0.15-0.04-0.14-0.12l0.51-2.36
			c0.26-1.23,0.01-1.29-0.97-1.29c-0.38,0-0.79,0.02-1.13,0.07c0.06,0.25,0.03,0.58-0.06,1.04l-0.56,2.54
			c-0.02,0.09-0.08,0.12-0.18,0.12h-1.04c-0.11,0-0.16-0.04-0.13-0.12l0.54-2.53c0.23-1.07-0.05-1.12-1-1.12h-0.96l-0.78,3.64
			c-0.02,0.08-0.09,0.12-0.2,0.12h-1.02c-0.11,0-0.15-0.04-0.14-0.12l0.9-4.25c0.02-0.1,0.08-0.12,0.19-0.13
			c0.63-0.09,1.5-0.13,2.05-0.13c0.79,0,1.5,0.11,1.88,0.25c0.63-0.16,1.4-0.26,1.95-0.26C953.52-54.24,954.09-53.96,953.74-52.39z"
			/>
		<path class="st0" d="M959.52-54.14c0.1,0.02,0.15,0.06,0.12,0.13l-0.1,0.49c-0.01,0.08-0.08,0.12-0.2,0.12h-2.06
			c-0.48,0-0.78,0.11-0.83,0.37l-0.02,0.1c-0.03,0.2,0.07,0.36,0.52,0.49l1.4,0.4c0.93,0.27,1,0.7,0.89,1.21l-0.02,0.11
			c-0.21,0.95-1.12,1.17-2.59,1.17c-0.98,0-1.81-0.05-2.17-0.08c-0.13-0.01-0.17-0.05-0.15-0.12l0.11-0.52
			c0.01-0.09,0.08-0.13,0.2-0.13h2.18c0.75,0,1.01-0.07,1.07-0.36l0.02-0.08c0.05-0.2-0.07-0.33-0.54-0.47l-1.41-0.42
			c-0.82-0.23-0.96-0.73-0.86-1.22l0.04-0.17c0.18-0.91,1.25-1.11,2.66-1.11C958.27-54.23,958.88-54.21,959.52-54.14z"/>
	</g>
	<g>
		<g>
			<path class="st0" d="M892.05-85.96c0.59,0,2.19-0.59,2.52-1.69c0.33-1.11-0.65-2.32-2.06-2.32s-2.67,1.15-2.67,2.15
				S890.81-85.96,892.05-85.96z"/>
		</g>
		<g>
			<path class="st0" d="M898.39-85.52c-1.25,0-3.23,0.81-3.23,3.19c0,2.38,2.29,3.52,3.72,3.52s3.05-1.16,3.05-3.05
				S900.46-85.52,898.39-85.52z"/>
		</g>
		<g>
			<path class="st0" d="M904.94-84.99c-0.59,0-2.54,0.31-2.54,2.82s2.34,3.55,3.47,3.55c1.12,0,2.28-1.29,2.28-2.77
				S906.75-84.99,904.94-84.99z"/>
		</g>
		<g>
			<path class="st0" d="M898.67-78.16c-1.03,0-3.51,1.09-3.51,3.44c0,2.34,1.91,3.71,3.51,3.71s3.62-1.38,3.62-3.47
				C902.29-76.57,900.93-78.16,898.67-78.16z"/>
		</g>
		<g>
			<path class="st0" d="M902.72-74.74c0,0.77,0.59,3.5,3.03,3.5s2.82-2.48,2.82-3.35s-0.57-3.57-2.8-3.57
				C903.54-78.16,902.72-75.82,902.72-74.74z"/>
		</g>
		<g>
			<path class="st0" d="M910.61-82.84c-0.28,0.02-0.62,0.39-0.62,1.37c0,0.98,0.81,2.54,1.69,2.54c0.88,0,0.52-1.71,0.52-1.95
				C912.2-81.13,911.4-82.9,910.61-82.84z"/>
		</g>
		<g>
			<path class="st0" d="M911.68-76.5c-0.5,0-1.25,0.94-1.25,2.05c0,1.11,0.52,2.2,1.25,2.2c0.73,0,1.24-1.11,1.24-1.97
				S912.63-76.5,911.68-76.5z"/>
		</g>
		<g>
			<path class="st0" d="M898.62-68.05c-1.03,0-2.61,0.98-2.61,2.54c0,1.56,1.06,2.31,2.1,2.31s2.7-0.91,2.7-2.57
				C900.82-67.43,899.63-68.05,898.62-68.05z"/>
		</g>
		<g>
			<path class="st0" d="M905.65-68.51c-1.05,0-2.5,1.26-2.5,2.63c0,1.37,0.99,1.81,1.79,1.81c0.8,0,2.34-0.98,2.34-2.51
				S906.42-68.51,905.65-68.51z"/>
		</g>
		<g>
			<path class="st0" d="M910.43-71.42c-0.47,0-1.86,1.11-1.86,2.75c0,1.64,0.96,1.64,1.14,1.64s1.73-0.78,1.73-2.61
				S910.43-71.42,910.43-71.42z"/>
		</g>
		<g>
			<path class="st0" d="M889.62-84.99c-1.09,0-2.61,1.11-2.61,2.52c0,1.41,1.3,2.43,2.32,2.43s2.71-0.76,2.71-2.48
				C892.05-84.23,890.96-84.99,889.62-84.99z"/>
		</g>
		<g>
			<path class="st0" d="M897.74-91.52c-0.91,0-1.63,0.74-1.63,1.37s0.89,2.18,2.71,2.18c1.82,0,1.67-1.56,1.67-1.78
				C900.49-89.96,899.6-91.52,897.74-91.52z"/>
		</g>
		<g>
			<path class="st0" d="M903.4-90.57c-1.11,0-0.83,0.96-0.83,1.19s1.09,2.17,2.56,2.17c1.48,0,0.61-1.8,0.61-1.8
				S904.9-90.57,903.4-90.57z"/>
		</g>
		<g>
			<path class="st0" d="M913.04-81.29c-0.03-0.09,0.35,2.82,0.41,2.82C913.52-78.47,913.46-79.95,913.04-81.29z"/>
		</g>
		<g>
			<path class="st0" d="M889.53-77.19c-0.85,0-2.52,1-2.52,2.49c0,1.48,1,2.68,2.41,2.68c1.41,0,2.63-1.19,2.63-2.58
				C892.05-76,890.92-77.19,889.53-77.19z"/>
		</g>
		<g>
			<path class="st0" d="M880.04-74.61c0,0.41,0.13,2.11,1.74,2.11s2.13-1.47,2.13-2.2c0-0.73-0.61-1.95-1.66-1.95
				S880.04-75.67,880.04-74.61z"/>
		</g>
		<g>
			<path class="st0" d="M882.52-84.77c-0.65,0-2.02,0.84-2.02,1.93c0,1.09,0.61,1.63,1.48,1.63c0.87,0,2.06-0.85,2.06-1.91
				C884.04-84.18,883.51-84.77,882.52-84.77z"/>
		</g>
		<g>
			<path class="st0" d="M876.81-82.75c0,0.54-0.02,1.22,0.63,1.22c0.65,0,1.22-1.06,1.22-1.45c0-0.39-0.04-1.06-0.65-1.06
				C877.39-84.05,876.81-83.1,876.81-82.75z"/>
		</g>
		<g>
			<path class="st0" d="M876.24-74.7c0,0.29,0.17,1.35,0.85,1.35s1.15-0.84,1.15-1.35s-0.22-1.34-0.8-1.34S876.24-75.19,876.24-74.7
				z"/>
		</g>
		<g>
			<path class="st0" d="M889.77-68.05c0,0.46,0.26,2.65,2.45,2.65s2.69-1.95,2.69-2.65c0-0.69-0.39-2.48-2.3-2.48
				C890.7-70.52,889.77-69.16,889.77-68.05z"/>
		</g>
		<g>
			<path class="st0" d="M884.75-62.82c0,0.46,0.37,2.13,2.13,2.13s1.43-1.78,1.43-1.89c0-0.11-0.52-1.61-1.77-1.61
				S884.75-63.53,884.75-62.82z"/>
		</g>
		<g>
			<path class="st0" d="M881.3-59.6c0,0.26,0.87,1.37,1.76,1.37c0.89,0,0.33-0.8,0.33-0.8s-0.8-0.89-1.28-1
				C881.68-60.13,881.3-60.04,881.3-59.6z"/>
		</g>
		<g>
			<path class="st0" d="M895.65-59.14"/>
		</g>
		<g>
			<path class="st0" d="M895.65-59.14c0,0,0.09,1.29,1.69,1.29s1.98-1.32,1.98-1.54c0-0.22-0.07-1.3-1.59-1.3
				C896.22-60.69,895.65-59.8,895.65-59.14z"/>
		</g>
		<g>
			<path class="st0" d="M895.37-55.74c0,0,0.24,0.57,1.09,0.57s1.37-0.48,1.37-0.81s-0.37-0.56-1-0.56
				C896.19-56.54,895.37-56.17,895.37-55.74z"/>
		</g>
		<g>
			<path class="st0" d="M902.17-56.35c0.33,0,1.61-0.65,1.61-1.11c0-0.46-0.89-0.15-1.3,0.11
				C902.06-57.08,901.38-56.35,902.17-56.35z"/>
		</g>
		<g>
			<path class="st0" d="M903.56-58.97c0.28,0,2.09-0.56,2.09-1.82s-1.35-0.8-1.98-0.35c-0.63,0.46-0.94,1.09-0.94,1.48
				C902.72-59.28,902.99-58.97,903.56-58.97z"/>
		</g>
		<g>
			<path class="st0" d="M912.27-67.02c-0.16,0.01-0.75,0.87-1.01,1.4c-0.26,0.53-0.46,1.5-0.24,1.44c0.22-0.07,0.83-1.03,1-1.44
				C912.2-66.03,912.61-67.04,912.27-67.02z"/>
		</g>
		<g>
			<path class="st0" d="M913.96-75.45c-0.11,0-0.26,0.59-0.26,1.5c0,0.91,0.09,1.45,0.26,1.45s0.17-1.19,0.17-1.72
				C914.13-74.74,914.11-75.45,913.96-75.45z"/>
		</g>
		<g>
			<path class="st0" d="M907.83-87.97c-0.34-0.08-0.54,0.29-0.54,0.77c0,0.48,1.02,2.97,2.19,2.97s0.24-1.87,0.24-1.87
				S908.68-87.76,907.83-87.97z"/>
		</g>
		<g>
			<path class="st0" d="M901.93-93.17c0.02,0.13,0.76,0.89,1.32,1.17s0.98,0.33,1.19,0.28c0.22-0.04-0.11-0.41-0.91-0.96
				C902.73-93.21,901.88-93.5,901.93-93.17z"/>
		</g>
		<g>
			<path class="st0" d="M895.98-94.21c-0.01,0.17,0.91,1.04,1.98,1.04s1.11-0.3,1.11-0.52c0-0.22-0.8-0.92-1.74-0.92
				C896.39-94.61,896-94.6,895.98-94.21z"/>
		</g>
		<g>
			<path class="st0" d="M886.4-90.85c0.76,0,2.39-0.46,2.39-1.32s-0.96-0.87-1.19-0.87c-0.24,0-2.03,0.37-2.03,1.26
				C885.57-90.89,886.23-90.85,886.4-90.85z"/>
		</g>
		<g>
			<path class="st0" d="M885.01-93.71c-0.01,0.06-0.36,0.39-0.8,0.67c-0.43,0.28-0.91,0.46-1.09,0.35
				C882.95-92.8,885.07-94.06,885.01-93.71z"/>
		</g>
	</g>
</g>
<g>
	<g>
		<path class="st0" d="M344.42,57.07V7.01h-39.71v57.86h39.71v-2.69h-27.09v-1.14h27.09v-0.85h-25.05v-1.13h25.05v-0.85h-27.09
			v-1.14H344.42z M342.15,35.43c0,0.08-0.07,0.15-0.15,0.15h-0.66c-0.08,0-0.14-0.06-0.15-0.14l-0.22-3.05
			c-0.04-0.49-0.44-0.87-0.93-0.87h-4.98v20.23c0,0.66,0.53,1.18,1.18,1.18h1.61v1.09h-8.45v-1.09h1.64c0.65,0,1.18-0.52,1.18-1.18
			V31.52h-4.9c-0.48,0-0.88,0.37-0.93,0.85l-0.29,3.08c-0.01,0.07-0.07,0.13-0.15,0.13h-0.6c-0.08,0-0.15-0.07-0.15-0.15v-5.4h16.95
			V35.43z M307.09,9.42h35.38v3.83h-35.38V9.42z M315.7,59.62v0.32h-8.22v-0.32H315.7z M314.83,58.21v-1.14h2.02v1.14H314.83z
			 M313.56,57.96h-6.08v-0.32h6.08V57.96z M313.56,61.93h-6.08v-0.32h6.08V61.93z M316.85,62.18h-2.02v-1.14h2.02V62.18z
			 M318.88,59.06v1.13h-2.03v-1.13H318.88z M314.04,54.02v-1.7h2.57c1.02,0,1.84-0.83,1.84-1.85V18.82h-7.66
			c-0.75,0-1.38,0.57-1.45,1.32l-0.46,4.81c-0.01,0.12-0.11,0.21-0.23,0.21h-0.94c-0.13,0-0.23-0.1-0.23-0.23v-8.45H334v8.45
			c0,0.13-0.11,0.23-0.24,0.23h-1.04c-0.12,0-0.22-0.09-0.23-0.21l-0.34-4.78c-0.06-0.76-0.7-1.35-1.46-1.35h-7.79v31.65
			c0,1.02,0.83,1.85,1.85,1.85h2.51v1.7H314.04z"/>
	</g>
	<g>
		<rect x="344.42" y="57.07" class="st0" width="75.31" height="1.14"/>
	</g>
	<g>
		<rect x="344.42" y="59.06" class="st0" width="73.31" height="1.13"/>
	</g>
	<g>
		<rect x="344.42" y="61.04" class="st0" width="75.31" height="1.14"/>
	</g>
	<g>
		<rect x="323.56" y="58.21" class="st0" width="20.86" height="0.85"/>
		<rect x="323.56" y="60.19" class="st0" width="20.86" height="0.85"/>
		<rect x="344.42" y="59.06" class="st0" width="68.82" height="1.13"/>
		<rect x="344.42" y="61.04" class="st0" width="68.82" height="0.57"/>
		<rect x="344.42" y="57.64" class="st0" width="68.82" height="0.57"/>
	</g>
	<g>
		<rect x="420.45" y="57.07" class="st0" width="2.02" height="1.13"/>
	</g>
	<g>
		<rect x="420.45" y="61.04" class="st0" width="2.02" height="1.13"/>
	</g>
	<g>
		<rect x="418.43" y="59.06" class="st0" width="2.02" height="1.13"/>
	</g>
	<g>
		<g>
			
				<rect x="423.54" y="57.64" transform="matrix(-1 -1.224647e-16 1.224647e-16 -1 853.1549 115.5966)" class="st0" width="6.08" height="0.32"/>
		</g>
		<g>
			
				<rect x="421.39" y="59.62" transform="matrix(-1 -1.224647e-16 1.224647e-16 -1 851.0099 119.5675)" class="st0" width="8.23" height="0.32"/>
		</g>
		<g>
			
				<rect x="423.54" y="61.61" transform="matrix(-1 -1.224647e-16 1.224647e-16 -1 853.1549 123.5383)" class="st0" width="6.08" height="0.32"/>
		</g>
	</g>
	<g>
		<path class="st0" d="M357.91,40.99h0.58l0.32-3.46c0,0-1.99-1.04-4.73-1.04s-7.95,1.6-7.95,8.67s5.58,8.62,7.34,8.62
			c1.75,0,4.44-0.13,5.56-2.34h-0.4c0,0-0.61,1.25-4.17,1.25c-3.56,0-6.43-3.54-6.43-7.55s2.2-7.84,5.88-7.84s4.09,1.7,4.09,1.7
			L357.91,40.99z"/>
	</g>
	<g>
		<path class="st0" d="M365.43,42.35c-3.19,0-5.78,2.57-5.78,5.73c0,3.17,2.59,5.73,5.78,5.73c3.2,0,5.79-2.56,5.79-5.73
			C371.22,44.92,368.63,42.35,365.43,42.35z M365.43,53.21c-2.11,0-3.83-2.3-3.83-5.13c0-2.83,1.72-5.13,3.83-5.13
			c2.12,0,3.84,2.3,3.84,5.13C369.27,50.91,367.55,53.21,365.43,53.21z"/>
	</g>
	<g>
		<path class="st0" d="M372.27,43.39l0.16,0.48h1.5c0.29,0,0.52,0.23,0.52,0.52v7.91c0,0.35-0.28,0.63-0.63,0.63h-1.39v0.61h5.66
			v-0.58h-1.44c-0.35,0-0.63-0.28-0.63-0.63v-9.97C376.02,42.35,374.55,43.09,372.27,43.39z"/>
	</g>
	<g>
		<path class="st0" d="M375.48,45.3c0,0,2.47-2.95,4.87-2.95c2.39,0,3.62,1.51,3.62,3.64v6.37c0,0.3,0.24,0.55,0.55,0.55h1.34v0.64
			h-3.78c0,0,0-7.34,0-7.95c0-0.61-0.8-2.03-2.47-2.03c-1.68,0-3.19,1.31-3.86,2.22C375.09,46.68,375.48,45.3,375.48,45.3z"/>
	</g>
	<g>
		<path class="st0" d="M386.28,43.39l0.16,0.48h1.5c0.29,0,0.52,0.23,0.52,0.52v7.91c0,0.35-0.28,0.63-0.63,0.63h-1.39v0.61h5.66
			v-0.58h-1.44c-0.35,0-0.63-0.28-0.63-0.63v-9.97C390.03,42.35,388.57,43.09,386.28,43.39z"/>
	</g>
	<g>
		<path class="st0" d="M389.5,45.3c0,0,2.47-2.95,4.87-2.95c2.39,0,3.62,1.51,3.62,3.64v6.37c0,0.3,0.24,0.55,0.55,0.55h1.34v0.64
			h-3.78c0,0,0-7.34,0-7.95c0-0.61-0.8-2.03-2.47-2.03c-1.68,0-3.19,1.31-3.86,2.22C389.1,46.68,389.5,45.3,389.5,45.3z"/>
	</g>
	<g>
		<path class="st0" d="M406.25,42.35c-5.1,0-5.32,5.43-5.32,6.04c0,0.6,0.26,5.42,5.04,5.42c0,0,3.43,0.14,4.61-2.09
			c-0.11,0.07-1.95,1.2-4.36,0.95c-2.48-0.24-3.23-3.4-3.23-4.92h7.98C410.97,47.75,411.82,42.35,406.25,42.35z M408.84,47.15h-5.92
			c0,0,0.28-4.05,3.26-4.05C409.16,43.1,408.84,47.15,408.84,47.15z"/>
	</g>
	<g>
		<path class="st0" d="M421.03,45.94h0.53l0.37-3.03c0,0-1.06-0.55-3.16-0.55c-2.1,0-5.82,1.62-5.82,5.6s2.23,5.86,4.49,5.86
			c2.26,0,3.72-0.43,4.49-1.92c0,0-1.09,1.04-3.72,0.8c-2.63-0.24-3.54-3.72-3.54-5.05c0-1.33,0.77-4.54,3.43-4.54
			c2.66,0,3.03,1.48,3.03,1.48L421.03,45.94z"/>
	</g>
	<g>
		<path class="st0" d="M425.04,39.7l1.95-1.06c0,0,0,11.77,0,12.34s0.39,1.42,0.89,1.42c0.5,0,1.21-0.11,2.02-0.35
			c0,0-0.92,1.78-2.43,1.78s-2.43-0.89-2.43-2.49C425.04,49.73,425.04,39.7,425.04,39.7z"/>
	</g>
	<g>
		<polygon class="st0" points="430.18,43.28 429.9,44.2 423.09,44.2 425.04,43.28 		"/>
	</g>
</g>
<g>
	<g>
		<path class="st0" d="M565.85,21.56c-0.33,0-0.62,0.23-0.68,0.56c-0.68,3.42-4.25,21.47-4.91,24.45c-0.73,3.29,1.55,6.02,4.65,6.02
			c3.1,0,5.61-0.37,5.61-2.83s-1.55-0.59-3.19-0.59s-3.06-0.68-2.65-3.51c0.36-2.49,3.81-19.29,4.62-23.26
			c0.09-0.43-0.24-0.84-0.69-0.84H565.85z"/>
	</g>
	<g>
		<path class="st0" d="M559.71,28.26l-0.57,2.6c-0.06,0.27,0.14,0.52,0.42,0.52h14.18c0.2,0,0.38-0.14,0.42-0.34l0.48-2.44
			c0.1-0.5-0.28-0.96-0.79-0.96h-13.35C560.11,27.63,559.79,27.89,559.71,28.26z"/>
	</g>
	<g>
		<g>
			<path class="st0" d="M482.78,21.4v3.87c0,0.37-0.3,0.67-0.67,0.67h-11.38v21.54h11.38c0.37,0,0.67,0.3,0.67,0.67v3.77
				c0,0.37-0.3,0.67-0.67,0.67h-16.24c-0.99,0-1.8-0.81-1.8-1.8V22.54c0-0.99,0.81-1.8,1.8-1.8h16.24
				C482.48,20.74,482.78,21.03,482.78,21.4z"/>
		</g>
		<g>
			<path class="st0" d="M485.56,21.4l10.03,29.92c0.25,0.75,0.96,1.26,1.76,1.26h5.66c0.79,0,1.49-0.5,1.75-1.24l10.46-29.94
				c0.11-0.33-0.13-0.67-0.48-0.67h-5.42c-0.53,0-1.01,0.35-1.17,0.85l-7.67,24.33l-7.85-24.34c-0.16-0.5-0.63-0.85-1.16-0.85h-5.43
				C485.69,20.74,485.45,21.07,485.56,21.4z"/>
		</g>
		<g>
			<path class="st0" d="M480.18,38.77h-11.71c-0.56,0-1.02-0.46-1.02-1.02v-3.33c0-0.56,0.46-1.02,1.02-1.02h11.71
				c0.56,0,1.02,0.46,1.02,1.02v3.33C481.2,38.32,480.74,38.77,480.18,38.77z"/>
		</g>
	</g>
	<g>
		<path class="st0" d="M607.6,16.26h3.03c0.46,0,0.8,0.42,0.71,0.86L604.45,52c-0.07,0.34-0.36,0.58-0.71,0.58h-3.35
			c-0.46,0-0.8-0.42-0.71-0.87l7.21-34.87C606.96,16.5,607.26,16.26,607.6,16.26z"/>
	</g>
	<g>
		<g>
			<path class="st0" d="M553.78,25.94c-1.54-2.57-3.62-4.79-6.07-6.49c-3.41-2.38-7.57-3.77-12.04-3.77
				c-11.66,0-21.11,9.46-21.11,21.12c0,2.14,0.32,4.21,0.92,6.16c1.78,5.85,6.03,10.62,11.54,13.1c2.34,1.06,4.9,1.69,7.6,1.82
				l-1.02-5.33c-0.99-0.13-1.96-0.35-2.88-0.65c-5.48-1.79-9.64-6.48-10.68-12.26c-0.17-0.92-0.26-1.87-0.26-2.83
				c0-8.78,7.11-15.89,15.89-15.89c2.71,0,5.26,0.68,7.49,1.87c3.03,1.62,5.48,4.2,6.93,7.33c0.95,2.03,1.48,4.3,1.48,6.69
				c0,4.16-1.6,7.94-4.21,10.77l2.65,4.72c4.17-3.85,6.78-9.37,6.78-15.49C556.77,32.82,555.68,29.11,553.78,25.94z"/>
		</g>
		<g>
			<path class="st0" d="M548.68,31.67c-1.33-3.39-3.96-6.15-7.27-7.64c-1.75-0.8-3.7-1.24-5.75-1.24c-7.73,0-13.99,6.27-13.99,13.99
				c0,0.53,0.03,1.06,0.09,1.57c0.65,5.79,4.84,10.51,10.35,11.95c0.36,0.1,0.73,0.18,1.11,0.25l-0.23-1.23l-0.6-3.12
				c-3.9-1.35-6.7-5.06-6.7-9.42c0-0.46,0.03-0.92,0.09-1.36c0.66-4.87,4.83-8.62,9.88-8.62c0.59,0,1.17,0.05,1.73,0.15
				c4.18,0.72,7.47,4.06,8.12,8.27c0.08,0.51,0.12,1.03,0.12,1.55c0,1.89-0.53,3.66-1.44,5.16l2.16,3.85
				c2.06-2.43,3.3-5.58,3.3-9.01C549.65,34.98,549.31,33.26,548.68,31.67z"/>
		</g>
		<g>
			<path class="st0" d="M543.58,36.79c0,0.22-0.01,0.44-0.03,0.65c-0.07,0.83-0.26,1.62-0.56,2.35l-0.59-1.06l-2.2-3.91h-0.01
				c-0.81-1.65-2.5-2.78-4.47-2.78c-2.76,0-4.99,2.23-4.99,4.99c0,0.36,0.04,0.71,0.11,1.04l1.08,5.69
				c-2.49-1.33-4.18-3.96-4.18-6.98c0-1.18,0.26-2.3,0.72-3.32c1.13-2.44,3.46-4.21,6.23-4.55c0.31-0.04,0.63-0.06,0.96-0.06
				C540.03,28.87,543.58,32.41,543.58,36.79z"/>
		</g>
	</g>
	<g>
		<path class="st0" d="M585.6,40.84c2.07,0,11.56-1.52,11.56-6.87s-4.38-6.63-7.91-6.63c-3.53,0-10.83,1.88-12.96,10.58
			c-2.13,8.7,0.24,14.67,6.75,14.67c6.51,0,10.34-2.13,10.34-3.71s-1.46-1.4-1.46-1.4s-3.4,1.76-6.94,1.76
			c-3.53,0-5.84-3.04-4.93-8.39C580.06,40.84,583.53,40.84,585.6,40.84z M588.7,30.62c5.17,0,4.26,4.44,2.74,5.35
			c-1.52,0.91-3.77,1.52-10.53,1.52C580.91,37.49,583.53,30.62,588.7,30.62z"/>
	</g>
</g>
<g>
	<g>
		<g>
			<path class="st0" d="M14.96,44.39L14.96,44.39c-0.6,0-1.08-0.48-1.08-1.08v-7.35c0-0.8-0.65-1.45-1.45-1.45H7.12
				c-0.8,0-1.45,0.65-1.45,1.45v7.35c0,0.6-0.48,1.08-1.08,1.08h0c-0.6,0-1.08-0.48-1.08-1.08v-7.35c0-2,1.62-3.62,3.62-3.62h5.31
				c2,0,3.62,1.62,3.62,3.62v7.35C16.04,43.91,15.55,44.39,14.96,44.39z"/>
		</g>
	</g>
	<g>
		<g>
			<path class="st0" d="M25.33,44.39L25.33,44.39c-0.6,0-1.08-0.48-1.08-1.08v-7.35c0-0.8-0.65-1.45-1.45-1.45h-5.31
				c-0.8,0-1.45,0.65-1.45,1.45v7.35c0,0.6-0.48,1.08-1.08,1.08h0c-0.6,0-1.08-0.48-1.08-1.08v-7.35c0-2,1.62-3.62,3.62-3.62h5.31
				c2,0,3.62,1.62,3.62,3.62v7.35C26.41,43.91,25.93,44.39,25.33,44.39z"/>
		</g>
	</g>
	<g>
		<g>
			<path class="st0" d="M41.63,44.52h-8.7c-2.39,0-4.33-1.94-4.33-4.33c0-2.39,1.94-4.33,4.33-4.33h10.87v-2.15
				c0-0.58-0.47-1.05-1.05-1.05h-5.74V30.5h5.74c1.77,0,3.21,1.44,3.21,3.21v6.48C45.96,42.58,44.02,44.52,41.63,44.52z
				 M32.93,38.03c-1.19,0-2.17,0.97-2.17,2.17s0.97,2.17,2.17,2.17h8.7c1.19,0,2.17-0.97,2.17-2.17v-2.17H32.93z"/>
		</g>
	</g>
	<g>
		<g>
			<path class="st0" d="M60.82,44.17h-8.47c-2.33,0-4.21-1.89-4.21-4.21V28.01c0-0.6,0.48-1.08,1.08-1.08h0
				c0.6,0,1.08,0.48,1.08,1.08v4.09h10.51c2.33,0,4.21,1.88,4.21,4.21v3.64C65.03,42.28,63.15,44.17,60.82,44.17z M50.31,34.27v5.68
				c0,1.13,0.92,2.04,2.04,2.04h8.47c1.13,0,2.04-0.92,2.04-2.04v-3.64c0-1.13-0.92-2.04-2.04-2.04H50.31z"/>
		</g>
	</g>
	<g>
		<g>
			<path class="st0" d="M78.89,44.17h-7.11c-2.59,0-4.7-2.11-4.7-4.7V36.8c0-2.59,2.11-4.7,4.7-4.7h7.11c2.59,0,4.7,2.11,4.7,4.7
				v2.67C83.59,42.06,81.48,44.17,78.89,44.17z M71.78,34.27c-1.4,0-2.53,1.14-2.53,2.53v2.67c0,1.4,1.14,2.53,2.53,2.53h7.11
				c1.4,0,2.53-1.14,2.53-2.53V36.8c0-1.4-1.14-2.53-2.53-2.53H71.78z"/>
		</g>
	</g>
	<g>
		<g>
			<path class="st0" d="M100.97,44.39L100.97,44.39c-0.6,0-1.08-0.48-1.08-1.08v-6.75c0-1.13-0.92-2.05-2.05-2.05h-7.91
				c-1.13,0-2.05,0.92-2.05,2.05v6.75c0,0.6-0.48,1.08-1.08,1.08h0c-0.6,0-1.08-0.48-1.08-1.08v-6.75c0-2.33,1.89-4.22,4.22-4.22
				h7.91c2.33,0,4.22,1.89,4.22,4.22v6.75C102.05,43.91,101.56,44.39,100.97,44.39z"/>
		</g>
	</g>
	<g>
		<g>
			<path class="st0" d="M138.22,44.39L138.22,44.39c-0.6,0-1.08-0.48-1.08-1.08v-6.75c0-1.13-0.92-2.05-2.05-2.05h-7.91
				c-1.13,0-2.05,0.92-2.05,2.05v6.75c0,0.6-0.48,1.08-1.08,1.08h0c-0.6,0-1.08-0.48-1.08-1.08v-6.75c0-2.33,1.89-4.22,4.22-4.22
				h7.91c2.33,0,4.22,1.89,4.22,4.22v6.75C139.3,43.91,138.82,44.39,138.22,44.39z"/>
		</g>
	</g>
	<g>
		<g>
			<path class="st0" d="M113.72,44.17h-5.6c-2.01,0-3.65-1.64-3.65-3.65v-4.26c0-2.16,1.76-3.92,3.92-3.92h8.39
				c2.16,0,3.92,1.76,3.92,3.92v1.17c0,1.22-0.99,2.21-2.21,2.21h-11.86v0.88c0,0.82,0.66,1.48,1.48,1.48h5.6V44.17z M106.64,37.47
				h11.86c0.02,0,0.04-0.02,0.04-0.04v-1.17c0-0.97-0.79-1.75-1.75-1.75h-8.39c-0.97,0-1.75,0.79-1.75,1.75V37.47z"/>
		</g>
	</g>
	<g>
		<g>
			<path class="st0" d="M154.41,49.89h-5.58v-2.17h5.58c0.5,0,0.91-0.41,0.91-0.91v-2.65h-9.54c-2.33,0-4.23-1.9-4.23-4.23v-3.37
				c0-2.33,1.9-4.23,4.23-4.23h7.48c2.33,0,4.23,1.9,4.23,4.23v10.24C157.48,48.51,156.1,49.89,154.41,49.89z M145.77,34.51
				c-1.14,0-2.06,0.92-2.06,2.06v3.37c0,1.14,0.92,2.06,2.06,2.06h9.54v-5.43c0-1.14-0.92-2.06-2.06-2.06H145.77z"/>
		</g>
	</g>
	<g>
		<g>
			<circle class="st0" cx="37.08" cy="31.59" r="1.53"/>
		</g>
	</g>
	<g>
		<g>
			<circle class="st0" cx="113.44" cy="43.08" r="1.53"/>
		</g>
	</g>
	<g>
		<g>
			<circle class="st0" cx="148.71" cy="48.81" r="1.53"/>
		</g>
	</g>
</g>
<g>
	<g>
		<path class="st0" d="M-320.17,574.79h5.78l-1.78,3.59c-0.6,1.49-1.7,2.85-3.58,3.93c-5.42,3.11-13.29,1.23-16.62-1.66v-6.86
			c0,0,4.12,5.27,9.9,5.27C-322.82,579.06-320.5,577.14-320.17,574.79z"/>
	</g>
	<g>
		<path class="st0" d="M-292.58,573.14v13.29l-13.8-27.81l-6.37,12.86h-8.26c-0.21-0.32-0.46-0.63-0.76-0.94
			c-3.54-3.68-8.76-5.64-11.92-8.45c-3.16-2.82-3.11-7.73-2.24-11.2c0.87-3.47,8.74-9.97,19.22-3.25v6.14c0,0-3.9-4.12-8.89-4.12
			c-4.99,0-6.07,2.89-6.07,5.2c0,2.31,3.47,4.7,6.5,6.36c2.43,1.33,6.3,3.54,8.11,6.38l10.68-22.27L-292.58,573.14z"/>
	</g>
	<g>
		<polygon class="st0" points="-292.58,553.85 -292.58,586.43 -264.26,570.14 -268.67,567.65 -288.75,579.71 -288.75,556.02 		"/>
	</g>
	<g>
		<polygon class="st0" points="-292.58,543.95 -292.58,548.43 -260.22,567 -256.39,564.97 		"/>
	</g>
	<g>
		<polygon class="st0" points="-242.01,559.92 -235.49,559.92 -247.07,583.61 -266.07,544.71 -259.57,544.71 -247.07,570.14 		"/>
	</g>
	<g>
		<polygon class="st0" points="-228.07,544.71 -233.97,556.81 -240.48,556.81 -234.5,544.71 		"/>
	</g>
	<g>
		<path class="st0" d="M-336,597.64l0.82-0.07c0.04,0.33,0.13,0.61,0.27,0.82s0.36,0.39,0.66,0.52c0.3,0.13,0.64,0.2,1.01,0.2
			c0.33,0,0.63-0.05,0.88-0.15c0.25-0.1,0.44-0.24,0.57-0.41c0.12-0.17,0.19-0.36,0.19-0.57c0-0.21-0.06-0.39-0.18-0.55
			c-0.12-0.16-0.32-0.29-0.59-0.39c-0.18-0.07-0.57-0.18-1.17-0.32c-0.6-0.15-1.03-0.29-1.27-0.42c-0.31-0.17-0.55-0.37-0.7-0.62
			c-0.15-0.25-0.23-0.52-0.23-0.83c0-0.34,0.09-0.65,0.28-0.94s0.46-0.51,0.83-0.67s0.77-0.23,1.21-0.23c0.49,0,0.92,0.08,1.29,0.24
			c0.37,0.16,0.66,0.39,0.86,0.7s0.31,0.66,0.32,1.05l-0.84,0.06c-0.04-0.42-0.2-0.74-0.46-0.95c-0.26-0.21-0.64-0.32-1.15-0.32
			c-0.53,0-0.91,0.1-1.15,0.29c-0.24,0.2-0.36,0.43-0.36,0.71c0,0.24,0.09,0.44,0.26,0.59c0.17,0.15,0.61,0.31,1.31,0.47
			s1.19,0.3,1.46,0.42c0.38,0.18,0.67,0.41,0.85,0.68s0.27,0.59,0.27,0.95c0,0.35-0.1,0.69-0.3,1c-0.2,0.31-0.49,0.56-0.86,0.73
			c-0.38,0.17-0.8,0.26-1.27,0.26c-0.6,0-1.1-0.09-1.5-0.26c-0.4-0.18-0.72-0.44-0.95-0.79S-335.99,598.08-336,597.64z"/>
		<path class="st0" d="M-329.79,599.78l2.53-6.65h0.94l2.69,6.65h-0.99l-0.77-2.01h-2.75l-0.72,2.01H-329.79z M-327.89,597.04h2.23
			l-0.69-1.84c-0.21-0.56-0.37-1.02-0.47-1.38c-0.08,0.43-0.2,0.85-0.35,1.27L-327.89,597.04z"/>
		<path class="st0" d="M-319.87,599.78v-6.65h2.27c0.51,0,0.9,0.03,1.17,0.1c0.38,0.09,0.7,0.25,0.97,0.48
			c0.35,0.3,0.61,0.68,0.78,1.14c0.17,0.46,0.26,0.99,0.26,1.58c0,0.51-0.06,0.95-0.18,1.34c-0.12,0.39-0.27,0.71-0.45,0.97
			c-0.18,0.26-0.38,0.46-0.6,0.6c-0.22,0.15-0.48,0.26-0.79,0.33c-0.31,0.08-0.66,0.11-1.06,0.11H-319.87z M-319,598.99h1.41
			c0.43,0,0.77-0.04,1.02-0.12c0.25-0.08,0.44-0.2,0.59-0.34c0.21-0.21,0.37-0.49,0.48-0.84s0.17-0.78,0.17-1.28
			c0-0.7-0.11-1.23-0.34-1.6c-0.23-0.37-0.5-0.62-0.82-0.75c-0.23-0.09-0.61-0.14-1.13-0.14H-319V598.99z"/>
		<path class="st0" d="M-312.57,599.78v-6.65h0.87v6.65H-312.57z"/>
		<path class="st0" d="M-306.58,597.17v-0.78l2.79,0v2.47c-0.43,0.34-0.87,0.6-1.33,0.78s-0.92,0.26-1.4,0.26
			c-0.65,0-1.23-0.14-1.76-0.42c-0.53-0.28-0.93-0.68-1.2-1.21c-0.27-0.53-0.4-1.12-0.4-1.77c0-0.65,0.13-1.25,0.4-1.81
			s0.65-0.98,1.16-1.25c0.5-0.27,1.08-0.41,1.74-0.41c0.48,0,0.91,0.08,1.29,0.23c0.38,0.16,0.69,0.37,0.9,0.65
			c0.22,0.28,0.38,0.64,0.5,1.09l-0.79,0.22c-0.1-0.34-0.22-0.61-0.37-0.8c-0.15-0.19-0.36-0.35-0.63-0.46
			c-0.27-0.12-0.58-0.17-0.91-0.17c-0.4,0-0.74,0.06-1.03,0.18c-0.29,0.12-0.52,0.28-0.7,0.48s-0.32,0.42-0.42,0.66
			c-0.17,0.41-0.25,0.86-0.25,1.34c0,0.59,0.1,1.09,0.3,1.49s0.5,0.7,0.88,0.89s0.8,0.29,1.23,0.29c0.38,0,0.75-0.07,1.1-0.22
			s0.63-0.3,0.82-0.47v-1.24H-306.58z"/>
		<path class="st0" d="M-301.85,599.78v-6.65h0.87v6.65H-301.85z"/>
		<path class="st0" d="M-297.26,599.78v-5.87h-2.17v-0.79h5.22v0.79h-2.18v5.87H-297.26z"/>
		<path class="st0" d="M-294.22,599.78l2.53-6.65h0.94l2.69,6.65h-0.99l-0.77-2.01h-2.75l-0.72,2.01H-294.22z M-292.32,597.04h2.23
			l-0.69-1.84c-0.21-0.56-0.37-1.02-0.47-1.38c-0.08,0.43-0.2,0.85-0.35,1.27L-292.32,597.04z"/>
		<path class="st0" d="M-286.89,599.78v-6.65h0.87v5.87h3.24v0.79H-286.89z"/>
		<path class="st0" d="M-276.63,599.78l-2.55-6.65h0.94l1.71,4.83c0.14,0.39,0.25,0.75,0.35,1.09c0.1-0.36,0.22-0.73,0.35-1.09
			l1.78-4.83h0.89l-2.58,6.65H-276.63z"/>
		<path class="st0" d="M-271.72,599.78v-6.65h0.87v6.65H-271.72z"/>
		<path class="st0" d="M-268.84,599.78v-6.65h0.87v5.87h3.24v0.79H-268.84z"/>
		<path class="st0" d="M-263.22,599.78v-6.65h0.87v5.87h3.24v0.79H-263.22z"/>
		<path class="st0" d="M-258.29,599.78l2.53-6.65h0.94l2.69,6.65h-0.99l-0.77-2.01h-2.75l-0.72,2.01H-258.29z M-256.39,597.04h2.23
			l-0.69-1.84c-0.21-0.56-0.37-1.02-0.47-1.38c-0.08,0.43-0.2,0.85-0.35,1.27L-256.39,597.04z"/>
		<path class="st0" d="M-247.84,597.17v-0.78l2.79,0v2.47c-0.43,0.34-0.87,0.6-1.33,0.78s-0.92,0.26-1.4,0.26
			c-0.65,0-1.23-0.14-1.76-0.42c-0.53-0.28-0.93-0.68-1.2-1.21c-0.27-0.53-0.4-1.12-0.4-1.77c0-0.65,0.13-1.25,0.4-1.81
			s0.65-0.98,1.16-1.25c0.5-0.27,1.08-0.41,1.74-0.41c0.48,0,0.91,0.08,1.29,0.23c0.38,0.16,0.69,0.37,0.9,0.65
			c0.22,0.28,0.38,0.64,0.5,1.09l-0.79,0.22c-0.1-0.34-0.22-0.61-0.37-0.8c-0.15-0.19-0.36-0.35-0.63-0.46
			c-0.27-0.12-0.58-0.17-0.91-0.17c-0.4,0-0.74,0.06-1.03,0.18c-0.29,0.12-0.52,0.28-0.7,0.48s-0.32,0.42-0.42,0.66
			c-0.17,0.41-0.25,0.86-0.25,1.34c0,0.59,0.1,1.09,0.3,1.49s0.5,0.7,0.88,0.89c0.39,0.19,0.8,0.29,1.23,0.29
			c0.38,0,0.75-0.07,1.1-0.22s0.63-0.3,0.82-0.47v-1.24H-247.84z"/>
		<path class="st0" d="M-243.25,599.78v-6.65h4.76v0.79h-3.89v2.04h3.64v0.78h-3.64v2.26h4.04v0.79H-243.25z"/>
		<path class="st0" d="M-236.92,597.64l0.82-0.07c0.04,0.33,0.13,0.61,0.27,0.82s0.36,0.39,0.66,0.52c0.3,0.13,0.64,0.2,1.01,0.2
			c0.33,0,0.63-0.05,0.88-0.15c0.25-0.1,0.44-0.24,0.57-0.41c0.12-0.17,0.19-0.36,0.19-0.57c0-0.21-0.06-0.39-0.18-0.55
			c-0.12-0.16-0.32-0.29-0.59-0.39c-0.18-0.07-0.57-0.18-1.17-0.32c-0.6-0.15-1.03-0.29-1.27-0.42c-0.31-0.17-0.55-0.37-0.7-0.62
			c-0.15-0.25-0.23-0.52-0.23-0.83c0-0.34,0.09-0.65,0.28-0.94s0.46-0.51,0.83-0.67s0.77-0.23,1.21-0.23c0.49,0,0.92,0.08,1.29,0.24
			c0.37,0.16,0.66,0.39,0.86,0.7s0.31,0.66,0.32,1.05l-0.84,0.06c-0.04-0.42-0.2-0.74-0.46-0.95c-0.26-0.21-0.64-0.32-1.15-0.32
			c-0.53,0-0.91,0.1-1.15,0.29c-0.24,0.2-0.36,0.43-0.36,0.71c0,0.24,0.09,0.44,0.26,0.59c0.17,0.15,0.61,0.31,1.31,0.47
			s1.19,0.3,1.46,0.42c0.38,0.18,0.67,0.41,0.85,0.68s0.27,0.59,0.27,0.95c0,0.35-0.1,0.69-0.3,1c-0.2,0.31-0.49,0.56-0.86,0.73
			c-0.38,0.17-0.8,0.26-1.27,0.26c-0.6,0-1.1-0.09-1.5-0.26c-0.4-0.18-0.72-0.44-0.95-0.79S-236.91,598.08-236.92,597.64z"/>
	</g>
</g>
<g>
	<g>
		<rect x="79.74" y="570.63" class="st0" width="1.51" height="1.57"/>
		<rect x="79.74" y="572.84" class="st0" width="1.51" height="1.57"/>
		<rect x="81.91" y="570.63" class="st0" width="1.51" height="1.57"/>
		<rect x="81.91" y="572.84" class="st0" width="1.51" height="1.57"/>
		<path class="st0" d="M68.72,558.53L49.25,569.4v3.12l0.3-0.16v-0.24l13.17-7.1l12.77,6.71v8.57h-0.34v0.38h11.86v-12.84
			L68.72,558.53z M84.08,569.99v5.06h-5.04v-5.06H84.08z"/>
	</g>
	<g>
		<rect x="69.43" y="573.83" class="st0" width="0.89" height="0.93"/>
		<rect x="69.43" y="575.14" class="st0" width="0.89" height="0.93"/>
		<rect x="70.71" y="573.83" class="st0" width="0.9" height="0.93"/>
		<rect x="70.71" y="575.14" class="st0" width="0.9" height="0.93"/>
		<path class="st0" d="M74.72,580.3v-8.1l-11.99-6.3L49.55,573v-0.64l-0.3,0.16v3.52l0.3-0.16l7.61-4.08l7.14,4v4.88h10.85v-0.38
			H74.72z M69.01,573.45H72v3h-2.99V573.45z"/>
	</g>
	<g>
		<g>
			<polygon class="st0" points="87.44,567.56 87.44,581.07 56.43,581.07 56.43,579.41 57.2,579.41 57.2,580.3 86.67,580.3 
				86.67,568.03 68.94,558.92 49.55,569.68 49.55,581.07 -82.5,581.07 -82.5,580.3 48.77,580.3 48.77,569.23 68.93,558.05 
				69.11,558.14 			"/>
		</g>
	</g>
	<g>
		<g>
			<polygon class="st0" points="49.25,572.28 49.55,572.12 49.55,573 49.34,573.11 49.25,572.94 48.98,572.43 			"/>
			<rect x="74.72" y="580.3" class="st0" width="0.77" height="0.38"/>
		</g>
	</g>
	<g>
		<g>
			<polygon class="st0" points="64.64,575.35 64.64,580.68 63.87,580.68 63.87,580.3 64.3,580.3 64.3,575.8 57.16,571.8 
				49.55,575.88 49.55,576.36 49.35,576.47 48.98,575.79 49.25,575.64 49.55,575.48 57.02,571.4 			"/>
		</g>
	</g>
	<g>
		<g>
			<path class="st0" d="M55.72,577.94c-0.08,0-0.17-0.04-0.22-0.11c-0.1-0.12-0.08-0.31,0.04-0.41c0.49-0.41,1.72-0.93,2.81,0
				c0.12,0.1,0.14,0.29,0.03,0.41c-0.1,0.12-0.29,0.14-0.41,0.03c-1-0.85-2.03-0.03-2.07,0C55.85,577.92,55.78,577.94,55.72,577.94z
				"/>
		</g>
	</g>
	<g>
		<g>
			<path class="st0" d="M58.96,577.05c-0.06,0-0.12-0.02-0.17-0.06c-1.88-1.36-3.61-0.06-3.69-0.01c-0.13,0.1-0.31,0.07-0.41-0.05
				c-0.1-0.13-0.08-0.31,0.05-0.41c0.02-0.02,2.14-1.63,4.38-0.01c0.13,0.09,0.16,0.28,0.06,0.4
				C59.14,577.01,59.05,577.05,58.96,577.05z"/>
		</g>
	</g>
	<g>
		<g>
			<path class="st0" d="M59.9,576.08c-0.06,0-0.12-0.02-0.17-0.05c-2.76-1.94-5.47-0.08-5.58,0c-0.13,0.09-0.31,0.06-0.4-0.07
				c-0.09-0.13-0.06-0.31,0.07-0.4c0.03-0.02,3.15-2.18,6.25,0c0.13,0.09,0.16,0.27,0.07,0.4C60.08,576.03,59.99,576.08,59.9,576.08
				z"/>
		</g>
	</g>
	<g>
		<g>
			<circle class="st0" cx="56.94" cy="578.52" r="0.47"/>
		</g>
	</g>
	<g>
		<rect x="-82.17" y="563.33" class="st0" width="2.38" height="12.4"/>
	</g>
	<g>
		<path class="st0" d="M-80.08,567.14c0,0,1.51-2.15,3.64-2.15s2.32,2.32,2.32,3.23c0,0.91,0,7.51,0,7.51h2.34c0,0,0-7.74,0-8.4
			c0-0.66-0.57-4.3-3.93-4.3s-4.72,3.06-4.72,3.06L-80.08,567.14z"/>
	</g>
	<g>
		<path class="st0" d="M-57.69,569.73h-2.25c0,0,0-0.89,0-1.38s-0.36-3.25-3-3.25c-2.64,0-3.49,2.62-3.49,3.98
			c0,1.36,0.64,4.74,4.15,4.74c3.51,0,4.42-1.51,4.42-1.51v2.34c0,0-1.72,1.38-4.68,1.38s-6.27-2.13-6.27-6.27s2.38-6.72,5.98-6.72
			S-57.34,566.94-57.69,569.73z"/>
	</g>
	<g>
		<rect x="-67.47" y="568.18" class="st0" width="8.46" height="1.55"/>
	</g>
	<g>
		<path class="st0" d="M-51.99,560.82v2.51h3.96v2.13h-3.96c0,0,0,6.38,0,6.72s0.04,1.66,1.53,1.66c1.49,0,3-0.77,3-0.77v2.13
			c0,0-1,0.83-2.98,0.83s-3.96-1.59-3.96-3.25s0-7.29,0-7.29h-2.23L-51.99,560.82z"/>
	</g>
	<g>
		<path class="st0" d="M-37.17,563.61v2.81c0,0-1.91-1.4-3.98-1.4s-1.85,1.32-1.45,1.62c0.4,0.3,3.13,1.11,4.53,2.33
			s1.51,2.41,1.51,3.52s-1.08,3.55-5.04,3.55s-4.66-1-4.66-1v-2.68c0,0,2.23,1.13,3.98,1.13c1.74,0,2.15-0.72,2.15-1.02
			s-0.17-1.04-2.57-1.81s-3.81-2.17-3.81-3.83s1.64-4.15,4.98-4.15S-37.17,563.61-37.17,563.61z"/>
	</g>
	<g>
		<polygon class="st0" points="-30,558.95 -35.3,564.99 -35.3,565.67 -24.82,565.67 -24.82,562.99 -29.44,562.99 -29.44,558.95 		
			"/>
	</g>
	<g>
		<path class="st0" d="M-33.38,565.31c0,0,0,6.15,0,6.74c0,0.6,0.8,3.98,3.94,3.98c3.14,0,4.63-0.74,4.63-0.74v-2.85
			c0,0-1.25,0.74-2.68,0.74c-1.42,0-1.95-1.02-1.95-1.83s0-6.17,0-6.17L-33.38,565.31z"/>
	</g>
	<g>
		<rect x="-22.54" y="562.99" class="st0" width="4.06" height="12.78"/>
	</g>
	<g>
		<path class="st0" d="M-18.93,571.22c0,0,1.74-4.83,3.66-4.83s2.36,1.02,2.36,1.02l1.15-3.55c0,0-1.15-1.19-2.74-1.19
			s-3.47,2.19-4.53,6.1l-1.02,1.38L-18.93,571.22z"/>
	</g>
	<g>
		<path class="st0" d="M2.02,570.01h-3.4c0,0,0-1.89,0-2.11s-0.11-2.91-2.89-2.91s-3.04,2.83-3.04,4.89c0,2.06,1.76,3.91,3.78,3.91
			s3.61-0.6,5.29-1.85v2.42c0,0-1.98,1.66-5.91,1.66s-7.21-2.59-7.21-6.8s3.49-6.55,6.89-6.55S2.02,564.99,2.02,570.01z"/>
	</g>
	<g>
		<rect x="-9.28" y="567.84" class="st0" width="8.93" height="2.17"/>
	</g>
	<g>
		<path class="st0" d="M4.65,564.29v3.13c0,0,2.28-2.08,4.7-2.08s2.32,1.68,2.32,3.08s0,5.38,0,5.87s0.47,1.74,2.15,1.74
			s2.64-0.47,3.89-1.21v-2.13c0,0-0.45,0.79-1.32,0.79c-0.87,0-0.83-0.74-0.83-1.21c0-0.47,0-5.95,0-6.34s-0.55-3.25-4.66-3.25
			S4.65,564.29,4.65,564.29z"/>
	</g>
	<g>
		<path class="st0" d="M12.31,567.33c0,0-3.91,1.4-5.23,1.83c-1.32,0.43-3.08,1.53-3.08,3.44c0,1.91,1.3,3.42,3.59,3.42
			s4.21-1.42,5.4-2.47s0-1.34,0-1.34s-2.51,1.62-3.57,1.62s-1.47-0.91-1.47-1.76s1.28-1.81,5.25-3.27
			C17.18,567.33,12.31,567.33,12.31,567.33z"/>
	</g>
	<g>
		<rect x="19.56" y="562.97" class="st0" width="4.1" height="12.86"/>
	</g>
	<g>
		<path class="st0" d="M23.17,565.2c0,0,2.28-2.53,5.06-2.53s4.61,2.74,4.61,2.74s2.17-2.74,5.19-2.74c3.02,0,4.76,2.59,4.76,4.53
			s0,8.63,0,8.63h-4c0,0,0-7.7,0-8.19s-0.11-2.34-2.38-2.34s-3.32,2.38-3.32,2.38v8.14h-3.89c0,0,0-7.8,0-8.25s-0.51-2.32-2.25-2.32
			c-1.74,0-3.3,1.19-4.02,3.42c-0.72,2.23-0.21-3.02-0.21-3.02L23.17,565.2z"/>
	</g>
</g>
<g>
	<g>
		<g>
			<line class="st0" x1="221.84" y1="573.19" x2="217.93" y2="581.28"/>
		</g>
		<g>
			<path class="st0" d="M217.93,583.54c-0.33,0-0.66-0.08-0.97-0.25c-1.04-0.57-1.44-1.94-0.9-3.05l3.9-8.09
				c0.54-1.11,1.81-1.54,2.84-0.97c1.04,0.57,1.44,1.94,0.9,3.05l-3.9,8.09C219.43,583.09,218.69,583.54,217.93,583.54z"/>
		</g>
	</g>
	<g>
		<g>
			<line class="st0" x1="233.23" y1="573.19" x2="225.63" y2="588.94"/>
		</g>
		<g>
			<path class="st0" d="M225.63,591.21c-0.33,0-0.66-0.08-0.97-0.25c-1.03-0.57-1.44-1.94-0.9-3.05l7.6-15.76
				c0.54-1.11,1.81-1.54,2.84-0.97c1.03,0.57,1.44,1.94,0.9,3.05l-7.6,15.76C227.13,590.76,226.39,591.21,225.63,591.21z"/>
		</g>
	</g>
	<g>
		<g>
			<line class="st0" x1="244.63" y1="573.19" x2="233.06" y2="597.16"/>
		</g>
		<g>
			<path class="st0" d="M233.06,599.42c-0.33,0-0.66-0.08-0.97-0.25c-1.03-0.57-1.44-1.94-0.9-3.05l11.57-23.97
				c0.54-1.11,1.81-1.54,2.84-0.97c1.03,0.57,1.44,1.94,0.9,3.05l-11.57,23.97C234.56,598.98,233.82,599.42,233.06,599.42z"/>
		</g>
	</g>
	<g>
		<g>
			<line class="st0" x1="256.02" y1="573.19" x2="239.77" y2="606.87"/>
		</g>
		<g>
			<path class="st0" d="M239.77,609.13c-0.33,0-0.66-0.08-0.97-0.25c-1.03-0.57-1.44-1.94-0.9-3.05l16.25-33.68
				c0.54-1.11,1.81-1.54,2.84-0.97c1.03,0.57,1.44,1.94,0.9,3.05l-16.25,33.68C241.27,608.68,240.53,609.13,239.77,609.13z"/>
		</g>
	</g>
	<g>
		<g>
			<line class="st0" x1="267.42" y1="573.19" x2="251.17" y2="606.87"/>
		</g>
		<g>
			<path class="st0" d="M251.17,609.13c-0.33,0-0.66-0.08-0.97-0.25c-1.03-0.57-1.44-1.94-0.9-3.05l16.25-33.68
				c0.54-1.11,1.81-1.54,2.84-0.97c1.03,0.57,1.44,1.94,0.9,3.05l-16.25,33.68C252.67,608.68,251.93,609.13,251.17,609.13z"/>
		</g>
	</g>
	<g>
		<g>
			<line class="st0" x1="278.82" y1="573.19" x2="267.17" y2="597.32"/>
		</g>
		<g>
			<path class="st0" d="M267.17,599.58c-0.33,0-0.66-0.08-0.97-0.25c-1.04-0.57-1.44-1.94-0.9-3.05l11.65-24.13
				c0.54-1.11,1.81-1.54,2.84-0.97c1.04,0.57,1.44,1.94,0.9,3.05l-11.65,24.13C268.67,599.14,267.93,599.58,267.17,599.58z"/>
		</g>
	</g>
	<g>
		<g>
			<line class="st0" x1="290.21" y1="573.19" x2="282.82" y2="588.51"/>
		</g>
		<g>
			<path class="st0" d="M282.82,590.78c-0.33,0-0.66-0.08-0.97-0.25c-1.03-0.57-1.44-1.94-0.9-3.05l7.39-15.32
				c0.54-1.11,1.81-1.54,2.84-0.97c1.03,0.57,1.44,1.94,0.9,3.05l-7.4,15.32C284.32,590.33,283.58,590.78,282.82,590.78z"/>
		</g>
	</g>
	<g>
		<g>
			<path class="st0" d="M296.16,583.54c-0.33,0-0.66-0.08-0.97-0.25c-1.04-0.57-1.44-1.94-0.9-3.05l4.49-9.31h40.91
				c1.17,0,2.11,1.01,2.11,2.26c0,1.25-0.94,2.26-2.11,2.26h-38.34l-3.31,6.86C297.66,583.09,296.92,583.54,296.16,583.54z"/>
		</g>
	</g>
	<g>
		<path class="st0" d="M238.32,546.06c-2.71-0.02-7.74,1.45-10.45,6.6c-2.71,5.15-3.17,6.64-3.37,7.18
			c-0.2,0.54-2.52,7.59,3.99,7.59s9.55-2.77,11.5-6.6c1.28-2.53,2.98-6.47,3.37-7.55C243.74,552.2,245.99,546.1,238.32,546.06z
			 M239.15,552.93c-0.44,1.19-2.68,6.67-3.77,8.38c-1.08,1.71-3.1,2.41-5.37,2.41c-2.27,0-1.55-3.13-1.24-3.88
			c0.31-0.75,2.25-5.17,3.54-7.58c1.29-2.41,3.33-2.56,4.62-2.57C239.59,549.67,239.59,551.74,239.15,552.93z"/>
	</g>
	<g>
		<path class="st0" d="M298.62,546.06c-2.71-0.02-7.74,1.45-10.45,6.6c-2.71,5.15-3.17,6.64-3.37,7.18
			c-0.2,0.54-2.52,7.59,3.99,7.59s9.55-2.77,11.5-6.6c1.28-2.53,2.98-6.47,3.37-7.55C304.04,552.2,306.29,546.1,298.62,546.06z
			 M299.44,552.93c-0.44,1.19-2.68,6.67-3.77,8.38c-1.08,1.71-3.1,2.41-5.37,2.41c-2.27,0-1.55-3.13-1.24-3.88
			c0.31-0.75,2.25-5.17,3.54-7.58c1.29-2.41,3.33-2.56,4.62-2.57C299.89,549.67,299.89,551.74,299.44,552.93z"/>
	</g>
	<g>
		<path class="st0" d="M265.19,552.95h-4.22c0,0,0.93-3.28-1.9-3.28s-4.84,1.41-6.74,5.6s-1.9,4.19-1.9,4.19s-1.66,4.44,1.16,4.44
			c2.83,0,4.14-0.62,5.61-2.95h4.22c0,0-3.54,6.47-10.27,6.47c-6.73,0-6.23-4.44-5.3-7.01c0.93-2.57,3.06-6.97,3.87-8.47
			s4.22-5.56,9.02-5.89C263.57,545.73,266.55,547.72,265.19,552.95z"/>
	</g>
	<g>
		<polygon class="st0" points="271.31,546.27 269.68,550.04 285.2,550.04 287.11,546.27 		"/>
	</g>
	<g>
		<polygon class="st0" points="275.67,549.17 267.67,567.43 271.93,567.43 280.1,548.76 		"/>
	</g>
	<g>
		<path class="st0" d="M321.75,547.77L321.75,547.77c-0.18,0.42-0.58,0.7-1.02,0.7h-9.75c-0.79,0-1.33-0.85-1.04-1.64l0,0
			c0.17-0.46,0.58-0.76,1.04-0.76h9.75C321.55,546.06,322.1,546.97,321.75,547.77z"/>
	</g>
	<g>
		<path class="st0" d="M314.25,547.76l-5.74,17.04c-0.26,0.78,0.28,1.6,1.05,1.6l0,0c0.47,0,0.89-0.31,1.04-0.78l6.05-17.85H314.25z
			"/>
	</g>
	<g>
		<path class="st0" d="M335.34,547.44c0.21-0.68-0.26-1.38-0.93-1.38h-7.85c-0.39,0-1.78,0-2.83,2.95
			c-1.05,2.95-4.53,12.78-4.76,13.57c-0.23,0.79-1.2,3.4,1.39,3.4h7.91c0.47,0,0.89-0.34,1.01-0.83l0,0
			c0.18-0.72-0.32-1.43-1.01-1.43h-7.06l5.27-15.57h7.93C334.83,548.15,335.21,547.87,335.34,547.44L335.34,547.44z"/>
	</g>
	<g>
		<path class="st0" d="M323.66,554.52h7.14c0.82,0,1.4,0.87,1.12,1.71l0,0c-0.17,0.51-0.62,0.85-1.12,0.85h-8.14L323.66,554.52z"/>
	</g>
	<g>
		<path class="st0" d="M339.7,545.73L339.7,545.73c-0.52,0-0.99,0.35-1.16,0.87l-5.91,17.49c-0.31,0.92,0.32,1.89,1.23,1.89h8.34
			c0.48,0,0.9-0.35,1.02-0.85l0,0c0.17-0.71-0.33-1.41-1.02-1.41h-6.81l5.47-16.22C341.16,546.64,340.56,545.73,339.7,545.73z"/>
	</g>
</g>
<g>
	<g>
		<g>
			<path class="st0" d="M494.46,584.96c-0.81,0-1.47-0.66-1.47-1.47v-15.54c0-2.65,2.16-4.81,4.81-4.81h5.56
				c3.13,0,5.68,2.55,5.68,5.68v0.49c0,3.13-2.55,5.68-5.68,5.68h-7.43v8.5C495.93,584.3,495.27,584.96,494.46,584.96z
				 M495.93,572.06h7.43c1.52,0,2.75-1.23,2.75-2.75v-0.49c0-1.52-1.23-2.75-2.75-2.75h-5.56c-1.03,0-1.88,0.84-1.88,1.88V572.06z"
				/>
		</g>
	</g>
	<g>
		<g>
			<path class="st0" d="M508.55,584.68c-0.54,0-1.06-0.3-1.32-0.82l-4.78-9.69c-0.36-0.73-0.06-1.61,0.67-1.96
				c0.73-0.36,1.61-0.06,1.96,0.67l4.78,9.69c0.36,0.73,0.06,1.61-0.67,1.96C508.99,584.63,508.77,584.68,508.55,584.68z"/>
		</g>
	</g>
	<g>
		<g>
			<path class="st0" d="M524.46,584.36h-10.87c-0.81,0-1.47-0.66-1.47-1.47s0.66-1.47,1.47-1.47h10.87c1.03,0,1.88-0.84,1.88-1.88
				v-2.68c0-1.03-0.84-1.88-1.88-1.88h-7c-2.94,0-5.34-2.39-5.34-5.34v-1.56c0-2.94,2.39-5.34,5.34-5.34h9.11
				c0.81,0,1.47,0.66,1.47,1.47s-0.66,1.47-1.47,1.47h-9.11c-1.33,0-2.4,1.08-2.4,2.4v1.56c0,1.33,1.08,2.4,2.4,2.4h7
				c2.65,0,4.81,2.16,4.81,4.81v2.68C529.27,582.2,527.11,584.36,524.46,584.36z"/>
		</g>
	</g>
	<g>
		<g>
			<path class="st0" d="M531.97,584.68c-0.2,0-0.4-0.04-0.6-0.13c-0.74-0.33-1.07-1.2-0.74-1.94l8.68-19.45
				c0.23-0.52,0.75-0.86,1.33-0.87c0.58,0,1.1,0.33,1.34,0.85l9.04,19.45c0.34,0.73,0.02,1.61-0.71,1.95
				c-0.73,0.34-1.61,0.02-1.95-0.71l-7.69-16.53l-7.37,16.51C533.07,584.36,532.53,584.68,531.97,584.68z"/>
		</g>
	</g>
	<g>
		<g>
			<path class="st0" d="M558.75,584.68c-0.6,0-1.14-0.36-1.36-0.92l-7.87-19.45c-0.3-0.75,0.06-1.61,0.81-1.91
				c0.75-0.3,1.61,0.06,1.91,0.81l6.37,15.74l4.88-14.81c0.2-0.6,0.75-1,1.38-1.01c0,0,0.01,0,0.01,0c0.63,0,1.18,0.4,1.39,0.99
				l5.05,14.69l5.69-15.56c0.28-0.76,1.12-1.15,1.88-0.87c0.76,0.28,1.15,1.12,0.87,1.88l-7.11,19.45
				c-0.21,0.58-0.77,0.96-1.39,0.96c-0.62-0.01-1.17-0.4-1.37-0.99l-4.98-14.49l-4.77,14.47c-0.19,0.58-0.73,0.99-1.35,1.01
				C558.78,584.68,558.76,584.68,558.75,584.68z"/>
		</g>
	</g>
	<g>
		<g>
			<path class="st0" d="M596.02,574.99h-10.46c-2.45,0-4.44-1.99-4.44-4.44v-2.66c0-2.83,2.3-5.13,5.13-5.13h9.77
				c0.81,0,1.47,0.66,1.47,1.47s-0.66,1.47-1.47,1.47h-9.77c-1.21,0-2.2,0.99-2.2,2.2v2.66c0,0.83,0.68,1.51,1.51,1.51h10.46
				c0.81,0,1.47,0.66,1.47,1.47C597.49,574.33,596.83,574.99,596.02,574.99z"/>
		</g>
	</g>
	<g>
		<g>
			<path class="st0" d="M596.02,584.26h-9.77c-2.83,0-5.13-2.3-5.13-5.13v-2.4c0-2.59,2.11-4.7,4.7-4.7h10.21
				c0.81,0,1.47,0.66,1.47,1.47s-0.66,1.47-1.47,1.47h-10.21c-0.97,0-1.77,0.79-1.77,1.77v2.4c0,1.21,0.99,2.2,2.2,2.2h9.77
				c0.81,0,1.47,0.66,1.47,1.47S596.83,584.26,596.02,584.26z"/>
		</g>
	</g>
	<g>
		<g>
			<path class="st0" d="M611.14,584.26h-9.24c-0.81,0-1.47-0.66-1.47-1.47V567.5c0-2.62,2.13-4.75,4.75-4.75h5.25
				c3.37,0,6.12,2.74,6.12,6.12c0,1.69-0.69,3.22-1.81,4.32c1.53,1.11,2.52,2.92,2.52,4.95
				C617.26,581.52,614.52,584.26,611.14,584.26z M603.37,581.33h7.77c1.76,0,3.18-1.43,3.18-3.18c0-1.76-1.43-3.18-3.18-3.18h-7.77
				V581.33z M603.37,572.03h7.09c1.74,0,3.15-1.41,3.15-3.15c0-1.76-1.43-3.18-3.18-3.18h-5.25c-1,0-1.81,0.81-1.81,1.81V572.03z"/>
		</g>
	</g>
	<g>
		<g>
			<path class="st0" d="M546.42,577.62h-11.29c-0.81,0-1.47-0.66-1.47-1.47s0.66-1.47,1.47-1.47h11.29c0.81,0,1.47,0.66,1.47,1.47
				S547.23,577.62,546.42,577.62z"/>
		</g>
	</g>
	<g>
		<path class="st0" d="M548.12,583.3c1.34,2.94,6.04,9.53,13.89,10.16c0,0-6.05-0.26-11.43-11.84l-1.16,0.75L548.12,583.3z"/>
	</g>
	<g>
		<path class="st0" d="M552.24,563.22c-1.23-3.05-7.87-8.58-13.88-8.77c0,0,8.25,2.69,11.3,10.24c3.05,7.55,3.23,4.38,3.23,4.38
			L552.24,563.22z"/>
	</g>
	<g>
		<path class="st0" d="M560.46,602.79c-8.34,0-15.77-6.46-17.36-7.95h-53c-4.34,0-7.87-3.53-7.87-7.87v-26.76
			c0-4.34,3.53-7.87,7.87-7.87h36.78c1.01-2.63,4.53-7.46,12.55-7.46c7.75,0,15.61,6.13,17.23,7.46H619c4.34,0,7.87,3.53,7.87,7.87
			v26.76c0,4.34-3.53,7.87-7.87,7.87h-45.99c-0.22,1.23-0.89,2.78-2.28,4.23C569.1,600.77,565.99,602.79,560.46,602.79z
			 M490.1,554.34c-3.24,0-5.87,2.63-5.87,5.87v26.76c0,3.24,2.63,5.87,5.87,5.87h53.81l0.29,0.29c0.08,0.08,7.86,7.66,16.25,7.66
			c4.83,0,7.47-1.69,8.83-3.11c1.3-1.35,1.84-2.88,1.8-3.8l-0.04-1.04H619c3.24,0,5.87-2.63,5.87-5.87v-26.76
			c0-3.24-2.63-5.87-5.87-5.87h-63.08l-0.28-0.24c-0.08-0.07-8.45-7.22-16.21-7.22c-7.59,0-10.41,4.83-10.85,6.69l-0.18,0.77H490.1z
			"/>
	</g>
	<g>
		<g>
			<path class="st0" d="M627.8,557.27c-1.25,0-2.28-1.02-2.28-2.28s1.02-2.28,2.28-2.28s2.28,1.02,2.28,2.28
				S629.06,557.27,627.8,557.27z M627.8,553.72c-0.7,0-1.28,0.57-1.28,1.28s0.57,1.28,1.28,1.28s1.28-0.57,1.28-1.28
				S628.51,553.72,627.8,553.72z"/>
		</g>
		<g>
			<g>
				<path class="st0" d="M627.37,555.14v0.89h-0.3v-2.06h0.82c0.43,0,0.66,0.23,0.66,0.55c0,0.27-0.15,0.43-0.34,0.48
					c0.16,0.04,0.3,0.17,0.3,0.52v0.09c0,0.14-0.01,0.32,0.03,0.4h-0.29c-0.04-0.09-0.04-0.25-0.04-0.45v-0.04
					c0-0.28-0.08-0.4-0.44-0.4H627.37z M627.37,554.88h0.43c0.3,0,0.43-0.11,0.43-0.33c0-0.21-0.14-0.33-0.4-0.33h-0.46V554.88z"/>
			</g>
		</g>
	</g>
</g>
</svg>
