<?xml version="1.0" encoding="utf-8"?>
<!-- Generator: Adobe Illustrator 24.0.1, SVG Export Plug-In . SVG Version: 6.00 Build 0)  -->
<svg version="1.1" id="Layer_1" xmlns="http://www.w3.org/2000/svg" xmlns:xlink="http://www.w3.org/1999/xlink" x="0px" y="0px"
	 viewBox="0 0 170.18 27.62" style="enable-background:new 0 0 170.18 27.62;" xml:space="preserve">
<style type="text/css">
	.st0{fill:#F7F8F8;}
	.st1{fill:#1CA3DD;}
	.st2{fill:#F37235;}
	.st3{fill:#FFC429;}
	.st4{fill:#312B2C;}
	.st5{fill:#DA1F27;}
	.st6{fill:#088ACB;}
	.st7{fill:#FFFFFF;}
	.st8{fill:none;}
	.st9{fill:#046992;}
	.st10{fill:none;stroke:#046992;stroke-width:0.0486;stroke-miterlimit:3.8636;}
	.st11{fill-rule:evenodd;clip-rule:evenodd;fill:#FFFFFF;}
	.st12{fill-rule:evenodd;clip-rule:evenodd;fill:#EF4135;}
	.st13{fill-rule:evenodd;clip-rule:evenodd;fill:#FFC429;}
	.st14{fill:#737274;}
	.st15{fill:#02AADC;}
	.st16{fill:#727274;}
	.st17{fill:#45205B;}
	.st18{fill:#7C2D81;}
	.st19{fill:#B32D38;}
	.st20{fill:#CB6C38;}
	.st21{fill:#DC8C38;}
	.st22{fill:#658E3F;}
	.st23{fill:#027097;}
	.st24{fill:#047299;}
	.st25{fill:#F07225;}
	.st26{fill:#EA2C34;}
	.st27{fill:#DE1380;}
	.st28{fill:#B62B3A;}
	.st29{fill:#E29033;}
	.st30{fill:#F8B52E;}
	.st31{fill:#53B348;}
	.st32{fill:#00A8BD;}
	.st33{fill:#55B247;}
	.st34{fill:#E9282A;}
	.st35{fill:#E61788;}
	.st36{fill:#5D6EB2;}
</style>
<path class="st0" d="M705.58,870.92H595.37c-26.37,0-47.75-21.38-47.75-47.75V704.6c0-26.37,21.38-47.75,47.75-47.75h110.21
	c26.37,0,47.75,21.38,47.75,47.75v118.57C753.33,849.54,731.95,870.92,705.58,870.92z"/>
<path class="st1" d="M706.51,1103.94H596.3c-26.37,0-47.75-21.38-47.75-47.75V937.62c0-26.37,21.38-47.75,47.75-47.75h110.21
	c26.37,0,47.75,21.38,47.75,47.75v118.57C754.25,1082.56,732.88,1103.94,706.51,1103.94z"/>
<path class="st2" d="M-189.75,1103.94h-110.21c-26.37,0-47.75-21.38-47.75-47.75V937.62c0-26.37,21.38-47.75,47.75-47.75h110.21
	c26.37,0,47.75,21.38,47.75,47.75v118.57C-142,1082.56-163.38,1103.94-189.75,1103.94z"/>
<path class="st3" d="M256.43,1103.94H146.22c-26.37,0-47.75-21.38-47.75-47.75V937.62c0-26.37,21.38-47.75,47.75-47.75h110.21
	c26.37,0,47.75,21.38,47.75,47.75v118.57C304.18,1082.56,282.8,1103.94,256.43,1103.94z"/>
<path class="st4" d="M34.15,1103.94H-76.05c-26.37,0-47.75-21.38-47.75-47.75V937.62c0-26.37,21.38-47.75,47.75-47.75H34.15
	c26.37,0,47.75,21.38,47.75,47.75v118.57C81.9,1082.56,60.52,1103.94,34.15,1103.94z"/>
<path class="st5" d="M482.71,1103.94H372.5c-26.37,0-47.75-21.38-47.75-47.75V937.62c0-26.37,21.38-47.75,47.75-47.75h110.21
	c26.37,0,47.75,21.38,47.75,47.75v118.57C530.45,1082.56,509.08,1103.94,482.71,1103.94z"/>
<g>
	<path class="st6" d="M-84.91,978.15c-3.59,0-6.5,2.91-6.5,6.5c0,3.59,2.91,6.5,6.5,6.5c3.59,0,6.5-2.91,6.5-6.5
		C-78.4,981.06-81.32,978.15-84.91,978.15z M-84.91,987.25c-1.44,0-2.6-1.16-2.6-2.6s1.16-2.6,2.6-2.6c1.44,0,2.6,1.16,2.6,2.6
		S-83.47,987.25-84.91,987.25z"/>
	<path class="st6" d="M-43.28,978.15c-3.59,0-6.5,2.91-6.5,6.5c0,3.59,2.91,6.5,6.5,6.5c3.59,0,6.5-2.91,6.5-6.5
		C-36.77,981.06-39.69,978.15-43.28,978.15z M-43.28,987.25c-1.44,0-2.6-1.16-2.6-2.6s1.16-2.6,2.6-2.6s2.6,1.16,2.6,2.6
		S-41.84,987.25-43.28,987.25z"/>
	<path class="st6" d="M-64.09,1014.57c-3.59,0-6.5,2.91-6.5,6.5c0,3.59,2.91,6.5,6.5,6.5c3.59,0,6.5-2.91,6.5-6.5
		C-57.59,1017.48-60.5,1014.57-64.09,1014.57z M-64.09,1023.68c-1.44,0-2.6-1.16-2.6-2.6s1.16-2.6,2.6-2.6c1.44,0,2.6,1.16,2.6,2.6
		S-62.66,1023.68-64.09,1023.68z"/>
	<path class="st6" d="M-64.09,990.1c-4,0-7.24,3.24-7.24,7.24c0,4,3.24,7.24,7.24,7.24s7.24-3.24,7.24-7.24
		C-56.86,993.34-60.1,990.1-64.09,990.1z M-64.09,1000.23c-1.6,0-2.89-1.3-2.89-2.89c0-1.6,1.3-2.89,2.89-2.89
		c1.6,0,2.89,1.3,2.89,2.89C-61.2,998.94-62.49,1000.23-64.09,1000.23z"/>
	<path class="st7" d="M-60.92,1006.21v6.63c-1-0.4-2.1-0.62-3.25-0.62c-1.03,0-2.01,0.18-2.93,0.5v-6.51
		c0.97,0.31,2.01,0.48,3.09,0.48C-62.93,1006.69-61.9,1006.52-60.92,1006.21z"/>
	<path class="st7" d="M-48.52,991.19l-5.78,3.95c-0.45-2.1-1.6-3.94-3.22-5.29l5.82-3.98C-51.33,988.02-50.16,989.9-48.52,991.19z"
		/>
	<path class="st7" d="M-70.55,989.88c-1.6,1.35-2.75,3.2-3.19,5.29l-5.86-3.68c1.65-1.28,2.82-3.14,3.23-5.27L-70.55,989.88z"/>
	<path class="st7" d="M-49.03,978.07c-1.47,1.35-2.47,3.22-2.72,5.31l-11.86-6.55c-0.25-0.14-0.56-0.14-0.8,0.01l-11.84,6.86
		c-0.22-2.21-1.26-4.17-2.8-5.59l14.57-7.75c0.3-0.16,0.65-0.16,0.94,0L-49.03,978.07z"/>
	<path class="st7" d="M-69.93,1014.37c-1.55,1.34-2.62,3.21-2.93,5.34l-14.34-8.07c-0.45-0.25-0.72-0.72-0.72-1.23v-17.57
		c0.91,0.33,1.9,0.5,2.93,0.5s2.01-0.18,2.93-0.5v14.6c0,0.33,0.18,0.63,0.47,0.78L-69.93,1014.37z"/>
	<path class="st7" d="M-40.27,992.52v17.74c0,0.5-0.27,0.97-0.71,1.22l-14.5,8.33c-0.27-2.03-1.24-3.84-2.65-5.18l11.59-6.58
		c0.25-0.14,0.41-0.41,0.41-0.7v-14.84c0.91,0.33,1.9,0.51,2.93,0.51S-41.18,992.85-40.27,992.52z"/>
	<path class="st8" d="M-79.6,991.5c-0.74,0.58-1.57,1.04-2.47,1.35"/>
	<path class="st8" d="M-76.25,983.69c0.03,0.29,0.05,0.58,0.05,0.88c0,0.57-0.06,1.12-0.16,1.66"/>
	<rect x="-5.8" y="987.66" class="st7" width="4.89" height="24.72"/>
	<rect x="-27.59" y="978.07" class="st7" width="4.89" height="34.31"/>
	<rect x="-5.64" y="979.04" class="st7" width="4.89" height="5.2"/>
	<path class="st7" d="M-22.7,978.07c0,0,2.09,0,3.42,0c1.32,0,9.42,0.23,9.42,7.96s-5.87,8.06-5.87,8.06h-7.23v-1.36
		c0,0,3.01,0,4.37,0s4.51-1.49,4.51-5.47s-2.4-5.61-4.98-5.61s-4.55,0-4.55,0L-22.7,978.07z"/>
	<path class="st7" d="M-22.7,1012.38c0,0,2.77,0,4.56,0c1.79,0,8.92-0.93,8.92-9.91c0-8.99-8.34-8.81-8.34-8.81h-6.3l0.97,2.65
		c0,0,1.9,0,2.97,0c1.07,0,5.76,0.32,5.76,6.37c0,6.05-5.26,6.16-6.16,6.16c-0.9,0-3.12,0-3.12,0L-22.7,1012.38z"/>
	<path class="st7" d="M4.85,979.23h4.8c0,0,0,27.25,0,27.75s0.68,2.51,3.72,1.54v4.12c0,0-2.86,0-4.69,0s-3.83-1.72-3.83-5.73
		C4.85,1002.89,4.85,979.23,4.85,979.23z"/>
	<rect x="2.34" y="987.86" class="st7" width="11.03" height="3.54"/>
	<path class="st7" d="M34.71,988.97h-4.91v-3.6c0-2.06-1.67-3.73-3.73-3.73h-0.07c-2.85,0-5.15,2.31-5.15,5.15v16.92
		c0,2.85,2.31,5.15,5.15,5.15h0c2.06,0,3.73-1.67,3.73-3.73v-4.9h4.98v3.58c0,4.86-3.94,8.81-8.81,8.81h-1.23
		c-4.68,0-8.47-3.79-8.47-8.47v-18.29c0-4.68,3.79-8.47,8.47-8.47h1.23c4.86,0,8.81,3.94,8.81,8.81V988.97z"/>
	<path class="st7" d="M45.33,987.36h-1.36c-3.65,0-6.61,2.96-6.61,6.61v12.32c0,3.65,2.96,6.61,6.61,6.61h1.36
		c3.65,0,6.61-2.96,6.61-6.61v-12.32C51.93,990.31,48.98,987.36,45.33,987.36z M46.99,1006.56c0,1.22-0.99,2.21-2.21,2.21h-0.09
		c-1.22,0-2.21-0.99-2.21-2.21v-12.95c0-1.22,0.99-2.21,2.21-2.21h0.09c1.22,0,2.21,0.99,2.21,2.21V1006.56z"/>
</g>
<g>
	<path class="st9" d="M135.78,999.32c0-13.64,28.35-24.7,63.32-24.7c34.97,0,63.31,11.06,63.31,24.7c0,13.64-28.35,24.7-63.31,24.7
		C164.13,1024.01,135.78,1012.96,135.78,999.32z"/>
	<path class="st10" d="M135.78,999.32c0-13.64,28.35-24.7,63.32-24.7c34.97,0,63.31,11.06,63.31,24.7c0,13.64-28.35,24.7-63.31,24.7
		C164.13,1024.01,135.78,1012.96,135.78,999.32z"/>
	<polygon class="st11" points="158.98,1011.32 165.55,986.79 175.93,986.79 175.93,1001.22 175.99,1001.22 183.03,986.79 
		193.57,986.79 187,1011.32 180.15,1011.32 184.36,995.59 184.29,995.59 175.93,1011.32 170.44,1011.32 170.44,995.59 
		170.33,995.59 166.12,1011.32 	"/>
	<polygon class="st12" points="195.42,1011.81 196.35,1008.32 203.91,1008.32 202.98,1011.81 	"/>
	<polygon class="st13" points="196.61,1007.34 200.44,993.08 193.57,993.08 195.25,986.79 216.55,986.79 214.87,993.08 208,993.08 
		204.18,1007.34 	"/>
	<polygon class="st11" points="211.67,1011.32 218.24,986.79 225.66,986.79 229.01,999.92 229.07,999.92 232.59,986.79 
		239.45,986.79 232.88,1011.32 225.82,1011.32 222.18,997.93 222.12,997.93 218.53,1011.32 	"/>
</g>
<g>
	<g>
		<path class="st7" d="M483.67,1032.99v-8.06c0-3.59-2.52-5.74-6.85-5.74c-1.48,0-2.78,0.42-3.53,0.87
			c-4.66-1.97-8.17-0.68-9.92,0.39v12.54h3.74v-10.39c0,0,0.35-0.34,1.39-0.34c2.07,0,3.11,1.04,3.11,3.07v7.65h3.64v-8.96
			c0-0.75-0.24-1.27-0.21-1.29c0.06-0.03,0.87-0.48,1.73-0.48c2.07,0,3.11,1.04,3.11,3.07v7.65H483.67z M461.48,1026.26
			c0-4.02-2.7-7.05-7.05-7.05c-4.31,0-7.01,3.03-7.01,7.05c0,5.33,4.18,7.05,7.01,7.05
			C459.82,1033.31,461.48,1029.08,461.48,1026.26 M457.53,1026.29c0,2.54-1.33,3.95-3.1,3.95c-1.78,0-3.11-1.4-3.11-3.95
			c0-2.19,1.02-4.01,3.11-4.01C456.51,1022.28,457.53,1024.11,457.53,1026.29 M438.71,1026.19c0-3.4,2.6-3.83,3.4-3.83
			c2.03,0,3.34,0.85,3.34,0.85l0.84-3.09c-0.26-0.12-2.01-0.9-4.13-0.9c-5.62,0-7.21,4.55-7.22,7.1c0,3.78,2.75,7,7.57,7
			c1.94,0,4.05-1.03,4.05-1.03l-1.02-2.82c0,0-1.78,0.73-2.96,0.73C440.22,1030.19,438.71,1028.68,438.71,1026.19 M429.77,1032.98
			h3.29v-12.71c-1.28-0.51-3.54-1.06-5.77-1.06c-4.49,0-7.63,3.1-7.63,7.34c0,5.18,3.85,6.76,6.25,6.76c1.75,0,2.85-0.63,3.62-1.5
			L429.77,1032.98z M429.33,1028.85c-0.44,0.74-1.42,1.39-2.67,1.39c-1.46,0-3.1-1.04-3.1-3.83c0-2.63,1.86-4.02,3.65-4.02
			c0.91,0,1.72,0.14,2.12,0.25V1028.85z M412.27,1033.31c2.27,0,4.13-0.26,5.73-0.59v-18.66h-3.69v5.66
			c-0.62-0.25-1.75-0.51-2.92-0.51c-4.05,0-6.75,3.03-6.75,6.97C404.64,1032.33,409.49,1033.31,412.27,1033.31 M412.34,1030.21
			c-1.8,0-3.8-1.01-3.8-4.02c0-2.19,1.13-3.9,3.14-3.9c1.13,0,2.05,0.29,2.63,0.62v7.16
			C413.81,1030.17,413.07,1030.21,412.34,1030.21 M403.1,1026.26c0-4.02-2.7-7.05-7.05-7.05c-4.31,0-7.01,3.03-7.01,7.05
			c0,5.33,4.18,7.05,7.01,7.05C401.45,1033.31,403.1,1029.08,403.1,1026.26 M399.16,1026.29c0,2.54-1.32,3.95-3.1,3.95
			c-1.78,0-3.11-1.4-3.11-3.95c0-2.19,1.02-4.01,3.11-4.01C398.13,1022.28,399.16,1024.11,399.16,1026.29 M383.55,1032.98
			l5.44-13.44h-4.16l-3.21,8.77l-3.32-8.77h-4.35l5.66,13.44H383.55z"/>
	</g>
	<path class="st7" d="M454.76,982.65c0,14.33-11.62,25.95-25.95,25.95s-25.95-11.62-25.95-25.95s11.62-25.95,25.95-25.95
		c3.21,0,6.28,0.58,9.11,1.64c-0.22,0.01-0.45,0.03-0.69,0.04c-0.34,0.03-0.7,0.07-1.08,0.12c-0.89,0.12-1.84,0.3-2.82,0.54
		c-0.15,0.04-1.25,0.33-1.4,0.38c-0.74,0.22-1.49,0.48-2.24,0.76c-2.75,1.06-5.3,2.52-7.47,4.38c-3.69,3.12-6.5,7.44-7.68,12.23
		c-0.32,1.27-0.51,2.58-0.59,3.91c0,0.02-0.01,0.25-0.01,0.28c-0.01,0.09-0.02,0.7-0.02,0.79c0,0.68,0.03,1.35,0.11,2.02
		c0.1,0.91,0.26,1.81,0.5,2.68c0.01,0.04,0.08,0.32,0.09,0.36c0.45,1.56,1.11,3.03,1.97,4.36c0.57,0.9,1.23,1.72,1.97,2.47
		c1.86,1.89,4.16,3.27,6.66,3.99c0.76,0.22,1.54,0.38,2.31,0.48c0.5,0.06,1.02,0.1,1.53,0.1c1.37,0.02,2.74-0.16,4.06-0.52
		c1.88-0.52,3.62-1.4,5.14-2.6c0.43-0.34,0.85-0.71,1.25-1.1c1.06-1.06,1.94-2.27,2.61-3.59c1.03-2.01,1.57-4.27,1.57-6.56
		c0-0.06-0.01-0.48-0.01-0.53c-0.05-1.38-0.26-2.7-0.63-3.92c-0.38-1.25-0.92-2.4-1.62-3.44c-0.02-0.04-0.2-0.29-0.22-0.32
		c-0.97-1.35-2.22-2.51-3.73-3.44c-1.62-1-3.53-1.75-5.73-2.22c-0.01-0.04-0.27-0.13-0.27-0.16c0-0.07-0.03-0.49-0.02-0.55
		c0-0.03-0.01-0.23-0.01-0.26c0.22-4.4,2.7-8.31,6.57-10.21c0.04-0.03,0.09-0.05,0.14-0.07c0.13-0.06,0.24-0.11,0.33-0.16
		C448.02,962.4,454.76,971.73,454.76,982.65z"/>
</g>
<g>
	<path class="st7" d="M-203.13,967.23c-17.45,0-31.59,14.14-31.59,31.59c0,17.45,14.14,31.59,31.59,31.59s31.59-14.14,31.59-31.59
		C-171.54,981.37-185.69,967.23-203.13,967.23z M-203.28,1024.51c-14.11,0-25.54-11.44-25.54-25.54c0-14.11,11.44-25.55,25.54-25.55
		c14.11,0,25.55,11.44,25.55,25.55C-177.74,1013.08-189.17,1024.51-203.28,1024.51z"/>
	<path class="st7" d="M-194.28,1004.16c-1.79,2.86-4.98,4.76-8.62,4.76c-5.6,0-10.15-4.52-10.15-10.09
		c0-5.57,4.54-10.09,10.15-10.09c3.66,0,6.87,1.93,8.66,4.82l4.98-3.95c-3.01-4.29-8.05-7.1-13.77-7.1c-9.22,0-16.7,7.31-16.7,16.33
		c0,9.02,7.47,16.33,16.7,16.33c5.95,0,11.17-3.04,14.13-7.62L-194.28,1004.16z"/>
	<path class="st7" d="M-294.39,1004.16c-1.79,2.86-4.98,4.76-8.62,4.76c-5.6,0-10.15-4.52-10.15-10.09
		c0-5.57,4.54-10.09,10.15-10.09c3.66,0,6.87,1.93,8.66,4.82l4.98-3.95c-3.01-4.29-8.05-7.1-13.77-7.1c-9.22,0-16.7,7.31-16.7,16.33
		c0,9.02,7.47,16.33,16.7,16.33c5.95,0,11.17-3.04,14.13-7.62L-294.39,1004.16z"/>
	<rect x="-259.14" y="981.88" class="st7" width="5.49" height="32.66"/>
	<rect x="-246.93" y="981.88" class="st7" width="5.49" height="32.66"/>
	<path class="st7" d="M-263.72,1004.77c0-0.1,0-0.2,0-0.31c0-6.07-4.92-10.99-10.99-10.99c-6.07,0-10.99,4.92-10.99,10.99
		s4.92,10.99,10.99,10.99c4.2,0,7.85-2.36,9.7-5.82l-4.88-2.33c-0.97,1.68-2.7,2.8-4.66,2.8c-3.03,0-5.49-2.66-5.49-5.95
		s2.46-5.95,5.49-5.95s5.49,2.66,5.49,5.95c0,0.21-0.01,0.41-0.03,0.61H-263.72z"/>
	<path class="st7" d="M-263.72,1005.68h-17.4v-3.97h13.43C-265.49,1001.72-263.72,1003.49-263.72,1005.68L-263.72,1005.68z"/>
</g>
<g>
	<g>
		<circle class="st14" cx="580.23" cy="759.79" r="1.49"/>
		<circle class="st14" cx="576.1" cy="766.91" r="1.49"/>
		<circle class="st14" cx="588.45" cy="766.91" r="1.49"/>
		<circle class="st14" cx="582.26" cy="756.24" r="1.49"/>
		<circle class="st14" cx="574.06" cy="770.47" r="1.49"/>
		<circle class="st14" cx="578.28" cy="770.47" r="1.49"/>
		<circle class="st14" cx="586.41" cy="770.47" r="1.49"/>
		<circle class="st14" cx="590.56" cy="770.47" r="1.49"/>
		<circle class="st14" cx="580.23" cy="752.6" r="1.49"/>
		<circle class="st14" cx="584.3" cy="752.6" r="1.49"/>
		<g>
			<circle class="st15" cx="576.16" cy="752.6" r="1.49"/>
			<circle class="st15" cx="574.06" cy="756.24" r="1.49"/>
			<circle class="st15" cx="572.06" cy="759.79" r="1.49"/>
			<circle class="st15" cx="569.99" cy="763.35" r="1.49"/>
			<circle class="st15" cx="574.11" cy="763.35" r="1.49"/>
			<circle class="st15" cx="578.23" cy="763.35" r="1.49"/>
			<circle class="st15" cx="582.36" cy="763.35" r="1.49"/>
			<circle class="st15" cx="586.48" cy="763.35" r="1.49"/>
			<circle class="st15" cx="590.61" cy="763.35" r="1.49"/>
			<circle class="st15" cx="594.73" cy="763.35" r="1.49"/>
			<circle class="st15" cx="576.1" cy="759.79" r="1.49"/>
			<circle class="st15" cx="584.3" cy="759.79" r="1.49"/>
			<circle class="st15" cx="588.45" cy="759.79" r="1.49"/>
			<circle class="st15" cx="592.64" cy="759.79" r="1.49"/>
			<circle class="st15" cx="572.06" cy="766.91" r="1.49"/>
			<circle class="st15" cx="580.23" cy="766.91" r="1.49"/>
			<circle class="st15" cx="584.3" cy="766.91" r="1.49"/>
			<circle class="st15" cx="592.64" cy="766.91" r="1.49"/>
			<circle class="st15" cx="578.28" cy="756.24" r="1.49"/>
			<circle class="st15" cx="586.41" cy="756.24" r="1.49"/>
			<circle class="st15" cx="590.56" cy="756.24" r="1.49"/>
			<circle class="st15" cx="582.26" cy="770.47" r="1.49"/>
			<circle class="st15" cx="588.37" cy="752.6" r="1.49"/>
		</g>
		<circle class="st14" cx="576.16" cy="774.02" r="1.49"/>
		<circle class="st14" cx="580.23" cy="774.02" r="1.49"/>
		<circle class="st14" cx="584.3" cy="774.02" r="1.49"/>
		<circle class="st14" cx="588.37" cy="774.02" r="1.49"/>
	</g>
	<polygon class="st16" points="601.73,772.11 603.45,772.11 603.45,756.66 610.1,771.95 611.54,771.95 618.02,756.66 618.02,772.11 
		619.83,772.11 619.83,754.75 617.18,754.75 610.78,769.79 604.25,754.75 601.73,754.75 	"/>
	<polygon class="st16" points="632.33,754.75 632.33,756.39 624.67,756.39 624.67,770.73 632.33,770.73 632.33,772.24 
		622.96,772.24 622.96,754.75 	"/>
	<rect x="624.3" y="762.8" class="st16" width="7.63" height="1.34"/>
	<rect x="633.97" y="754.75" class="st16" width="9.75" height="1.64"/>
	<rect x="637.94" y="756.05" class="st16" width="1.71" height="16.05"/>
	<path class="st16" d="M647.17,772.11h-1.65v-17.36c0,0,4.77,0,5.84,0s5.91,0.43,5.91,5.4c0,4.97-5.09,5.31-5.09,5.31l4.82,6.65
		h-2.08l-5.81-7.96c0,0,1.85,0,2.72,0c0.87,0,3.93-0.67,3.93-3.59c0-2.92-2.08-4.33-4.03-4.33s-4.63,0-4.63,0L647.17,772.11z"/>
	<path class="st16" d="M668.06,754.48c-5.12,0-9.27,4.04-9.27,9.03c0,4.99,4.15,9.04,9.27,9.04c5.12,0,9.27-4.04,9.27-9.04
		C677.33,758.52,673.18,754.48,668.06,754.48z M668.01,771.21c-4.25,0-7.7-3.45-7.7-7.7c0-4.25,3.45-7.7,7.7-7.7
		c4.26,0,7.7,3.45,7.7,7.7C675.71,767.76,672.27,771.21,668.01,771.21z"/>
	<rect x="679.65" y="754.48" class="st16" width="9.1" height="2.99"/>
	<rect x="679.65" y="754.48" class="st16" width="3.26" height="17.63"/>
	<rect x="684.2" y="762.03" class="st16" width="4.55" height="3.12"/>
	<rect x="691.2" y="754.48" class="st16" width="3.43" height="17.63"/>
	<polygon class="st16" points="734.69,757.6 734.69,754.48 728.47,754.48 725.05,754.48 725.05,772.11 728.47,772.11 734.69,772.11 
		734.69,769.12 728.47,769.12 728.47,757.6 	"/>
	<rect x="729.65" y="762.03" class="st16" width="4.77" height="3.12"/>
	<path class="st16" d="M706.16,762.79c0,0,2.07-0.66,2.07-4.11s-3.63-4.21-4.73-4.21h-5.64v17.63h6.17c1.13,0,5.21-0.96,5.21-4.84
		C709.23,763.39,706.16,762.79,706.16,762.79z M701.27,757.68h1.84c1.17,0,2.12,0.95,2.12,2.11c0,0.58-0.24,1.11-0.62,1.5
		c-0.38,0.38-0.92,0.62-1.5,0.62h-1.84V757.68z M706.06,767.03c0,1.35-1.1,2.45-2.45,2.45h-2.33v-4.99h2.33
		c1.35,0,2.45,1.1,2.45,2.45V767.03z"/>
	<path class="st16" d="M723.29,759.79c0-4.76-4.51-5.31-5.21-5.31h-6.59v17.63h3.43v-6.67l4.68,6.67h3.53l-4.54-6.5
		C718.58,765.61,723.29,764.55,723.29,759.79z M714.91,763.29v-5.62h2.45c1.55,0,2.81,1.26,2.81,2.81c0,0.77-0.31,1.48-0.82,1.99
		c-0.51,0.51-1.21,0.82-1.99,0.82H714.91z"/>
</g>
<g>
	<g>
		<circle class="st14" cx="13.52" cy="10.29" r="1.49"/>
		<circle class="st14" cx="9.39" cy="17.4" r="1.49"/>
		<circle class="st14" cx="21.74" cy="17.4" r="1.49"/>
		<circle class="st14" cx="15.55" cy="6.73" r="1.49"/>
		<circle class="st14" cx="7.35" cy="20.96" r="1.49"/>
		<circle class="st14" cx="11.57" cy="20.96" r="1.49"/>
		<circle class="st14" cx="19.7" cy="20.96" r="1.49"/>
		<circle class="st14" cx="23.86" cy="20.96" r="1.49"/>
		<circle class="st14" cx="13.52" cy="3.1" r="1.49"/>
		<circle class="st14" cx="17.59" cy="3.1" r="1.49"/>
		<g>
			<circle class="st15" cx="9.45" cy="3.1" r="1.49"/>
			<circle class="st15" cx="7.35" cy="6.73" r="1.49"/>
			<circle class="st15" cx="5.35" cy="10.29" r="1.49"/>
			<circle class="st15" cx="3.28" cy="13.85" r="1.49"/>
			<circle class="st15" cx="7.4" cy="13.85" r="1.49"/>
			<circle class="st15" cx="11.53" cy="13.85" r="1.49"/>
			<circle class="st15" cx="15.65" cy="13.85" r="1.49"/>
			<circle class="st15" cx="19.77" cy="13.85" r="1.49"/>
			<circle class="st15" cx="23.9" cy="13.85" r="1.49"/>
			<circle class="st15" cx="28.02" cy="13.85" r="1.49"/>
			<circle class="st15" cx="9.39" cy="10.29" r="1.49"/>
			<circle class="st15" cx="17.59" cy="10.29" r="1.49"/>
			<circle class="st15" cx="21.74" cy="10.29" r="1.49"/>
			<circle class="st15" cx="25.93" cy="10.29" r="1.49"/>
			<circle class="st15" cx="5.35" cy="17.4" r="1.49"/>
			<circle class="st15" cx="13.52" cy="17.4" r="1.49"/>
			<circle class="st15" cx="17.59" cy="17.4" r="1.49"/>
			<circle class="st15" cx="25.93" cy="17.4" r="1.49"/>
			<circle class="st15" cx="11.57" cy="6.73" r="1.49"/>
			<circle class="st15" cx="19.7" cy="6.73" r="1.49"/>
			<circle class="st15" cx="23.86" cy="6.73" r="1.49"/>
			<circle class="st15" cx="15.55" cy="20.96" r="1.49"/>
			<circle class="st15" cx="21.66" cy="3.1" r="1.49"/>
		</g>
		<circle class="st14" cx="9.45" cy="24.52" r="1.49"/>
		<circle class="st14" cx="13.52" cy="24.52" r="1.49"/>
		<circle class="st14" cx="17.59" cy="24.52" r="1.49"/>
		<circle class="st14" cx="21.66" cy="24.52" r="1.49"/>
	</g>
	<polygon class="st16" points="35.02,22.6 36.74,22.6 36.74,7.15 43.39,22.45 44.83,22.45 51.31,7.15 51.31,22.6 53.13,22.6 
		53.13,5.25 50.47,5.25 44.08,20.29 37.54,5.25 35.02,5.25 	"/>
	<polygon class="st16" points="65.62,5.25 65.62,6.89 57.96,6.89 57.96,21.23 65.62,21.23 65.62,22.74 56.25,22.74 56.25,5.25 	"/>
	<rect x="57.59" y="13.3" class="st16" width="7.63" height="1.34"/>
	<rect x="67.26" y="5.25" class="st16" width="9.75" height="1.64"/>
	<rect x="71.23" y="6.55" class="st16" width="1.71" height="16.05"/>
	<path class="st16" d="M80.46,22.6h-1.65V5.25c0,0,4.77,0,5.84,0c1.07,0,5.91,0.43,5.91,5.4s-5.09,5.31-5.09,5.31l4.82,6.65h-2.08
		l-5.81-7.96c0,0,1.85,0,2.72,0c0.87,0,3.93-0.67,3.93-3.59s-2.08-4.33-4.03-4.33s-4.63,0-4.63,0L80.46,22.6z"/>
	<path class="st16" d="M101.35,4.97c-5.12,0-9.27,4.04-9.27,9.03c0,4.99,4.15,9.04,9.27,9.04c5.12,0,9.27-4.04,9.27-9.04
		C110.62,9.02,106.47,4.97,101.35,4.97z M101.3,21.71c-4.25,0-7.7-3.45-7.7-7.7c0-4.25,3.45-7.7,7.7-7.7c4.26,0,7.7,3.45,7.7,7.7
		C109,18.26,105.56,21.71,101.3,21.71z"/>
	<rect x="112.94" y="4.97" class="st16" width="9.1" height="2.99"/>
	<rect x="112.94" y="4.97" class="st16" width="3.26" height="17.63"/>
	<rect x="117.49" y="12.53" class="st16" width="4.55" height="3.12"/>
	<rect x="124.49" y="4.97" class="st16" width="3.43" height="17.63"/>
	<polygon class="st16" points="167.98,8.1 167.98,4.97 161.76,4.97 158.34,4.97 158.34,22.6 161.76,22.6 167.98,22.6 167.98,19.61 
		161.76,19.61 161.76,8.1 	"/>
	<rect x="162.94" y="12.53" class="st16" width="4.77" height="3.12"/>
	<path class="st16" d="M139.45,13.28c0,0,2.07-0.66,2.07-4.11s-3.63-4.21-4.73-4.21h-5.64V22.6h6.17c1.13,0,5.21-0.96,5.21-4.84
		C142.52,13.89,139.45,13.28,139.45,13.28z M134.56,8.17h1.84c1.17,0,2.12,0.95,2.12,2.11c0,0.58-0.24,1.11-0.62,1.5
		c-0.38,0.38-0.92,0.62-1.5,0.62h-1.84V8.17z M139.35,17.53c0,1.35-1.1,2.45-2.45,2.45h-2.33V15h2.33c1.35,0,2.45,1.1,2.45,2.45
		V17.53z"/>
	<path class="st16" d="M156.58,10.29c0-4.76-4.51-5.31-5.21-5.31h-6.59V22.6h3.43v-6.67l4.68,6.67h3.53l-4.54-6.5
		C151.87,16.1,156.58,15.05,156.58,10.29z M148.2,13.79V8.17h2.45c1.55,0,2.81,1.26,2.81,2.81c0,0.77-0.31,1.48-0.82,1.99
		c-0.51,0.51-1.21,0.82-1.99,0.82H148.2z"/>
</g>
<g>
	<path class="st17" d="M638.84,993.76l-9.25,8.04c1.46,1.6,3.08,3.05,4.83,4.35l7.38-9.78C640.72,995.6,639.74,994.72,638.84,993.76
		z"/>
	<path class="st18" d="M634.16,985.95l-11.79,3.4c0.63,1.96,1.42,3.84,2.38,5.63l10.78-5.81
		C634.99,988.15,634.52,987.07,634.16,985.95z"/>
	<path class="st19" d="M633.33,975.66l-11.99-2.55c-0.36,1.97-0.55,3.98-0.55,6.05c0,0.27,0,0.55,0.01,0.81l12.24-0.31
		c-0.01-0.17-0.01-0.34-0.01-0.51C633.03,977.96,633.13,976.79,633.33,975.66z"/>
	<path class="st20" d="M626.45,960.49c-1.1,1.65-2.06,3.39-2.85,5.21l11.3,4.74c0.47-1.04,1.01-2.05,1.64-2.99L626.45,960.49z"/>
	<path class="st21" d="M636.6,950.67c-1.63,1.01-3.16,2.15-4.58,3.43l8.29,9.03c0.81-0.72,1.69-1.38,2.61-1.97L636.6,950.67z"/>
	<path class="st22" d="M651.05,945.74c-2.21,0.22-4.36,0.66-6.42,1.28l3.72,11.67c1.2-0.36,2.45-0.61,3.73-0.74L651.05,945.74z"/>
	<path class="st23" d="M659.24,945.94l-1.6,12.14c1.21,0.18,2.38,0.47,3.51,0.84l4.16-11.51
		C663.37,946.73,661.33,946.24,659.24,945.94z"/>
	<path class="st24" d="M672.42,950.85l-6.36,10.47c0.98,0.65,1.91,1.37,2.77,2.17l8.39-8.93
		C675.74,953.2,674.13,951.95,672.42,950.85z"/>
	<path class="st22" d="M682.41,960.7l-10.07,7c0.66,1.01,1.22,2.1,1.69,3.22l11.41-4.46C684.62,964.44,683.59,962.51,682.41,960.7z"
		/>
	<path class="st25" d="M675.62,980.7c-0.09,1.27-0.29,2.51-0.61,3.71l11.87,3.06c0.53-2.07,0.86-4.22,0.99-6.42L675.62,980.7z"/>
	<path class="st26" d="M672.84,989.77c-0.52,0.92-1.11,1.8-1.78,2.62l9.55,7.68c1.16-1.46,2.2-3.01,3.11-4.65L672.84,989.77z"/>
	<path class="st27" d="M666.87,996.41c-0.91,0.67-1.88,1.26-2.9,1.78l5.37,11c1.8-0.89,3.5-1.95,5.09-3.13L666.87,996.41z"/>
	<path class="st28" d="M670.42,993.15c-0.82,0.96-1.75,1.86-2.75,2.65l7.55,9.64c1.74-1.38,3.34-2.93,4.77-4.62L670.42,993.15z"/>
	<path class="st20" d="M674.76,985.38c-0.38,1.23-0.85,2.4-1.44,3.52l10.86,5.64c1.01-1.94,1.83-3.97,2.44-6.11L674.76,985.38z"/>
	<path class="st29" d="M687.59,974.38l-12.08,2.09c0.12,0.88,0.18,1.78,0.18,2.69c0,0.19,0,0.38-0.02,0.56l12.25,0.35
		c0.01-0.3,0.01-0.61,0.01-0.9C687.92,977.53,687.8,975.94,687.59,974.38z"/>
	<path class="st30" d="M685.81,967.39l-11.41,4.46c0.43,1.16,0.75,2.38,0.95,3.64l12.07-2.09
		C687.08,971.33,686.52,969.31,685.81,967.39z"/>
	<path class="st31" d="M677.94,955.26l-8.4,8.93c0.82,0.83,1.58,1.73,2.24,2.69l10.06-7C680.69,958.23,679.38,956.68,677.94,955.26z
		"/>
	<path class="st32" d="M666.25,947.76l-4.17,11.52c1.1,0.42,2.15,0.93,3.15,1.53l6.36-10.47
		C669.89,949.33,668.11,948.45,666.25,947.76z"/>
	<path class="st33" d="M654.36,945.58c-0.78,0-1.56,0.03-2.33,0.08l1.03,12.2c0.44-0.03,0.86-0.04,1.3-0.04
		c0.77,0,1.54,0.04,2.29,0.12l1.6-12.13C656.97,945.66,655.68,945.58,654.36,945.58z"/>
	<path class="st30" d="M643.68,947.32c-2.18,0.73-4.28,1.69-6.24,2.84l6.32,10.49c1.14-0.67,2.36-1.22,3.63-1.66L643.68,947.32z"/>
	<path class="st25" d="M631.29,954.76c-1.58,1.51-3.01,3.15-4.28,4.92l10.09,6.96c0.74-1.03,1.57-1.99,2.48-2.86L631.29,954.76z"/>
	<path class="st34" d="M623.21,966.61c-0.72,1.77-1.28,3.61-1.69,5.52l11.98,2.54c0.24-1.14,0.58-2.25,1-3.32L623.21,966.61z"/>
	<path class="st35" d="M633.09,980.65l-12.25,0.31c0.14,2.56,0.56,5.05,1.24,7.44l11.78-3.4
		C633.45,983.61,633.19,982.15,633.09,980.65z"/>
	<path class="st36" d="M636.03,990.05l-10.79,5.8c1.05,1.86,2.29,3.6,3.68,5.21l9.25-8.04C637.37,992.09,636.66,991.1,636.03,990.05
		z"/>
	<path class="st18" d="M642.62,996.94l-7.39,9.8c1.5,1.04,3.1,1.97,4.77,2.76l5.14-11.12C644.26,997.96,643.42,997.47,642.62,996.94
		z"/>
	<path class="st7" d="M651.32,979.64c0,1.67-1.35,3.03-3.02,3.03s-3.02-1.36-3.02-3.03c0-1.67,1.35-3.03,3.02-3.03
		S651.32,977.97,651.32,979.64z"/>
	<path class="st7" d="M654.36,963.49c-8.39,0-15.18,6.8-15.18,15.18s6.79,15.17,15.18,15.17c8.38,0,15.17-6.79,15.17-15.17
		S662.74,963.49,654.36,963.49z M648.3,985.69c-3.34,0-6.05-2.72-6.05-6.05c0-3.35,2.71-6.06,6.05-6.06c3.34,0,6.05,2.71,6.05,6.06
		C654.35,982.97,651.64,985.69,648.3,985.69z M662.96,985.5l-5.28-6.82v6.82h-2.88v-11.82h2.79l5.04,7.04v-7.04h3.01v11.82H662.96z"
		/>
	<polygon class="st7" points="619.11,1043.95 626.85,1043.95 640.92,1019.32 640.92,1043.95 647.06,1043.95 647.06,1013.55 
		639.51,1013.55 	"/>
	<polygon class="st7" points="633.08,1028.75 641.9,1028.75 641.9,1034.24 629.24,1034.24 	"/>
	<rect x="651.47" y="999.2" class="st7" width="5.91" height="44.75"/>
	<path class="st7" d="M680,1033.5c3.81-1.52,6.51-5.24,6.51-9.6c0-5.71-4.64-10.34-10.35-10.34h-15.24v30.39h6.31v-9.71h5.61
		l7.2,9.71h7.32L680,1033.5z M675.65,1029.23h-8.42v-9.9h8.42c1.36,0,2.6,0.56,3.5,1.45c0.89,0.89,1.45,2.13,1.45,3.5
		C680.61,1027,678.38,1029.23,675.65,1029.23z"/>
</g>
</svg>
