<?xml version="1.0" encoding="utf-8"?>
<!-- Generator: Adobe Illustrator 23.1.1, SVG Export Plug-In . SVG Version: 6.00 Build 0)  -->
<svg version="1.1" id="Layer_1" xmlns="http://www.w3.org/2000/svg" xmlns:xlink="http://www.w3.org/1999/xlink" x="0px" y="0px"
	 viewBox="0 0 154.34 61.67" style="enable-background:new 0 0 154.34 61.67;" xml:space="preserve">
<style type="text/css">
	.st0{fill:#FFFFFF;}
	.st1{fill:#C52823;}
</style>
<g>
	<path class="st0" d="M278.86-124.2c0,0,0.77,3.26,0,6.5h-9.6V-86c0,0-4.44,0.56-7.94,0v-31.67h-9.58c0,0-0.7-3.29,0-6.53H278.86z"
		/>
	<path class="st0" d="M310.4-124.86c0,0-3.1-0.63-7.54,0v35.62c0,0,0.21,3.59,4.16,3.59c3.94,0,3.38-0.52,3.38-0.52V-124.86z"/>
	<path class="st0" d="M322.44-124.83c0,0-3.33-0.75-7.58,0v38.79c0,0,4.18,0.82,7.58,0V-124.83z"/>
	<path class="st0" d="M331.55-100.84l6.97-12.61c0,0-2.71-0.63-8.1,0l-6.9,13.07l7.99,14.37c0,0,4.01,0.74,8.21,0L331.55-100.84z"/>
	<path class="st0" d="M353.78-114.06h-1.97c-6.67,0-12.32,5.41-12.32,12.08v4.27c0,6.67,5.64,12.08,12.32,12.08h1.97
		c6.67,0,12.26-5.41,12.26-12.08v-4.27C366.04-108.65,360.45-114.06,353.78-114.06z M357.89-96.27c0,2.83-2.29,5.13-5.13,5.13
		c-2.83,0-5.12-2.29-5.12-5.13v-7.15c0-2.83,2.29-5.13,5.12-5.13c1.42,0,2.7,0.57,3.62,1.5c0.93,0.93,1.5,2.21,1.5,3.62V-96.27z"/>
	<path class="st0" d="M376.98-109.68c0,0-0.39-2.82-0.95-3.8c0,0-2.25-0.74-6.09,0v27.37c0,0,3.28,0.92,7.54,0c0,0,0-14.19,0-15.74
		c0-1.55,1.06-5.71,5-5.71c3.94,0,3.84,4.12,3.84,5.92s0,15.67,0,15.67s3.94,0.7,7.64,0c0,0,0-15.29,0-15.99
		c0-0.7,0.77-5.53,4.47-5.53c3.7,0,4.3,2.25,4.3,5.39c0,3.13,0,16.06,0,16.06s4.14,0.81,7.63,0c0,0,0-16.87,0-18.07
		c0-1.2,0.04-10-7.95-10s-9.26,4.75-9.26,4.75s-1.13-4.75-7.64-4.75C378.99-114.12,376.98-109.68,376.98-109.68z"/>
	<path class="st0" d="M299.1-101.31c0-2.16-1.17-12.87-11.88-12.87c-10.71,0-13.8,8.64-13.8,13.66c0,5.03,0.56,15.02,15.07,15.02
		c0,0,4.09,0.24,8.83-1.45c0,0,0.38-2.86-1.41-5.73c0,0-2.96,1.32-7.42,1.32c-4.46,0-7.28-1.93-7.56-6.01h17.8
		C298.73-97.36,299.1-99.15,299.1-101.31z M291.73-102.72h-10.75c0.14-1.7,0.94-5.73,5.87-5.73
		C291.78-108.45,291.73-102.72,291.73-102.72z"/>
</g>
<g>
	<g>
		<g>
			<path class="st0" d="M1193.29,1250.89c-1.05,0-1.9-0.85-1.9-1.9v-20.11c0-3.43,2.79-6.22,6.22-6.22h7.19
				c4.05,0,7.35,3.3,7.35,7.35v0.63c0,4.05-3.3,7.35-7.35,7.35h-9.62v11C1195.19,1250.04,1194.34,1250.89,1193.29,1250.89z
				 M1195.19,1234.19h9.62c1.96,0,3.56-1.6,3.56-3.56v-0.63c0-1.96-1.6-3.56-3.56-3.56h-7.19c-1.34,0-2.43,1.09-2.43,2.43V1234.19z"
				/>
		</g>
	</g>
	<g>
		<g>
			<path class="st0" d="M1211.51,1250.53c-0.7,0-1.37-0.39-1.7-1.06l-6.19-12.54c-0.46-0.94-0.08-2.08,0.86-2.54
				c0.94-0.46,2.08-0.08,2.54,0.86l6.19,12.54c0.46,0.94,0.08,2.08-0.86,2.54C1212.08,1250.46,1211.79,1250.53,1211.51,1250.53z"/>
		</g>
	</g>
	<g>
		<g>
			<path class="st0" d="M1232.1,1250.11h-14.07c-1.05,0-1.9-0.85-1.9-1.9c0-1.05,0.85-1.9,1.9-1.9h14.07c1.34,0,2.43-1.09,2.43-2.43
				v-3.47c0-1.34-1.09-2.43-2.43-2.43h-9.06c-3.81,0-6.91-3.1-6.91-6.91v-2.02c0-3.81,3.1-6.91,6.91-6.91h11.79
				c1.05,0,1.9,0.85,1.9,1.9c0,1.05-0.85,1.9-1.9,1.9h-11.79c-1.72,0-3.11,1.4-3.11,3.11v2.02c0,1.72,1.4,3.11,3.11,3.11h9.06
				c3.43,0,6.22,2.79,6.22,6.23v3.47C1238.32,1247.32,1235.53,1250.11,1232.1,1250.11z"/>
		</g>
	</g>
	<g>
		<g>
			<path class="st0" d="M1241.82,1250.53c-0.26,0-0.52-0.05-0.77-0.17c-0.96-0.43-1.39-1.55-0.96-2.51l11.24-25.16
				c0.3-0.68,0.98-1.12,1.72-1.12c0.75,0.01,1.42,0.42,1.74,1.1l11.7,25.16c0.44,0.95,0.03,2.08-0.92,2.52
				c-0.95,0.44-2.08,0.03-2.52-0.92l-9.95-21.39l-9.54,21.36C1243.24,1250.11,1242.55,1250.53,1241.82,1250.53z"/>
		</g>
	</g>
	<g>
		<g>
			<path class="st0" d="M1276.47,1250.53c-0.77,0-1.47-0.47-1.76-1.19l-10.18-25.16c-0.39-0.97,0.08-2.08,1.05-2.47
				c0.97-0.39,2.08,0.08,2.47,1.05l8.24,20.37l6.32-19.16c0.26-0.77,0.98-1.3,1.79-1.3c0,0,0.01,0,0.01,0c0.81,0,1.53,0.51,1.8,1.28
				l6.54,19.01l7.36-20.13c0.36-0.98,1.45-1.49,2.43-1.13c0.98,0.36,1.49,1.45,1.13,2.43l-9.2,25.16c-0.28,0.75-1,1.24-1.8,1.25
				c-0.8-0.01-1.52-0.52-1.78-1.28l-6.44-18.75l-6.18,18.72c-0.25,0.76-0.94,1.28-1.74,1.3
				C1276.51,1250.53,1276.49,1250.53,1276.47,1250.53z"/>
		</g>
	</g>
	<g>
		<g>
			<path class="st0" d="M1324.7,1237.99h-13.54c-3.17,0-5.75-2.58-5.75-5.75v-3.44c0-3.66,2.98-6.64,6.64-6.64h12.64
				c1.05,0,1.9,0.85,1.9,1.9c0,1.05-0.85,1.9-1.9,1.9h-12.64c-1.57,0-2.85,1.28-2.85,2.85v3.44c0,1.08,0.88,1.95,1.95,1.95h13.54
				c1.05,0,1.9,0.85,1.9,1.9C1326.6,1237.14,1325.75,1237.99,1324.7,1237.99z"/>
		</g>
	</g>
	<g>
		<g>
			<path class="st0" d="M1324.7,1249.98h-12.64c-3.66,0-6.64-2.98-6.64-6.64v-3.11c0-3.35,2.73-6.08,6.08-6.08h13.21
				c1.05,0,1.9,0.85,1.9,1.9s-0.85,1.9-1.9,1.9h-13.21c-1.26,0-2.28,1.02-2.28,2.28v3.11c0,1.57,1.28,2.85,2.85,2.85h12.64
				c1.05,0,1.9,0.85,1.9,1.9C1326.6,1249.13,1325.75,1249.98,1324.7,1249.98z"/>
		</g>
	</g>
	<g>
		<g>
			<path class="st0" d="M1344.27,1249.98h-11.96c-1.05,0-1.9-0.85-1.9-1.9v-19.79c0-3.39,2.76-6.14,6.14-6.14h6.79
				c4.37,0,7.92,3.55,7.92,7.92c0,2.19-0.9,4.17-2.34,5.6c1.98,1.44,3.26,3.77,3.26,6.4
				C1352.19,1246.43,1348.63,1249.98,1344.27,1249.98z M1334.21,1246.19h10.06c2.27,0,4.12-1.85,4.12-4.12
				c0-2.27-1.85-4.12-4.12-4.12h-10.06V1246.19z M1334.21,1234.15h9.18c2.25,0,4.08-1.83,4.08-4.08c0-2.27-1.85-4.12-4.12-4.12
				h-6.79c-1.29,0-2.35,1.05-2.35,2.35V1234.15z"/>
		</g>
	</g>
	<g>
		<g>
			<path class="st0" d="M1260.51,1241.39h-14.61c-1.05,0-1.9-0.85-1.9-1.9s0.85-1.9,1.9-1.9h14.61c1.05,0,1.9,0.85,1.9,1.9
				S1261.56,1241.39,1260.51,1241.39z"/>
		</g>
	</g>
	<g>
		<path class="st0" d="M1262.72,1248.73c1.73,3.8,7.81,12.33,17.97,13.14c0,0-7.83-0.34-14.8-15.32l-1.5,0.97L1262.72,1248.73z"/>
	</g>
	<g>
		<path class="st0" d="M1268.05,1222.75c-1.59-3.95-10.18-11.1-17.95-11.35c0,0,10.68,3.48,14.63,13.25
			c3.95,9.77,4.18,5.67,4.18,5.67L1268.05,1222.75z"/>
	</g>
	<g>
		<path class="st0" d="M1278.68,1273.04c-10.91,0-20.92-9.17-22.1-10.28h-68.95c-5.11,0-9.27-4.16-9.27-9.27v-34.63
			c0-5.11,4.16-9.27,9.27-9.27h48.25c0.86-2.95,5.05-9.66,15.59-9.66c5.59,0,11.3,2.65,15.1,4.88c3.65,2.14,6.3,4.31,6.86,4.78h81
			c5.11,0,9.27,4.16,9.27,9.27v34.63c0,5.11-4.16,9.27-9.27,9.27h-60.32c-0.07,1.46-0.83,3.7-2.79,5.75
			C1289.33,1270.58,1285.52,1273.04,1278.68,1273.04z M1187.64,1210.34c-4.7,0-8.52,3.82-8.52,8.52v34.63c0,4.7,3.82,8.52,8.52,8.52
			h69.26l0.11,0.11c0.03,0.03,2.63,2.58,6.6,5.1c3.64,2.31,9.22,5.07,15.08,5.07c6.57,0,10.2-2.34,12.08-4.3
			c1.99-2.07,2.64-4.3,2.59-5.59l-0.02-0.39h61.1c4.7,0,8.52-3.82,8.52-8.52v-34.63c0-4.7-3.82-8.52-8.52-8.52h-81.28l-0.11-0.09
			c-0.11-0.1-11.18-9.56-21.57-9.56c-4.53,0-8.28,1.26-11.16,3.75c-2.26,1.95-3.44,4.24-3.77,5.62l-0.07,0.29H1187.64z"/>
	</g>
	<g>
		<g>
			<path class="st0" d="M1365.83,1214.6c-1.37,0-2.49-1.12-2.49-2.49c0-1.37,1.12-2.49,2.49-2.49c1.37,0,2.49,1.12,2.49,2.49
				C1368.32,1213.49,1367.2,1214.6,1365.83,1214.6z M1365.83,1210.01c-1.16,0-2.11,0.95-2.11,2.11c0,1.16,0.95,2.11,2.11,2.11
				c1.16,0,2.11-0.95,2.11-2.11C1367.94,1210.95,1366.99,1210.01,1365.83,1210.01z"/>
		</g>
		<g>
			<g>
				<path class="st0" d="M1365.26,1212.29v1.15h-0.39v-2.66h1.06c0.55,0,0.85,0.3,0.85,0.72c0,0.35-0.2,0.55-0.44,0.63
					c0.2,0.06,0.39,0.21,0.39,0.68v0.12c0,0.18-0.01,0.41,0.04,0.52h-0.38c-0.05-0.11-0.05-0.32-0.05-0.58v-0.05
					c0-0.36-0.1-0.52-0.57-0.52H1365.26z M1365.26,1211.97h0.56c0.39,0,0.56-0.15,0.56-0.43c0-0.27-0.18-0.42-0.52-0.42h-0.59
					V1211.97z"/>
			</g>
		</g>
	</g>
</g>
<g>
	<path class="st0" d="M160.71-119.27l26.68,38.61c1.93,2.79,5.77,3.49,8.55,1.55l0.03-0.02c2.78-1.93,3.46-5.75,1.54-8.53
		l-26.71-38.59c-1.96-2.83-5.87-3.5-8.66-1.47l0,0C159.45-125.76,158.82-122.01,160.71-119.27z"/>
	<path class="st0" d="M91.43-84.1c-0.38,0.49-0.72,0.92-1.01,1.31c-2.88,3.77-5.03,4.43-7.17,4.43c-2.14,0-3.99-1.63-5.39-4.43
		c-0.13-0.26-0.28-0.56-0.45-0.89c-0.7-1.44-1.67-3.42-2.53-5.18l-1.08-2.2l-14.14-28.77c-1.48-3-0.35-6.64,2.56-8.28
		c3.16-1.78,7.16-0.53,8.75,2.71l14.45,29.18L91.43-84.1z"/>
	<path class="st0" d="M145.92-108.74l-0.11,0.07c-2.5,1.6-5.77,1.18-7.82-0.96c-0.88-0.92-1.87-1.88-2.94-2.82
		c-0.01-0.02-0.02-0.03-0.03-0.04c-0.17-0.2-0.96-1.13-2.41-1.97c-1.29-0.76-3.12-1.44-5.46-1.44c-5.25,0-14.71,6.36-20.7,13.31
		c-5.38,6.23-11.7,14.21-15.03,18.49c-0.38,0.49-0.72,0.92-1.01,1.31c-2.88,3.77-5.03,4.43-7.17,4.43c-2.14,0-3.99-1.63-5.39-4.43
		c-0.13-0.26-0.28-0.56-0.45-0.89c-0.7-1.44-1.67-3.42-2.53-5.18c-0.39-0.8-0.77-1.57-1.08-2.2c-0.51-1.06-0.86-1.76-0.86-1.76
		c5.87,4.46,8.02,1.75,9.95-0.32c0.85-0.92,1.51-1.76,2.54-3.08c1.3-1.68,3.2-4.14,6.84-8.52c1.7-2.04,4.32-5,7.27-8.25
		c1.11-1.22,2.26-2.49,3.44-3.77c0.01-0.02,0.03-0.04,0.06-0.06c5.22-5.29,12.94-10.94,24.46-10.94c10.32,0,16.63,5.58,20.06,10.11
		C149.71-114.77,148.95-110.67,145.92-108.74z"/>
	<path class="st0" d="M145.92-108.74l-0.11,0.07c-2.5,1.6-5.77,1.18-7.82-0.96c-0.88-0.92-1.87-1.88-2.94-2.82
		c-0.01-0.02-0.02-0.03-0.03-0.04c-0.76-0.67-1.56-1.34-2.41-1.97c-3.65-2.76-7.97-4.99-12.44-4.99c-9.17,0-22.93,9.36-23.36,9.65
		c0.78-0.87,1.68-1.96,2.73-3.19c1-1.18,2.14-2.46,3.44-3.77c0.01-0.02,0.03-0.04,0.06-0.06c5.22-5.29,12.94-10.94,24.46-10.94
		c10.32,0,16.63,5.58,20.06,10.11C149.71-114.77,148.95-110.67,145.92-108.74z"/>
	<path class="st0" d="M198.59-117.08c-5.72,2.1-15.35,6.03-24.79,11.74c-6.43,3.89-13.03,8.43-18.43,12.33
		c-7.02,5.07-12.02,9.03-12.02,9.03s-0.09,0.15-0.28,0.43c-0.97,0.74-1.8,1.36-2.37,1.79c-3.33,2.45-7.1,3.4-12.86,3.4
		c-4.88,0-14.93-2.91-20.32-11.87c-1.71-2.85-0.92-6.54,1.81-8.43c1.1-0.77,2.36-1.14,3.61-1.14c1.68,0,3.35,0.67,4.58,1.96
		c0.45,0.48,0.93,0.98,1.44,1.49c0,0.01,0.01,0.02,0.02,0.03c0.16,0.23,1.93,2.67,4.53,4.4c1.47,0.98,3.2,1.73,5.06,1.73
		c5.33,0,8.13-3.1,17.89-11.38c9.75-8.28,26.61-18.34,35.47-22.03c4.51-1.88,9.24-3.53,12.81-4.69c3.17-1.03,6.56,0.77,7.5,3.97
		l0.01,0.05C203.11-121.28,201.51-118.14,198.59-117.08z"/>
	<path class="st0" d="M155.4-93.01c-0.28,0.22-7.85,6.08-12.34,9.47c-0.97,0.74-1.8,1.36-2.37,1.79c-3.33,2.45-7.1,3.4-12.86,3.4
		c-4.88,0-14.93-2.91-20.32-11.87c-1.71-2.85-0.92-6.54,1.81-8.43c1.1-0.77,2.36-1.14,3.61-1.14c1.68,0,3.35,0.67,4.58,1.96
		c0.45,0.48,0.93,0.98,1.44,1.49c0,0.01,0.01,0.02,0.02,0.03c1.44,1.48,3.02,3.04,4.53,4.4c1.14,1.03,2.24,1.95,3.21,2.62
		c4.76,3.32,13.69,3.28,28.66-3.72C155.38-93,155.39-93.01,155.4-93.01z"/>
	<g>
		<g>
			<path class="st0" d="M202.98-98.85c-2.35,0-4.27-1.92-4.27-4.27c0-2.35,1.92-4.27,4.27-4.27c2.35,0,4.27,1.92,4.27,4.27
				C207.25-100.77,205.33-98.85,202.98-98.85z M202.98-106.89c-2.08,0-3.77,1.69-3.77,3.77s1.69,3.77,3.77,3.77s3.77-1.69,3.77-3.77
				S205.06-106.89,202.98-106.89z"/>
		</g>
		<g>
			<path class="st0" d="M201.54-105.23c0.33-0.06,0.8-0.09,1.24-0.09c0.69,0,1.14,0.11,1.45,0.35c0.25,0.19,0.39,0.49,0.39,0.82
				c0,0.57-0.42,0.95-0.95,1.11v0.02c0.39,0.12,0.62,0.43,0.74,0.88c0.16,0.61,0.28,1.02,0.39,1.19h-0.67
				c-0.08-0.12-0.19-0.5-0.33-1.04c-0.15-0.6-0.42-0.82-1.01-0.84h-0.61v1.88h-0.65V-105.23z M202.19-103.26h0.66
				c0.69,0,1.13-0.33,1.13-0.82c0-0.56-0.47-0.8-1.15-0.81c-0.31,0-0.54,0.03-0.64,0.05V-103.26z"/>
		</g>
	</g>
</g>
<g>
	<path class="st0" d="M-170.79-110.4c-1.08,0-1.98,0.14-2.71,0.41c-0.72,0.27-1.09,0.79-1.09,1.55c0,0.58,0.25,1.01,0.75,1.3
		c0.5,0.29,1.11,0.55,1.85,0.8c0.74,0.24,1.53,0.5,2.39,0.77c0.85,0.27,1.65,0.68,2.39,1.21c0.74,0.53,1.36,1.24,1.85,2.12
		c0.5,0.88,0.75,2.03,0.75,3.46c0,2.18-0.71,3.78-2.13,4.78c-1.42,1-3.42,1.5-6.01,1.5c-1.53,0-2.83-0.11-3.88-0.34
		c-1.05-0.23-1.9-0.51-2.56-0.84c-0.17-0.09-0.28-0.2-0.32-0.32c-0.04-0.12-0.06-0.29-0.06-0.5v-3.46c0-0.15,0.05-0.25,0.15-0.3
		c0.1-0.05,0.22-0.02,0.36,0.07c0.71,0.49,1.53,0.86,2.47,1.11c0.94,0.26,1.96,0.39,3.07,0.39c1.36,0,2.4-0.17,3.11-0.52
		c0.71-0.35,1.07-0.93,1.07-1.75c0-0.67-0.25-1.18-0.75-1.55c-0.5-0.36-1.12-0.67-1.85-0.93c-0.74-0.26-1.55-0.52-2.43-0.8
		c-0.88-0.27-1.69-0.65-2.43-1.14c-0.74-0.49-1.36-1.14-1.85-1.96c-0.5-0.82-0.75-1.93-0.75-3.32c0-1.7,0.65-3.11,1.96-4.23
		c1.31-1.12,3.22-1.68,5.75-1.68c1.45,0,2.62,0.11,3.52,0.32c0.89,0.21,1.58,0.44,2.07,0.68c0.28,0.15,0.48,0.29,0.6,0.41
		c0.11,0.12,0.17,0.35,0.17,0.68v2.96c0,0.21-0.06,0.36-0.17,0.46s-0.33,0.06-0.64-0.09c-0.63-0.36-1.34-0.66-2.13-0.89
		C-169.07-110.29-169.91-110.4-170.79-110.4z"/>
	<path class="st0" d="M-73.89-110.4c-1.08,0-1.98,0.14-2.71,0.41c-0.72,0.27-1.09,0.79-1.09,1.55c0,0.58,0.25,1.01,0.75,1.3
		c0.5,0.29,1.11,0.55,1.85,0.8c0.74,0.24,1.53,0.5,2.39,0.77c0.85,0.27,1.65,0.68,2.39,1.21c0.74,0.53,1.36,1.24,1.85,2.12
		c0.5,0.88,0.75,2.03,0.75,3.46c0,2.18-0.71,3.78-2.13,4.78c-1.42,1-3.42,1.5-6.01,1.5c-1.53,0-2.83-0.11-3.88-0.34
		c-1.05-0.23-1.9-0.51-2.56-0.84c-0.17-0.09-0.28-0.2-0.32-0.32c-0.04-0.12-0.06-0.29-0.06-0.5v-3.46c0-0.15,0.05-0.25,0.15-0.3
		c0.1-0.05,0.22-0.02,0.36,0.07c0.71,0.49,1.53,0.86,2.47,1.11c0.94,0.26,1.96,0.39,3.07,0.39c1.36,0,2.4-0.17,3.11-0.52
		c0.71-0.35,1.07-0.93,1.07-1.75c0-0.67-0.25-1.18-0.75-1.55c-0.5-0.36-1.12-0.67-1.85-0.93c-0.74-0.26-1.55-0.52-2.43-0.8
		c-0.88-0.27-1.69-0.65-2.43-1.14c-0.74-0.49-1.36-1.14-1.85-1.96c-0.5-0.82-0.75-1.93-0.75-3.32c0-1.7,0.65-3.11,1.96-4.23
		c1.31-1.12,3.22-1.68,5.75-1.68c1.45,0,2.62,0.11,3.52,0.32c0.89,0.21,1.58,0.44,2.07,0.68c0.28,0.15,0.48,0.29,0.6,0.41
		c0.11,0.12,0.17,0.35,0.17,0.68v2.96c0,0.21-0.06,0.36-0.17,0.46s-0.33,0.06-0.64-0.09c-0.63-0.36-1.34-0.66-2.13-0.89
		C-72.17-110.29-73.01-110.4-73.89-110.4z"/>
	<path class="st0" d="M-153.36-92.52c-2.88,0-5.07-0.84-6.58-2.51s-2.26-4.2-2.26-7.57v-11.11c0-0.59,0.27-0.88,0.82-0.88h3.14
		c0.3,0,0.49,0.06,0.57,0.19c0.08,0.12,0.12,0.36,0.12,0.7v10.97c0,2.08,0.37,3.56,1.12,4.46c0.75,0.9,1.77,1.35,3.08,1.35
		c1.3,0,2.34-0.45,3.1-1.35c0.76-0.9,1.14-2.39,1.14-4.46v-10.97c0-0.59,0.23-0.88,0.69-0.88h3.38c0.35,0,0.53,0.2,0.53,0.6v11.38
		C-144.52-95.88-147.47-92.52-153.36-92.52z"/>
	<path class="st0" d="M-136.84-112.95c0.66-0.63,1.45-1.16,2.36-1.6c0.9-0.44,2-0.66,3.27-0.66c1.2,0,2.36,0.25,3.47,0.75
		c1.12,0.5,2.1,1.24,2.96,2.21c0.85,0.97,1.53,2.17,2.04,3.6c0.51,1.43,0.76,3.06,0.76,4.91c0,1.85-0.26,3.47-0.78,4.87
		c-0.52,1.39-1.21,2.58-2.08,3.55c-0.87,0.97-1.85,1.7-2.96,2.19c-1.11,0.49-2.24,0.73-3.41,0.73c-1.25,0-2.33-0.2-3.23-0.61
		c-0.91-0.41-1.7-0.92-2.4-1.55v11.19c0,0.38-0.15,0.56-0.44,0.56h-3.51c-0.21,0-0.35-0.06-0.42-0.16c-0.07-0.11-0.1-0.24-0.1-0.4
		v-30.84c0-0.34,0.13-0.52,0.4-0.52h3.63c0.29,0,0.44,0.13,0.44,0.38V-112.95z M-126.34-103.74c0-1-0.14-1.93-0.42-2.8
		c-0.28-0.86-0.67-1.6-1.16-2.21c-0.49-0.61-1.07-1.09-1.74-1.43c-0.67-0.34-1.38-0.52-2.16-0.52c-2.1,0-3.78,0.96-5.03,2.87v8.13
		c1.25,1.85,2.93,2.77,5.03,2.77c0.72,0,1.4-0.16,2.06-0.49c0.65-0.33,1.23-0.78,1.74-1.36c0.51-0.58,0.91-1.29,1.22-2.14
		C-126.49-101.76-126.34-102.7-126.34-103.74z"/>
	<path class="st0" d="M-100.7-102.84c0,0.36-0.15,0.54-0.46,0.54h-13.98c0.19,1.65,0.79,2.93,1.79,3.85c1,0.92,2.44,1.37,4.33,1.37
		c0.89,0,1.78-0.1,2.68-0.29c0.9-0.19,1.67-0.47,2.31-0.83c0.28-0.12,0.44-0.14,0.5-0.07c0.06,0.08,0.08,0.19,0.08,0.34v3.11
		c0,0.24-0.02,0.41-0.06,0.52c-0.04,0.11-0.15,0.2-0.31,0.29c-0.75,0.39-1.59,0.7-2.52,0.92c-0.93,0.23-2.06,0.34-3.39,0.34
		c-1.83,0-3.38-0.3-4.66-0.9c-1.28-0.6-2.32-1.4-3.12-2.39c-0.8-0.99-1.39-2.13-1.75-3.42c-0.36-1.29-0.54-2.63-0.54-4.01
		c0-1.71,0.25-3.25,0.75-4.62c0.5-1.37,1.19-2.54,2.06-3.51c0.87-0.98,1.89-1.72,3.06-2.23c1.16-0.51,2.41-0.77,3.74-0.77
		c1.33,0,2.57,0.26,3.72,0.77c1.15,0.51,2.16,1.22,3.02,2.14c0.86,0.92,1.53,2.03,2.02,3.35c0.48,1.32,0.73,2.79,0.73,4.41V-102.84z
		 M-110.18-110.58c-1.25,0-2.27,0.41-3.08,1.22c-0.8,0.81-1.36,1.89-1.66,3.24h9.73c-0.31-1.35-0.87-2.43-1.71-3.24
		C-107.73-110.18-108.83-110.58-110.18-110.58z"/>
	<path class="st0" d="M-94.37-114.35c0.34,0,0.53,0.21,0.59,0.64l0.13,1.96c0.73-1.03,1.6-1.8,2.6-2.3c1.01-0.5,2.06-0.75,3.15-0.75
		c0.62,0,1.14,0.05,1.58,0.14c0.43,0.09,0.87,0.23,1.32,0.41c0.14,0.06,0.25,0.13,0.32,0.21c0.07,0.08,0.11,0.22,0.11,0.43v3.24
		c0,0.24-0.05,0.38-0.15,0.41c-0.1,0.03-0.22,0.02-0.36-0.05c-0.65-0.3-1.53-0.46-2.65-0.46c-0.84,0-1.76,0.24-2.75,0.73
		c-0.99,0.49-1.98,1.32-2.96,2.51v13.59c0,0.34-0.15,0.5-0.46,0.5h-3.82c-0.17,0-0.29-0.02-0.36-0.07
		c-0.07-0.05-0.11-0.17-0.11-0.39v-19.93c0-0.36,0.03-0.59,0.11-0.68c0.07-0.09,0.23-0.14,0.48-0.14H-94.37z"/>
	<path class="st0" d="M-65.8-103.37c0-1.54,0.27-2.99,0.82-4.36c0.55-1.37,1.29-2.56,2.23-3.58c0.94-1.02,2.04-1.82,3.3-2.4
		c1.26-0.58,2.62-0.88,4.08-0.88c1.43,0,2.77,0.29,4.04,0.88c1.26,0.58,2.36,1.38,3.3,2.4c0.94,1.02,1.68,2.21,2.23,3.58
		c0.55,1.37,0.82,2.82,0.82,4.36c0,1.54-0.27,2.99-0.82,4.34c-0.55,1.35-1.29,2.54-2.23,3.55c-0.94,1.02-2.04,1.82-3.3,2.4
		c-1.26,0.58-2.61,0.88-4.04,0.88c-1.46,0-2.82-0.29-4.08-0.88c-1.26-0.58-2.36-1.38-3.3-2.4c-0.94-1.02-1.68-2.2-2.23-3.55
		C-65.53-100.39-65.8-101.83-65.8-103.37z M-61.22-103.37c0,0.89,0.15,1.73,0.46,2.52c0.31,0.78,0.72,1.46,1.24,2.03
		c0.52,0.57,1.13,1.02,1.85,1.36c0.71,0.34,1.48,0.51,2.29,0.51c0.78,0,1.53-0.17,2.25-0.51c0.71-0.34,1.33-0.79,1.85-1.36
		c0.52-0.57,0.93-1.25,1.24-2.03c0.31-0.78,0.46-1.62,0.46-2.52c0-0.89-0.15-1.73-0.46-2.52c-0.31-0.78-0.72-1.46-1.24-2.03
		c-0.52-0.57-1.13-1.02-1.85-1.36c-0.71-0.34-1.47-0.51-2.25-0.51c-0.81,0-1.58,0.17-2.29,0.51c-0.71,0.34-1.33,0.79-1.85,1.36
		c-0.52,0.57-0.93,1.25-1.24,2.03C-61.06-105.1-61.22-104.26-61.22-103.37z"/>
	<path class="st0" d="M-38.28-113.26c0.77-0.65,1.66-1.14,2.68-1.46c1.02-0.33,2.04-0.49,3.07-0.49c2.4,0,4.24,0.81,5.51,2.42
		c1.27,1.61,1.9,4.01,1.9,7.2v11.89c0,0.37-0.17,0.56-0.52,0.56h-3.53c-0.29,0-0.44-0.19-0.44-0.56v-11.1c0-2.04-0.36-3.5-1.09-4.37
		c-0.73-0.87-1.72-1.3-2.99-1.3c-0.79,0-1.55,0.13-2.28,0.39c-0.73,0.26-1.51,0.83-2.36,1.7l-0.04,14.73c0,0.34-0.15,0.51-0.44,0.51
		h-3.45c-0.24,0-0.39-0.05-0.46-0.14c-0.07-0.09-0.1-0.22-0.1-0.37v-20.58c0-0.34,0.13-0.51,0.4-0.51h3.61
		c0.34,0,0.52,0.17,0.52,0.51V-113.26z"/>
	<path class="st0" d="M-16.35-93.79c0,0.31-0.04,0.49-0.11,0.55c-0.07,0.06-0.21,0.09-0.41,0.09h-3.68c-0.23,0-0.4-0.02-0.5-0.07
		c-0.1-0.05-0.15-0.22-0.15-0.53v-20.11c0-0.37,0.06-0.58,0.17-0.65c0.11-0.06,0.35-0.09,0.69-0.09h3.46c0.14,0,0.27,0.05,0.37,0.14
		c0.1,0.09,0.15,0.28,0.15,0.55V-93.79z"/>
	<path class="st0" d="M-8.87-103.65c0,0.9,0.16,1.76,0.48,2.57c0.32,0.81,0.77,1.51,1.37,2.09c0.59,0.59,1.31,1.05,2.15,1.4
		c0.84,0.35,1.76,0.52,2.78,0.52c0.98,0,1.82-0.07,2.5-0.23c0.68-0.15,1.4-0.42,2.15-0.81c0.23-0.12,0.35-0.04,0.35,0.23v3.47
		c0,0.15-0.02,0.26-0.07,0.34c-0.04,0.08-0.14,0.14-0.28,0.2c-0.78,0.36-1.63,0.64-2.56,0.83c-0.93,0.19-1.84,0.29-2.73,0.29
		c-1.53,0-2.97-0.29-4.32-0.86c-1.35-0.57-2.52-1.35-3.52-2.34s-1.78-2.15-2.34-3.47c-0.56-1.32-0.85-2.73-0.85-4.23
		c0-1.5,0.28-2.92,0.85-4.26c0.56-1.34,1.35-2.5,2.34-3.49c1-0.99,2.17-1.77,3.52-2.34c1.35-0.57,2.78-0.86,4.32-0.86
		c0.84,0,1.7,0.11,2.58,0.32c0.88,0.21,1.7,0.48,2.45,0.81c0.17,0.09,0.32,0.18,0.43,0.27c0.12,0.09,0.17,0.26,0.17,0.5v3.47
		c0,0.33-0.17,0.39-0.52,0.18c-0.67-0.39-1.35-0.68-2.04-0.88c-0.69-0.19-1.5-0.29-2.43-0.29c-1.01,0-1.94,0.17-2.78,0.52
		c-0.84,0.35-1.56,0.82-2.15,1.42c-0.59,0.6-1.05,1.3-1.37,2.09C-8.71-105.4-8.87-104.55-8.87-103.65z"/>
	<circle class="st0" cx="-159.72" cy="-122.53" r="2.48"/>
	
		<rect x="-148.49" y="-124.52" transform="matrix(0.7071 -0.7071 0.7071 0.7071 43.7403 -139.4975)" class="st0" width="3.94" height="3.94"/>
	<path class="st0" d="M-20.69-125.07h4.07c0.4,0,0.65,0.45,0.43,0.79l-2.04,3.15c-0.2,0.31-0.65,0.31-0.85,0l-2.04-3.15
		C-21.33-124.62-21.09-125.07-20.69-125.07z"/>
</g>
<g>
	<g>
		<path class="st0" d="M536.07-86.26c-2.34,0-4.25-1.78-4.25-3.97v-23.12l-10.52,24.23c-0.65,1.5-2.21,2.48-3.93,2.48
			s-3.28-0.98-3.93-2.48l-10.52-24.23v23.12c0,2.19-1.9,3.97-4.25,3.97c-2.34,0-4.25-1.78-4.25-3.97v-43.46
			c0-1.9,1.44-3.54,3.43-3.9c1.99-0.37,3.98,0.64,4.75,2.4l14.76,34.01l14.76-34.01c0.76-1.76,2.75-2.77,4.75-2.4
			c1.99,0.36,3.43,2,3.43,3.9v43.46C540.32-88.04,538.41-86.26,536.07-86.26z"/>
	</g>
	<path class="st1" d="M502.95-94.25c1.38-0.63,2.83-1.35,4.32-2.16c0,0-1.63,1.7-4.32,3.77V-94.25z"/>
	<path class="st1" d="M532.7-132.35c-0.13,0.07-0.98,0.55-2.37,1.38c-3.82,2.28-11.72,7.21-19.94,13.63
		c-2.25,1.76-4.52,3.62-6.74,5.58c-0.23,0.21-0.47,0.41-0.7,0.62c-2.4,2.14-4.74,4.4-6.9,6.72c-0.57,0.61-1.1,1.2-1.59,1.76
		c-7.9,9.06-6.18,12.31,0,11.26v1.15c0,0.87,0.3,1.67,0.8,2.33c-3.14,1.46-6.67,2.51-10.31,2.47c-6.92-0.07-3.13-10.93,9.5-23.07
		c4.02-3.86,8.94-7.86,14.69-11.67c6.19-4.11,13.35-8,21.41-11.31C531.26-131.78,531.98-132.07,532.7-132.35z"/>
	<path class="st1" d="M541.52-116.56c0,0,7.29-7.46,4.55-10.97c-0.72-0.92-2.74-0.87-5.73,0.02c-3.59,1.07-8.58,3.35-14.37,6.59
		c-4.16,2.33-8.73,5.15-13.5,8.38c-2.3,1.56-4.65,3.21-7.02,4.95c-0.83,0.61-1.67,1.23-2.5,1.86c-1.01,0.76-2.02,1.53-3.03,2.32
		c0.07-0.08,1.16-1.27,3.03-3.14c0.61-0.61,1.3-1.29,2.07-2.03c1.81-1.74,4.03-3.8,6.57-5.97c4.77-4.09,10.65-8.62,16.95-12.28
		c3.83-2.23,7.82-4.14,11.8-5.43c1.12-0.36,2.24-0.68,3.35-0.94C564.92-138.15,547.79-118.37,541.52-116.56z"/>
	<g>
		<polygon class="st0" points="467.13,-56.25 463.7,-56.25 463.7,-77.24 469.44,-77.24 475.14,-62.49 480.7,-77.24 486.31,-77.24 
			486.31,-56.25 482.92,-56.25 482.92,-73.03 476.36,-56.25 473.74,-56.25 467.09,-73.26 		"/>
		<polygon class="st0" points="494.81,-77.24 500.83,-56.43 504.54,-56.43 509.47,-71.67 514.31,-56.43 517.99,-56.43 
			523.99,-77.24 520.42,-77.24 516.07,-62.49 511.32,-77.24 507.71,-77.24 502.78,-62.54 498.34,-77.24 		"/>
		<polygon class="st0" points="546.2,-77.24 532.18,-77.24 532.18,-56.25 546.69,-56.25 546.69,-59.55 535.93,-59.55 535.93,-65.3 
			545.56,-65.3 545.56,-68.64 535.97,-68.64 535.97,-74.07 546.15,-74.07 		"/>
		<path class="st0" d="M567.55-67.47c0,0,3.53-0.9,3.53-4.66c0-3.75-3.62-5.11-5.52-5.11c-1.9,0-9.09,0-9.09,0v20.99
			c0,0,7.42,0,9.5,0c2.08,0,5.88-1.67,5.88-5.66C571.84-65.88,568.27-67.42,567.55-67.47z M560.17-74.11h4.66
			c0.75,0,1.43,0.3,1.92,0.79c0.49,0.49,0.79,1.17,0.79,1.92c0,1.5-1.21,2.71-2.71,2.71h-4.66V-74.11z M565.29-59.29h-5.12v-5.96
			h5.12c0.82,0,1.57,0.33,2.11,0.87c0.54,0.54,0.87,1.28,0.87,2.11C568.27-60.62,566.93-59.29,565.29-59.29z"/>
	</g>
</g>
<g>
	<g>
		<circle class="st0" cx="75.29" cy="-198.25" r="1.49"/>
		<circle class="st0" cx="71.15" cy="-191.13" r="1.49"/>
		<circle class="st0" cx="83.5" cy="-191.13" r="1.49"/>
		<circle class="st0" cx="77.32" cy="-201.8" r="1.49"/>
		<circle class="st0" cx="69.11" cy="-187.58" r="1.49"/>
		<circle class="st0" cx="73.33" cy="-187.58" r="1.49"/>
		<circle class="st0" cx="81.47" cy="-187.58" r="1.49"/>
		<circle class="st0" cx="85.62" cy="-187.58" r="1.49"/>
		<circle class="st0" cx="75.29" cy="-205.44" r="1.49"/>
		<circle class="st0" cx="79.36" cy="-205.44" r="1.49"/>
		<g>
			<circle class="st0" cx="71.22" cy="-205.44" r="1.49"/>
			<circle class="st0" cx="69.11" cy="-201.8" r="1.49"/>
			<circle class="st0" cx="67.11" cy="-198.25" r="1.49"/>
			<circle class="st0" cx="65.04" cy="-194.69" r="1.49"/>
			<circle class="st0" cx="69.17" cy="-194.69" r="1.49"/>
			<circle class="st0" cx="73.29" cy="-194.69" r="1.49"/>
			<circle class="st0" cx="77.42" cy="-194.69" r="1.49"/>
			<circle class="st0" cx="81.54" cy="-194.69" r="1.49"/>
			<circle class="st0" cx="85.66" cy="-194.69" r="1.49"/>
			<circle class="st0" cx="89.79" cy="-194.69" r="1.49"/>
			<circle class="st0" cx="71.15" cy="-198.25" r="1.49"/>
			<circle class="st0" cx="79.36" cy="-198.25" r="1.49"/>
			<circle class="st0" cx="83.5" cy="-198.25" r="1.49"/>
			<circle class="st0" cx="87.69" cy="-198.25" r="1.49"/>
			<circle class="st0" cx="67.11" cy="-191.13" r="1.49"/>
			<circle class="st0" cx="75.29" cy="-191.13" r="1.49"/>
			<circle class="st0" cx="79.36" cy="-191.13" r="1.49"/>
			<circle class="st0" cx="87.69" cy="-191.13" r="1.49"/>
			<circle class="st0" cx="73.33" cy="-201.8" r="1.49"/>
			<circle class="st0" cx="81.47" cy="-201.8" r="1.49"/>
			<circle class="st0" cx="85.62" cy="-201.8" r="1.49"/>
			<circle class="st0" cx="77.32" cy="-187.58" r="1.49"/>
			<circle class="st0" cx="83.43" cy="-205.44" r="1.49"/>
		</g>
		<circle class="st0" cx="71.22" cy="-184.02" r="1.49"/>
		<circle class="st0" cx="75.29" cy="-184.02" r="1.49"/>
		<circle class="st0" cx="79.36" cy="-184.02" r="1.49"/>
		<circle class="st0" cx="83.43" cy="-184.02" r="1.49"/>
	</g>
	<polygon class="st0" points="96.79,-185.94 98.5,-185.94 98.5,-201.38 105.15,-186.09 106.6,-186.09 113.08,-201.38 
		113.08,-185.94 114.89,-185.94 114.89,-203.29 112.24,-203.29 105.84,-188.25 99.31,-203.29 96.79,-203.29 	"/>
	<polygon class="st0" points="127.38,-203.29 127.38,-201.65 119.73,-201.65 119.73,-187.31 127.38,-187.31 127.38,-185.8 
		118.01,-185.8 118.01,-203.29 	"/>
	<rect x="119.36" y="-195.24" class="st0" width="7.63" height="1.34"/>
	<rect x="129.03" y="-203.29" class="st0" width="9.75" height="1.64"/>
	<rect x="132.99" y="-201.99" class="st0" width="1.71" height="16.05"/>
	<path class="st0" d="M142.23-185.94h-1.65v-17.36c0,0,4.77,0,5.84,0s5.91,0.43,5.91,5.4s-5.09,5.31-5.09,5.31l4.82,6.65h-2.08
		l-5.81-7.96c0,0,1.85,0,2.72,0s3.93-0.67,3.93-3.59s-2.08-4.33-4.03-4.33c-1.95,0-4.63,0-4.63,0L142.23-185.94z"/>
	<path class="st0" d="M163.11-203.57c-5.12,0-9.27,4.04-9.27,9.03c0,4.99,4.15,9.04,9.27,9.04c5.12,0,9.27-4.04,9.27-9.04
		C172.38-199.52,168.23-203.57,163.11-203.57z M163.07-186.83c-4.25,0-7.7-3.45-7.7-7.7c0-4.25,3.45-7.7,7.7-7.7
		c4.26,0,7.7,3.45,7.7,7.7C170.77-190.28,167.32-186.83,163.07-186.83z"/>
	<rect x="174.7" y="-203.57" class="st0" width="9.1" height="2.99"/>
	<rect x="174.7" y="-203.57" class="st0" width="3.26" height="17.63"/>
	<rect x="179.25" y="-196.01" class="st0" width="4.55" height="3.12"/>
	<rect x="186.25" y="-203.57" class="st0" width="3.43" height="17.63"/>
	<polygon class="st0" points="229.74,-200.44 229.74,-203.57 223.53,-203.57 220.1,-203.57 220.1,-185.94 223.53,-185.94 
		229.74,-185.94 229.74,-188.92 223.53,-188.92 223.53,-200.44 	"/>
	<rect x="224.71" y="-196.01" class="st0" width="4.77" height="3.12"/>
	<path class="st0" d="M201.21-195.25c0,0,2.07-0.66,2.07-4.11s-3.63-4.21-4.73-4.21h-5.64v17.63h6.17c1.13,0,5.21-0.96,5.21-4.84
		C204.29-194.65,201.21-195.25,201.21-195.25z M196.33-200.37h1.84c1.17,0,2.12,0.95,2.12,2.11c0,0.58-0.24,1.11-0.62,1.5
		c-0.38,0.38-0.92,0.62-1.5,0.62h-1.84V-200.37z M201.11-191.01c0,1.35-1.1,2.45-2.45,2.45h-2.33v-4.99h2.33
		c1.35,0,2.45,1.1,2.45,2.45V-191.01z"/>
	<path class="st0" d="M218.34-198.25c0-4.76-4.51-5.31-5.21-5.31h-6.59v17.63h3.43v-6.67l4.68,6.67h3.53l-4.54-6.5
		C213.63-192.43,218.34-193.49,218.34-198.25z M209.96-194.75v-5.62h2.45c1.55,0,2.81,1.26,2.81,2.81c0,0.77-0.31,1.48-0.82,1.99
		c-0.51,0.51-1.21,0.82-1.99,0.82H209.96z"/>
</g>
<g>
	<path class="st0" d="M-712.72,239c-17.45,0-31.59,14.14-31.59,31.59s14.14,31.59,31.59,31.59c17.45,0,31.59-14.14,31.59-31.59
		S-695.27,239-712.72,239z M-712.87,296.29c-14.11,0-25.54-11.44-25.54-25.54c0-14.11,11.44-25.55,25.54-25.55
		c14.11,0,25.55,11.44,25.55,25.55C-687.32,284.85-698.76,296.29-712.87,296.29z"/>
	<path class="st0" d="M-703.86,275.93c-1.79,2.86-4.98,4.76-8.62,4.76c-5.6,0-10.15-4.52-10.15-10.09c0-5.57,4.54-10.09,10.15-10.09
		c3.66,0,6.87,1.93,8.66,4.82l4.98-3.95c-3.01-4.29-8.05-7.1-13.77-7.1c-9.22,0-16.7,7.31-16.7,16.33c0,9.02,7.47,16.33,16.7,16.33
		c5.95,0,11.17-3.04,14.13-7.62L-703.86,275.93z"/>
	<path class="st0" d="M-803.97,275.93c-1.79,2.86-4.98,4.76-8.62,4.76c-5.6,0-10.15-4.52-10.15-10.09c0-5.57,4.54-10.09,10.15-10.09
		c3.66,0,6.87,1.93,8.66,4.82l4.98-3.95c-3.01-4.29-8.05-7.1-13.77-7.1c-9.22,0-16.7,7.31-16.7,16.33c0,9.02,7.47,16.33,16.7,16.33
		c5.95,0,11.17-3.04,14.13-7.62L-803.97,275.93z"/>
	<rect x="-768.72" y="253.65" class="st0" width="5.49" height="32.66"/>
	<rect x="-756.51" y="253.65" class="st0" width="5.49" height="32.66"/>
	<path class="st0" d="M-773.3,276.54c0-0.1,0-0.2,0-0.31c0-6.07-4.92-10.99-10.99-10.99s-10.99,4.92-10.99,10.99
		s4.92,10.99,10.99,10.99c4.2,0,7.85-2.36,9.7-5.82l-4.88-2.33c-0.97,1.68-2.7,2.8-4.66,2.8c-3.03,0-5.49-2.66-5.49-5.95
		c0-3.29,2.46-5.95,5.49-5.95s5.49,2.66,5.49,5.95c0,0.21-0.01,0.41-0.03,0.61H-773.3z"/>
	<path class="st0" d="M-773.3,277.46h-17.4v-3.97h13.43C-775.08,273.49-773.3,275.27-773.3,277.46L-773.3,277.46z"/>
</g>
<g>
	<path class="st0" d="M-308.93,9.59c-3.59,0-6.5,2.91-6.5,6.5c0,3.6,2.91,6.51,6.5,6.51c3.59,0,6.51-2.91,6.51-6.51
		C-302.42,12.5-305.34,9.59-308.93,9.59z M-308.93,18.7c-1.44,0-2.6-1.17-2.6-2.61c0-1.43,1.16-2.6,2.6-2.6c1.44,0,2.6,1.17,2.6,2.6
		C-306.33,17.53-307.49,18.7-308.93,18.7z"/>
	<path class="st0" d="M-267.3,9.59c-3.59,0-6.5,2.91-6.5,6.5c0,3.6,2.91,6.51,6.5,6.51c3.59,0,6.51-2.91,6.51-6.51
		C-260.79,12.5-263.71,9.59-267.3,9.59z M-267.3,18.7c-1.44,0-2.6-1.17-2.6-2.61c0-1.43,1.16-2.6,2.6-2.6s2.6,1.17,2.6,2.6
		C-264.7,17.53-265.86,18.7-267.3,18.7z"/>
	<path class="st0" d="M-288.11,46.02c-3.6,0-6.51,2.91-6.51,6.5c0,3.59,2.91,6.5,6.51,6.5c3.59,0,6.5-2.91,6.5-6.5
		C-281.61,48.93-284.52,46.02-288.11,46.02z M-288.11,55.12c-1.44,0-2.61-1.16-2.61-2.6s1.17-2.6,2.61-2.6c1.43,0,2.6,1.16,2.6,2.6
		S-286.68,55.12-288.11,55.12z"/>
	<path class="st0" d="M-288.11,21.54c-4,0-7.24,3.24-7.24,7.24s3.24,7.23,7.24,7.23c3.99,0,7.23-3.23,7.23-7.23
		S-284.12,21.54-288.11,21.54z M-288.11,31.67c-1.6,0-2.9-1.29-2.9-2.89c0-1.6,1.3-2.9,2.9-2.9c1.59,0,2.89,1.3,2.89,2.9
		C-285.22,30.38-286.52,31.67-288.11,31.67z"/>
	<path class="st0" d="M-284.95,37.65v6.63c-1-0.4-2.1-0.62-3.25-0.62c-1.03,0-2.01,0.18-2.93,0.5v-6.51
		c0.97,0.31,2.01,0.48,3.09,0.48S-285.92,37.96-284.95,37.65z"/>
	<path class="st0" d="M-272.54,22.63l-5.78,3.95c-0.45-2.1-1.6-3.94-3.22-5.29l5.82-3.98C-275.35,19.46-274.19,21.34-272.54,22.63z"
		/>
	<path class="st0" d="M-294.57,21.32c-1.6,1.35-2.75,3.2-3.19,5.29l-5.86-3.68c1.65-1.28,2.82-3.14,3.23-5.27L-294.57,21.32z"/>
	<path class="st0" d="M-273.06,9.51c-1.47,1.35-2.47,3.22-2.72,5.31l-11.86-6.55c-0.25-0.14-0.56-0.14-0.8,0.01l-11.84,6.86
		c-0.22-2.21-1.26-4.17-2.8-5.59l14.57-7.75c0.3-0.16,0.65-0.16,0.94,0L-273.06,9.51z"/>
	<path class="st0" d="M-293.96,45.82c-1.55,1.34-2.62,3.21-2.93,5.34l-14.34-8.07c-0.45-0.25-0.72-0.72-0.72-1.23V24.29
		c0.91,0.33,1.9,0.5,2.93,0.5c1.03,0,2.01-0.18,2.93-0.5v14.6c0,0.33,0.18,0.63,0.47,0.78L-293.96,45.82z"/>
	<path class="st0" d="M-264.29,23.96V41.7c0,0.5-0.27,0.97-0.71,1.22l-14.5,8.33c-0.27-2.03-1.24-3.84-2.65-5.18l11.59-6.58
		c0.25-0.14,0.41-0.41,0.41-0.7V23.96c0.91,0.33,1.9,0.51,2.93,0.51C-266.19,24.47-265.21,24.29-264.29,23.96z"/>
	<rect x="-229.82" y="19.1" class="st0" width="4.89" height="24.72"/>
	<rect x="-251.61" y="9.51" class="st0" width="4.89" height="34.31"/>
	<rect x="-229.67" y="10.49" class="st0" width="4.89" height="5.2"/>
	<path class="st0" d="M-246.72,9.51c0,0,2.09,0,3.42,0s9.42,0.23,9.42,7.96s-5.87,8.06-5.87,8.06h-7.23v-1.36c0,0,3.01,0,4.37,0
		c1.36,0,4.51-1.49,4.51-5.47s-2.4-5.61-4.98-5.61s-4.55,0-4.55,0L-246.72,9.51z"/>
	<path class="st0" d="M-246.72,43.82c0,0,2.77,0,4.56,0s8.92-0.93,8.92-9.91s-8.34-8.81-8.34-8.81h-6.3l0.97,2.65c0,0,1.9,0,2.97,0
		s5.76,0.32,5.76,6.37s-5.26,6.16-6.16,6.16c-0.9,0-3.12,0-3.12,0L-246.72,43.82z"/>
	<path class="st0" d="M-219.17,10.67h4.8c0,0,0,27.25,0,27.75c0,0.5,0.68,2.51,3.72,1.54v4.12c0,0-2.86,0-4.69,0
		c-1.83,0-3.83-1.72-3.83-5.73S-219.17,10.67-219.17,10.67z"/>
	<rect x="-221.68" y="19.3" class="st0" width="11.03" height="3.54"/>
	<path class="st0" d="M-189.31,20.41h-4.91v-3.6c0-2.06-1.67-3.73-3.73-3.73h-0.07c-2.85,0-5.15,2.31-5.15,5.15v16.92
		c0,2.85,2.31,5.15,5.15,5.15h0c2.06,0,3.73-1.67,3.73-3.73v-4.9h4.98v3.58c0,4.86-3.94,8.81-8.81,8.81h-1.23
		c-4.68,0-8.47-3.79-8.47-8.47V17.32c0-4.68,3.79-8.47,8.47-8.47h1.23c4.86,0,8.81,3.94,8.81,8.81V20.41z"/>
	<path class="st0" d="M-178.69,18.8h-1.36c-3.65,0-6.61,2.95-6.61,6.6v12.32c0,3.65,2.96,6.6,6.61,6.6h1.36c3.65,0,6.6-2.95,6.6-6.6
		V25.4C-172.09,21.75-175.04,18.8-178.69,18.8z M-177.03,38c0,1.22-0.99,2.21-2.21,2.21h-0.09c-1.22,0-2.21-0.99-2.21-2.21V25.05
		c0-1.22,0.99-2.21,2.21-2.21h0.09c1.22,0,2.21,0.99,2.21,2.21V38z"/>
</g>
<g>
	<path class="st0" d="M77.17,1.42c-42.19,0-76.39,13.34-76.39,29.79c0,16.46,34.2,29.8,76.39,29.8s76.39-13.34,76.39-29.8
		C153.56,14.76,119.36,1.42,77.17,1.42z M54.31,45.7l5.08-18.99h-0.08L49.21,45.7H42.6V26.71h-0.14L37.38,45.7h-8.61l7.93-29.6
		h12.51v17.41h0.09l8.49-17.41H70.5l-7.93,29.6H54.31z M81.85,46.28h-9.11l1.12-4.2h9.12L81.85,46.28z M83.3,40.89h-9.12l4.61-17.2
		H70.5l2.03-7.59h25.7l-2.03,7.59h-8.29L83.3,40.89z M117.93,45.7h-8.52l-4.39-16.17h-0.08l-4.32,16.17h-8.28l7.92-29.6h8.96
		l4.04,15.84h0.08l4.24-15.84h8.28L117.93,45.7z"/>
	<path class="st0" d="M77.17,1.42c-42.19,0-76.39,13.34-76.39,29.79c0,16.46,34.2,29.8,76.39,29.8s76.39-13.34,76.39-29.8
		C153.56,14.76,119.36,1.42,77.17,1.42z M54.31,45.7l5.08-18.99h-0.08L49.21,45.7H42.6V26.71h-0.14L37.38,45.7h-8.61l7.93-29.6
		h12.51v17.41h0.09l8.49-17.41H70.5l-7.93,29.6H54.31z M81.85,46.28h-9.11l1.12-4.2h9.12L81.85,46.28z M83.3,40.89h-9.12l4.61-17.2
		H70.5l2.03-7.59h25.7l-2.03,7.59h-8.29L83.3,40.89z M117.93,45.7h-8.52l-4.39-16.17h-0.08l-4.32,16.17h-8.28l7.92-29.6h8.96
		l4.04,15.84h0.08l4.24-15.84h8.28L117.93,45.7z"/>
</g>
<g>
	<g>
		<path class="st0" d="M271.75,654.09v-8.06c0-3.59-2.52-5.74-6.85-5.74c-1.48,0-2.78,0.42-3.53,0.87
			c-4.66-1.97-8.17-0.68-9.92,0.39v12.54h3.74V643.7c0,0,0.35-0.34,1.39-0.34c2.07,0,3.11,1.04,3.11,3.07v7.65h3.64v-8.96
			c0-0.75-0.24-1.27-0.21-1.29c0.06-0.03,0.87-0.48,1.73-0.48c2.07,0,3.11,1.04,3.11,3.07v7.65H271.75z M249.56,647.37
			c0-4.02-2.7-7.05-7.05-7.05c-4.31,0-7.01,3.03-7.01,7.05c0,5.33,4.18,7.05,7.01,7.05C247.91,654.41,249.56,650.18,249.56,647.37
			 M245.62,647.4c0,2.54-1.33,3.95-3.1,3.95c-1.78,0-3.11-1.4-3.11-3.95c0-2.19,1.02-4.01,3.11-4.01
			C244.59,643.38,245.62,645.21,245.62,647.4 M226.79,647.3c0-3.4,2.6-3.83,3.4-3.83c2.03,0,3.34,0.85,3.34,0.85l0.84-3.09
			c-0.26-0.12-2.01-0.9-4.13-0.9c-5.62,0-7.21,4.55-7.22,7.1c0,3.78,2.75,7,7.57,7c1.94,0,4.05-1.03,4.05-1.03l-1.02-2.82
			c0,0-1.78,0.73-2.96,0.73C228.31,651.29,226.79,649.78,226.79,647.3 M217.85,654.08h3.29v-12.71c-1.28-0.51-3.54-1.06-5.77-1.06
			c-4.49,0-7.63,3.1-7.63,7.34c0,5.18,3.85,6.76,6.25,6.76c1.75,0,2.85-0.63,3.62-1.5L217.85,654.08z M217.41,649.95
			c-0.44,0.74-1.42,1.39-2.67,1.39c-1.46,0-3.1-1.04-3.1-3.83c0-2.63,1.86-4.02,3.65-4.02c0.91,0,1.72,0.14,2.12,0.25V649.95z
			 M200.35,654.41c2.27,0,4.13-0.26,5.73-0.59v-18.66h-3.69v5.66c-0.62-0.25-1.75-0.51-2.92-0.51c-4.05,0-6.75,3.03-6.75,6.97
			C192.72,653.43,197.57,654.41,200.35,654.41 M200.43,651.31c-1.8,0-3.8-1.01-3.8-4.02c0-2.19,1.13-3.9,3.14-3.9
			c1.13,0,2.05,0.29,2.63,0.62v7.16C201.89,651.27,201.16,651.31,200.43,651.31 M191.18,647.37c0-4.02-2.7-7.05-7.05-7.05
			c-4.31,0-7.01,3.03-7.01,7.05c0,5.33,4.18,7.05,7.01,7.05C189.53,654.41,191.18,650.18,191.18,647.37 M187.24,647.4
			c0,2.54-1.32,3.95-3.1,3.95c-1.78,0-3.11-1.4-3.11-3.95c0-2.19,1.02-4.01,3.11-4.01C186.22,643.38,187.24,645.21,187.24,647.4
			 M171.63,654.09l5.44-13.44h-4.16l-3.21,8.77l-3.32-8.77h-4.35l5.66,13.44H171.63z"/>
	</g>
	<path class="st0" d="M242.84,603.75c0,14.33-11.62,25.95-25.95,25.95s-25.95-11.62-25.95-25.95s11.62-25.95,25.95-25.95
		c3.21,0,6.28,0.58,9.11,1.64c-0.22,0.01-0.45,0.03-0.69,0.04c-0.34,0.03-0.7,0.07-1.08,0.12c-0.89,0.12-1.84,0.3-2.82,0.54
		c-0.15,0.04-1.25,0.33-1.4,0.38c-0.74,0.22-1.49,0.48-2.24,0.76c-2.75,1.06-5.3,2.52-7.47,4.38c-3.69,3.12-6.5,7.44-7.68,12.23
		c-0.32,1.27-0.51,2.58-0.59,3.91c0,0.02-0.01,0.25-0.01,0.28c-0.01,0.09-0.02,0.7-0.02,0.79c0,0.68,0.03,1.35,0.11,2.02
		c0.1,0.91,0.26,1.81,0.5,2.68c0.01,0.04,0.08,0.32,0.09,0.36c0.45,1.56,1.11,3.03,1.97,4.36c0.57,0.9,1.23,1.72,1.97,2.47
		c1.86,1.89,4.16,3.27,6.66,3.99c0.76,0.22,1.54,0.38,2.31,0.48c0.5,0.06,1.02,0.1,1.53,0.1c1.37,0.02,2.74-0.16,4.06-0.52
		c1.88-0.52,3.62-1.4,5.14-2.6c0.43-0.34,0.85-0.71,1.25-1.1c1.06-1.06,1.94-2.27,2.61-3.59c1.03-2.01,1.57-4.27,1.57-6.56
		c0-0.06-0.01-0.48-0.01-0.53c-0.05-1.38-0.26-2.7-0.63-3.92c-0.38-1.25-0.92-2.4-1.62-3.44c-0.02-0.04-0.2-0.29-0.22-0.32
		c-0.97-1.35-2.22-2.51-3.73-3.44c-1.62-1-3.53-1.75-5.73-2.22c-0.01-0.04-0.27-0.13-0.27-0.16c0-0.07-0.03-0.49-0.02-0.55
		c0-0.03-0.01-0.23-0.01-0.26c0.22-4.4,2.7-8.31,6.57-10.21c0.04-0.03,0.09-0.05,0.14-0.07c0.13-0.06,0.24-0.11,0.33-0.16
		C236.1,583.5,242.84,592.84,242.84,603.75z"/>
</g>
<g>
	<path class="st0" d="M884.39,1233.35l-9.25,8.04c1.46,1.6,3.08,3.05,4.83,4.35l7.38-9.78
		C886.26,1235.18,885.28,1234.31,884.39,1233.35z"/>
	<path class="st0" d="M879.7,1225.54l-11.79,3.4c0.63,1.96,1.42,3.84,2.38,5.63l10.78-5.81
		C880.54,1227.74,880.07,1226.65,879.7,1225.54z"/>
	<path class="st0" d="M878.88,1215.24l-11.99-2.55c-0.36,1.97-0.55,3.98-0.55,6.05c0,0.27,0,0.55,0.01,0.81l12.24-0.31
		c-0.01-0.17-0.01-0.34-0.01-0.51C878.58,1217.55,878.68,1216.38,878.88,1215.24z"/>
	<path class="st0" d="M872,1200.07c-1.1,1.65-2.06,3.39-2.85,5.21l11.3,4.74c0.47-1.04,1.01-2.05,1.64-2.99L872,1200.07z"/>
	<path class="st0" d="M882.14,1190.25c-1.63,1.01-3.16,2.15-4.58,3.43l8.29,9.03c0.81-0.72,1.69-1.38,2.61-1.97L882.14,1190.25z"/>
	<path class="st0" d="M896.59,1185.33c-2.21,0.22-4.36,0.66-6.42,1.28l3.72,11.67c1.2-0.36,2.45-0.61,3.73-0.74L896.59,1185.33z"/>
	<path class="st0" d="M904.78,1185.53l-1.6,12.14c1.21,0.18,2.38,0.47,3.52,0.84l4.16-11.51
		C908.91,1186.32,906.88,1185.82,904.78,1185.53z"/>
	<path class="st0" d="M917.97,1190.44l-6.36,10.47c0.98,0.65,1.91,1.37,2.77,2.17l8.39-8.93
		C921.29,1192.78,919.68,1191.53,917.97,1190.44z"/>
	<path class="st0" d="M927.96,1200.29l-10.07,7c0.65,1.01,1.22,2.1,1.69,3.22l11.41-4.46
		C930.16,1204.02,929.14,1202.1,927.96,1200.29z"/>
	<path class="st0" d="M921.17,1220.29c-0.09,1.27-0.29,2.51-0.61,3.71l11.87,3.06c0.53-2.07,0.86-4.22,0.99-6.42L921.17,1220.29z"/>
	<path class="st0" d="M918.39,1229.35c-0.52,0.92-1.11,1.8-1.78,2.62l9.55,7.68c1.16-1.46,2.2-3.01,3.11-4.65L918.39,1229.35z"/>
	<path class="st0" d="M912.42,1236c-0.91,0.67-1.88,1.26-2.9,1.78l5.37,11c1.8-0.89,3.5-1.95,5.09-3.13L912.42,1236z"/>
	<path class="st0" d="M915.96,1232.74c-0.82,0.96-1.75,1.86-2.75,2.65l7.55,9.64c1.74-1.38,3.34-2.93,4.77-4.62L915.96,1232.74z"/>
	<path class="st0" d="M920.3,1224.97c-0.38,1.23-0.85,2.4-1.44,3.52l10.86,5.64c1.01-1.94,1.83-3.97,2.44-6.11L920.3,1224.97z"/>
	<path class="st0" d="M933.13,1213.96l-12.08,2.09c0.12,0.88,0.18,1.78,0.18,2.69c0,0.19,0,0.38-0.02,0.56l12.25,0.35
		c0.01-0.3,0.01-0.61,0.01-0.9C933.47,1217.12,933.35,1215.52,933.13,1213.96z"/>
	<path class="st0" d="M931.35,1206.97l-11.41,4.46c0.43,1.16,0.75,2.38,0.95,3.64l12.07-2.09
		C932.62,1210.92,932.07,1208.9,931.35,1206.97z"/>
	<path class="st0" d="M923.49,1194.85l-8.4,8.93c0.82,0.83,1.58,1.73,2.24,2.69l10.06-7
		C926.23,1197.82,924.93,1196.27,923.49,1194.85z"/>
	<path class="st0" d="M911.79,1187.34l-4.17,11.52c1.1,0.42,2.15,0.93,3.15,1.53l6.36-10.47
		C915.44,1188.91,913.66,1188.04,911.79,1187.34z"/>
	<path class="st0" d="M899.91,1185.17c-0.78,0-1.56,0.03-2.33,0.08l1.03,12.2c0.44-0.03,0.86-0.04,1.3-0.04
		c0.77,0,1.54,0.04,2.29,0.12l1.6-12.13C902.52,1185.25,901.23,1185.17,899.91,1185.17z"/>
	<path class="st0" d="M889.22,1186.91c-2.18,0.73-4.28,1.69-6.24,2.84l6.32,10.49c1.14-0.67,2.36-1.22,3.63-1.66L889.22,1186.91z"/>
	<path class="st0" d="M876.83,1194.34c-1.58,1.51-3.01,3.15-4.28,4.92l10.09,6.96c0.74-1.03,1.57-1.99,2.48-2.86L876.83,1194.34z"/>
	<path class="st0" d="M868.76,1206.2c-0.72,1.77-1.28,3.61-1.69,5.52l11.98,2.54c0.24-1.14,0.58-2.25,1-3.32L868.76,1206.2z"/>
	<path class="st0" d="M878.64,1220.24l-12.25,0.31c0.14,2.56,0.56,5.05,1.24,7.44l11.78-3.4
		C879,1223.2,878.74,1221.74,878.64,1220.24z"/>
	<path class="st0" d="M881.58,1229.63l-10.79,5.8c1.05,1.86,2.29,3.6,3.68,5.21l9.25-8.04
		C882.92,1231.68,882.2,1230.68,881.58,1229.63z"/>
	<path class="st0" d="M888.16,1236.52l-7.39,9.8c1.5,1.04,3.1,1.97,4.77,2.76l5.14-11.12
		C889.81,1237.55,888.97,1237.06,888.16,1236.52z"/>
	<path class="st0" d="M896.87,1219.23c0,1.67-1.35,3.03-3.02,3.03s-3.02-1.36-3.02-3.03c0-1.67,1.35-3.03,3.02-3.03
		S896.87,1217.56,896.87,1219.23z"/>
	<path class="st0" d="M899.91,1203.08c-8.39,0-15.18,6.8-15.18,15.18s6.79,15.17,15.18,15.17c8.38,0,15.17-6.79,15.17-15.17
		S908.29,1203.08,899.91,1203.08z M893.85,1225.28c-3.34,0-6.05-2.72-6.05-6.05c0-3.35,2.71-6.06,6.05-6.06
		c3.34,0,6.05,2.71,6.05,6.06C899.9,1222.56,897.19,1225.28,893.85,1225.28z M908.51,1225.09l-5.28-6.82v6.82h-2.88v-11.82h2.79
		l5.04,7.04v-7.04h3.01v11.82H908.51z"/>
	<polygon class="st0" points="864.65,1283.54 872.39,1283.54 886.46,1258.91 886.46,1283.54 892.6,1283.54 892.6,1253.14 
		885.06,1253.14 	"/>
	<polygon class="st0" points="878.62,1268.34 887.45,1268.34 887.45,1273.83 874.78,1273.83 	"/>
	<rect x="897.02" y="1238.79" class="st0" width="5.91" height="44.75"/>
	<path class="st0" d="M925.55,1273.08c3.81-1.52,6.51-5.24,6.51-9.6c0-5.71-4.64-10.34-10.35-10.34h-15.24v30.39h6.31v-9.71h5.61
		l7.2,9.71h7.32L925.55,1273.08z M921.2,1268.81h-8.42v-9.9h8.42c1.36,0,2.6,0.56,3.5,1.45c0.89,0.89,1.45,2.13,1.45,3.5
		C926.15,1266.59,923.93,1268.81,921.2,1268.81z"/>
</g>
</svg>
