<?xml version="1.0" encoding="utf-8"?>
<!-- Generator: Adobe Illustrator 23.1.1, SVG Export Plug-In . SVG Version: 6.00 Build 0)  -->
<svg version="1.1" id="Layer_1" xmlns="http://www.w3.org/2000/svg" xmlns:xlink="http://www.w3.org/1999/xlink" x="0px" y="0px"
	 viewBox="0 0 156.05 37.32" style="enable-background:new 0 0 156.05 37.32;" xml:space="preserve">
<style type="text/css">
	.st0{fill:#151E40;}
</style>
<g>
	<g>
		<path class="st0" d="M8.47,13.15c-0.91,0-1.67,0.12-2.28,0.35c-0.61,0.23-0.92,0.67-0.92,1.31c0,0.49,0.21,0.85,0.63,1.09
			c0.42,0.24,0.94,0.47,1.56,0.67c0.62,0.21,1.29,0.42,2.01,0.65c0.72,0.23,1.39,0.57,2.01,1.02c0.62,0.45,1.14,1.04,1.56,1.79
			c0.42,0.74,0.63,1.71,0.63,2.92c0,1.84-0.6,3.19-1.8,4.03c-1.2,0.84-2.89,1.27-5.07,1.27c-1.29,0-2.38-0.1-3.27-0.29
			c-0.89-0.19-1.61-0.43-2.16-0.71c-0.14-0.08-0.23-0.17-0.27-0.27c-0.04-0.1-0.05-0.24-0.05-0.42v-2.92c0-0.13,0.04-0.21,0.13-0.25
			c0.08-0.04,0.19-0.02,0.31,0.06c0.6,0.41,1.29,0.72,2.08,0.94c0.79,0.22,1.65,0.33,2.59,0.33c1.15,0,2.02-0.15,2.62-0.44
			c0.6-0.29,0.9-0.79,0.9-1.48c0-0.56-0.21-1-0.63-1.31c-0.42-0.31-0.94-0.57-1.56-0.79c-0.62-0.22-1.31-0.44-2.05-0.67
			c-0.74-0.23-1.43-0.55-2.05-0.96c-0.62-0.41-1.14-0.96-1.56-1.65c-0.42-0.69-0.63-1.62-0.63-2.8c0-1.43,0.55-2.62,1.65-3.57
			c1.1-0.95,2.72-1.42,4.85-1.42c1.22,0,2.21,0.09,2.97,0.27c0.75,0.18,1.34,0.37,1.74,0.58c0.24,0.13,0.41,0.24,0.5,0.35
			c0.1,0.1,0.14,0.29,0.14,0.58v2.49c0,0.18-0.05,0.31-0.14,0.38c-0.1,0.08-0.28,0.05-0.54-0.08c-0.53-0.31-1.13-0.56-1.8-0.75
			C9.92,13.24,9.22,13.15,8.47,13.15z"/>
		<path class="st0" d="M90.2,13.15c-0.91,0-1.67,0.12-2.28,0.35c-0.61,0.23-0.92,0.67-0.92,1.31c0,0.49,0.21,0.85,0.63,1.09
			c0.42,0.24,0.94,0.47,1.56,0.67c0.62,0.21,1.29,0.42,2.01,0.65c0.72,0.23,1.39,0.57,2.01,1.02c0.62,0.45,1.14,1.04,1.56,1.79
			c0.42,0.74,0.63,1.71,0.63,2.92c0,1.84-0.6,3.19-1.8,4.03c-1.2,0.84-2.89,1.27-5.07,1.27c-1.29,0-2.38-0.1-3.27-0.29
			c-0.89-0.19-1.61-0.43-2.16-0.71c-0.14-0.08-0.23-0.17-0.27-0.27c-0.04-0.1-0.05-0.24-0.05-0.42v-2.92c0-0.13,0.04-0.21,0.13-0.25
			c0.08-0.04,0.19-0.02,0.31,0.06c0.6,0.41,1.29,0.72,2.08,0.94c0.79,0.22,1.65,0.33,2.59,0.33c1.15,0,2.02-0.15,2.62-0.44
			c0.6-0.29,0.9-0.79,0.9-1.48c0-0.56-0.21-1-0.63-1.31c-0.42-0.31-0.94-0.57-1.56-0.79c-0.62-0.22-1.31-0.44-2.05-0.67
			c-0.74-0.23-1.43-0.55-2.05-0.96c-0.62-0.41-1.14-0.96-1.56-1.65c-0.42-0.69-0.63-1.62-0.63-2.8c0-1.43,0.55-2.62,1.65-3.57
			c1.1-0.95,2.72-1.42,4.85-1.42c1.22,0,2.21,0.09,2.97,0.27c0.75,0.18,1.34,0.37,1.74,0.58c0.24,0.13,0.41,0.24,0.5,0.35
			c0.1,0.1,0.14,0.29,0.14,0.58v2.49c0,0.18-0.05,0.31-0.14,0.38c-0.1,0.08-0.28,0.05-0.54-0.08c-0.53-0.31-1.13-0.56-1.8-0.75
			C91.65,13.24,90.95,13.15,90.2,13.15z"/>
		<path class="st0" d="M23.18,28.23c-2.43,0-4.28-0.71-5.55-2.12c-1.27-1.41-1.91-3.54-1.91-6.39v-9.37c0-0.5,0.23-0.74,0.69-0.74
			h2.65c0.25,0,0.41,0.05,0.48,0.16c0.07,0.1,0.1,0.3,0.1,0.59v9.25c0,1.75,0.31,3,0.94,3.76c0.63,0.76,1.5,1.14,2.59,1.14
			s1.97-0.38,2.61-1.14c0.64-0.76,0.96-2.01,0.96-3.76v-9.25c0-0.5,0.19-0.74,0.58-0.74h2.85c0.3,0,0.45,0.17,0.45,0.51v9.6
			C30.63,25.4,28.15,28.23,23.18,28.23z"/>
		<path class="st0" d="M37.11,11c0.56-0.53,1.22-0.98,1.99-1.35c0.76-0.37,1.68-0.55,2.76-0.55c1.01,0,1.99,0.21,2.93,0.63
			c0.94,0.42,1.77,1.04,2.49,1.86c0.72,0.82,1.29,1.83,1.72,3.03c0.43,1.2,0.64,2.58,0.64,4.14c0,1.56-0.22,2.93-0.66,4.1
			c-0.44,1.18-1.02,2.17-1.75,2.99c-0.73,0.82-1.56,1.43-2.49,1.84c-0.93,0.41-1.89,0.61-2.88,0.61c-1.06,0-1.97-0.17-2.73-0.52
			c-0.76-0.34-1.44-0.78-2.02-1.31v9.44c0,0.32-0.12,0.48-0.37,0.48h-2.96c-0.18,0-0.3-0.05-0.35-0.14
			c-0.06-0.09-0.08-0.21-0.08-0.34V9.92c0-0.29,0.11-0.44,0.34-0.44h3.07c0.25,0,0.37,0.11,0.37,0.32V11z M45.97,18.77
			c0-0.85-0.12-1.63-0.35-2.36c-0.24-0.73-0.56-1.35-0.98-1.86c-0.42-0.52-0.9-0.92-1.47-1.21c-0.56-0.29-1.17-0.44-1.82-0.44
			c-1.77,0-3.19,0.81-4.24,2.42v6.86c1.06,1.56,2.47,2.34,4.24,2.34c0.61,0,1.18-0.14,1.73-0.42c0.55-0.28,1.04-0.66,1.47-1.15
			c0.43-0.49,0.77-1.09,1.03-1.8C45.84,20.43,45.97,19.64,45.97,18.77z"/>
		<path class="st0" d="M67.59,19.53c0,0.3-0.13,0.46-0.39,0.46H55.42c0.16,1.39,0.67,2.48,1.51,3.25c0.84,0.77,2.06,1.16,3.65,1.16
			c0.75,0,1.5-0.08,2.26-0.25c0.76-0.16,1.41-0.4,1.95-0.7c0.23-0.1,0.37-0.12,0.42-0.06c0.05,0.06,0.07,0.16,0.07,0.28v2.62
			c0,0.2-0.02,0.35-0.05,0.44c-0.04,0.09-0.12,0.17-0.26,0.25c-0.63,0.33-1.34,0.59-2.12,0.78c-0.78,0.19-1.74,0.28-2.86,0.28
			c-1.54,0-2.85-0.25-3.93-0.76s-1.95-1.18-2.63-2.01c-0.68-0.84-1.17-1.8-1.47-2.89c-0.3-1.09-0.46-2.22-0.46-3.38
			c0-1.44,0.21-2.74,0.63-3.89c0.42-1.15,1-2.14,1.74-2.96c0.74-0.82,1.6-1.45,2.58-1.88c0.98-0.43,2.03-0.65,3.16-0.65
			c1.12,0,2.17,0.22,3.14,0.65c0.97,0.43,1.82,1.03,2.54,1.8c0.72,0.77,1.29,1.72,1.7,2.83c0.41,1.11,0.61,2.35,0.61,3.72V19.53z
			 M59.59,12.99c-1.05,0-1.92,0.34-2.6,1.03c-0.68,0.68-1.15,1.59-1.4,2.73h8.21c-0.26-1.14-0.74-2.05-1.44-2.73
			C61.66,13.34,60.74,12.99,59.59,12.99z"/>
		<path class="st0" d="M72.93,9.82c0.28,0,0.45,0.18,0.5,0.54l0.11,1.65c0.61-0.87,1.35-1.52,2.2-1.94
			c0.85-0.42,1.74-0.63,2.66-0.63c0.52,0,0.96,0.04,1.33,0.12c0.37,0.08,0.74,0.19,1.12,0.35c0.12,0.05,0.21,0.11,0.27,0.17
			c0.06,0.06,0.09,0.19,0.09,0.37v2.73c0,0.21-0.04,0.32-0.12,0.35c-0.08,0.03-0.18,0.01-0.3-0.04c-0.54-0.26-1.29-0.38-2.23-0.38
			c-0.71,0-1.48,0.21-2.32,0.62c-0.84,0.41-1.67,1.12-2.5,2.12v11.46c0,0.28-0.13,0.42-0.39,0.42h-3.23c-0.14,0-0.24-0.02-0.3-0.06
			c-0.06-0.04-0.09-0.15-0.09-0.33V10.51c0-0.31,0.03-0.5,0.09-0.58c0.06-0.08,0.2-0.12,0.41-0.12H72.93z"/>
		<path class="st0" d="M97.03,19.07c0-1.3,0.23-2.52,0.69-3.68c0.46-1.15,1.09-2.16,1.88-3.02c0.79-0.86,1.72-1.53,2.78-2.02
			c1.06-0.49,2.21-0.74,3.44-0.74c1.21,0,2.34,0.25,3.4,0.74c1.06,0.49,1.99,1.17,2.78,2.02c0.79,0.86,1.42,1.86,1.88,3.02
			c0.46,1.16,0.69,2.38,0.69,3.68c0,1.3-0.23,2.52-0.69,3.66c-0.46,1.14-1.09,2.14-1.88,3c-0.79,0.86-1.72,1.53-2.78,2.02
			c-1.06,0.49-2.2,0.74-3.4,0.74c-1.23,0-2.38-0.25-3.44-0.74c-1.06-0.49-1.99-1.17-2.78-2.02c-0.79-0.86-1.42-1.86-1.88-3
			C97.26,21.59,97.03,20.37,97.03,19.07z M100.89,19.07c0,0.75,0.13,1.46,0.39,2.12c0.26,0.66,0.61,1.23,1.05,1.71
			c0.44,0.48,0.96,0.86,1.56,1.15c0.6,0.29,1.25,0.43,1.93,0.43c0.66,0,1.29-0.14,1.9-0.43c0.6-0.29,1.12-0.67,1.56-1.15
			c0.44-0.48,0.79-1.05,1.05-1.71c0.26-0.66,0.39-1.37,0.39-2.12c0-0.75-0.13-1.46-0.39-2.12c-0.26-0.66-0.61-1.23-1.05-1.71
			c-0.44-0.48-0.96-0.86-1.56-1.15c-0.6-0.29-1.24-0.43-1.9-0.43c-0.69,0-1.33,0.14-1.93,0.43c-0.6,0.29-1.12,0.67-1.56,1.15
			c-0.44,0.48-0.79,1.05-1.05,1.71C101.02,17.61,100.89,18.32,100.89,19.07z"/>
		<path class="st0" d="M120.24,10.74c0.65-0.55,1.4-0.96,2.26-1.23c0.86-0.27,1.72-0.41,2.59-0.41c2.03,0,3.58,0.68,4.65,2.04
			c1.07,1.36,1.61,3.38,1.61,6.07v10.03c0,0.31-0.15,0.47-0.43,0.47h-2.98c-0.25,0-0.37-0.16-0.37-0.47v-9.36
			c0-1.72-0.31-2.95-0.92-3.68c-0.61-0.73-1.45-1.1-2.52-1.1c-0.67,0-1.31,0.11-1.92,0.33c-0.61,0.22-1.28,0.7-1.99,1.43
			l-0.03,12.42c0,0.29-0.12,0.43-0.37,0.43h-2.91c-0.2,0-0.33-0.04-0.38-0.12c-0.06-0.08-0.08-0.18-0.08-0.31V9.91
			c0-0.29,0.11-0.43,0.33-0.43h3.04c0.29,0,0.43,0.14,0.43,0.43V10.74z"/>
		<path class="st0" d="M138.73,27.16c0,0.26-0.03,0.42-0.09,0.47c-0.06,0.05-0.18,0.08-0.35,0.08h-3.1c-0.19,0-0.33-0.02-0.42-0.06
			c-0.09-0.04-0.13-0.19-0.13-0.45V10.24c0-0.31,0.05-0.49,0.15-0.54c0.1-0.05,0.29-0.08,0.58-0.08h2.92c0.12,0,0.22,0.04,0.31,0.12
			c0.08,0.08,0.13,0.23,0.13,0.47V27.16z"/>
		<path class="st0" d="M145.05,18.84c0,0.76,0.13,1.48,0.4,2.16c0.27,0.68,0.65,1.27,1.15,1.77c0.5,0.49,1.1,0.89,1.81,1.18
			c0.71,0.29,1.49,0.44,2.34,0.44c0.83,0,1.53-0.06,2.11-0.19c0.57-0.13,1.18-0.35,1.81-0.68c0.2-0.1,0.29-0.04,0.29,0.19v2.92
			c0,0.13-0.02,0.22-0.06,0.28c-0.04,0.06-0.12,0.12-0.24,0.17c-0.66,0.3-1.38,0.54-2.16,0.7c-0.78,0.16-1.55,0.25-2.31,0.25
			c-1.29,0-2.51-0.24-3.64-0.72c-1.14-0.48-2.12-1.14-2.97-1.97c-0.84-0.84-1.5-1.81-1.98-2.92c-0.48-1.11-0.71-2.3-0.71-3.57
			c0-1.27,0.24-2.46,0.71-3.59c0.48-1.13,1.13-2.11,1.98-2.94c0.84-0.84,1.83-1.49,2.97-1.97c1.13-0.48,2.35-0.72,3.64-0.72
			c0.71,0,1.43,0.09,2.18,0.27c0.74,0.18,1.43,0.41,2.07,0.68c0.15,0.08,0.27,0.15,0.37,0.23c0.1,0.08,0.15,0.22,0.15,0.42v2.92
			c0,0.28-0.15,0.33-0.44,0.15c-0.56-0.33-1.14-0.58-1.72-0.74c-0.59-0.16-1.27-0.25-2.05-0.25c-0.85,0-1.64,0.15-2.34,0.44
			c-0.71,0.29-1.31,0.69-1.81,1.2c-0.5,0.51-0.88,1.1-1.15,1.77C145.18,17.37,145.05,18.08,145.05,18.84z"/>
		<circle class="st0" cx="17.81" cy="2.91" r="2.09"/>
		
			<rect x="27.28" y="1.24" transform="matrix(0.7071 -0.7071 0.7071 0.7071 6.4275 21.3183)" class="st0" width="3.33" height="3.33"/>
		<path class="st0" d="M135.08,0.78h3.44c0.34,0,0.55,0.38,0.36,0.66l-1.72,2.65c-0.17,0.26-0.55,0.26-0.72,0l-1.72-2.65
			C134.54,1.15,134.74,0.78,135.08,0.78z"/>
	</g>
</g>
</svg>
